    0.0000000000E+00    0.2755000000E+01   -0.8679513301E-02    0.2666407845E-02   -0.2917945815E-01    0.1232414864E-01    0.8723902834E-03   -0.7029347340E-02    0.1133999916E-01   -0.3777792992E-02    0.5080775412E-02    0.6490334364E-02   -0.3300658994E-02    0.1205203790E-02   -0.3979805956E-02    0.1234115657E-02    0.3520573808E-03   -0.3905012989E-03    0.5853580735E-03   -0.4708568697E-03   -0.6652649123E-04    0.1266041889E-03   -0.8918897553E-04    0.1614685053E-03   -0.1209701033E-03    0.9145892376E-04    0.1633204332E-04   -0.2801237558E-04    0.2512083675E-04   -0.4657135275E-04    0.4176957033E-04   -0.3214153856E-04   -0.4241376047E-05    0.3003013657E-05   -0.9249824639E-05    0.5817131961E-05   -0.2155851390E-05    0.4384946217E-05
    0.0000000000E+00    0.2760000000E+01   -0.8647217566E-02    0.2758793418E-02   -0.2895329481E-01    0.1248770361E-01    0.9566783485E-03   -0.7013802400E-02    0.1130292236E-01   -0.3872324905E-02    0.5095762246E-02    0.6397698045E-02   -0.3301982770E-02    0.1226874714E-02   -0.3984351549E-02    0.1259851750E-02    0.3498021052E-03   -0.3911470024E-03    0.5823408880E-03   -0.4716262233E-03   -0.6518660664E-04    0.1270012092E-03   -0.8714821273E-04    0.1621287284E-03   -0.1195164998E-03    0.9230939623E-04    0.1609677876E-04   -0.2829256777E-04    0.2488840777E-04   -0.4694191608E-04    0.4142805901E-04   -0.3246203088E-04   -0.4237902668E-05    0.3124256746E-05   -0.9209227742E-05    0.5881534068E-05   -0.2134073638E-05    0.4506916542E-05
    0.0000000000E+00    0.2765000000E+01   -0.8613926223E-02    0.2850358290E-02   -0.2872668152E-01    0.1264868377E-01    0.1040329795E-02   -0.6999807623E-02    0.1126514485E-01   -0.3966377561E-02    0.5109878209E-02    0.6305469353E-02   -0.3303187441E-02    0.1248664122E-02   -0.3988745021E-02    0.1285736324E-02    0.3475571604E-03   -0.3917987168E-03    0.5793418670E-03   -0.4724057526E-03   -0.6384179908E-04    0.1273929834E-03   -0.8510034438E-04    0.1627791939E-03   -0.1180510232E-03    0.9315200282E-04    0.1585985173E-04   -0.2857150887E-04    0.2465046721E-04   -0.4731177004E-04    0.4108449215E-04   -0.3278187418E-04   -0.4233999285E-05    0.3245308855E-05   -0.9169247802E-05    0.5945494819E-05   -0.2110836053E-05    0.4628658001E-05
    0.0000000000E+00    0.2770000000E+01   -0.8579651139E-02    0.2941090885E-02   -0.2849964617E-01    0.1280708963E-01    0.1123328032E-02   -0.6987337791E-02    0.1122667981E-01   -0.4059937558E-02    0.5123130039E-02    0.6213650971E-02   -0.3304272971E-02    0.1270563961E-02   -0.3992983975E-02    0.1311760948E-02    0.3453220438E-03   -0.3924550288E-03    0.5763599905E-03   -0.4731936123E-03   -0.6249209169E-04    0.1277790971E-03   -0.8304540353E-04    0.1634194741E-03   -0.1165733557E-03    0.9398643310E-04    0.1562117586E-04   -0.2884903447E-04    0.2440697676E-04   -0.4768073631E-04    0.4073871062E-04   -0.3310086419E-04   -0.4229623793E-05    0.3366117504E-05   -0.9129746393E-05    0.6008954051E-05   -0.2086125185E-05    0.4750182693E-05
    0.0000000000E+00    0.2775000000E+01   -0.8544403713E-02    0.3030980378E-02   -0.2827221593E-01    0.1296292193E-01    0.1205656014E-02   -0.6976368310E-02    0.1118753951E-01   -0.4152990982E-02    0.5135524880E-02    0.6122245661E-02   -0.3305238615E-02    0.1292566141E-02   -0.3997065333E-02    0.1337917391E-02    0.3430960793E-03   -0.3931146076E-03    0.5733940122E-03   -0.4739880987E-03   -0.6113746814E-04    0.1281591537E-03   -0.8098338520E-04    0.1640491699E-03   -0.1150831610E-03    0.9481243267E-04    0.1538065092E-04   -0.2912498883E-04    0.2415788031E-04   -0.4804864180E-04    0.4039053963E-04   -0.3341881733E-04   -0.4224730238E-05    0.3486635174E-05   -0.9090582080E-05    0.6071862713E-05   -0.2059927370E-05    0.4871502863E-05
    0.0000000000E+00    0.2780000000E+01   -0.8508194941E-02    0.3120016733E-02   -0.2804441725E-01    0.1311618166E-01    0.1287296330E-02   -0.6966875277E-02    0.1114773527E-01   -0.4245523528E-02    0.5147070251E-02    0.6031256297E-02   -0.3306082919E-02    0.1314662619E-02   -0.4000985369E-02    0.1364197696E-02    0.3408784297E-03   -0.3937762240E-03    0.5704424788E-03   -0.4747876743E-03   -0.5977787549E-04    0.1285327785E-03   -0.7891425068E-04    0.1646679135E-03   -0.1135800918E-03    0.9562980423E-04    0.1513816359E-04   -0.2939922612E-04    0.2390310472E-04   -0.4841532075E-04    0.4003979126E-04   -0.3373557210E-04   -0.4219268430E-05    0.3606819448E-05   -0.9051611568E-05    0.6134183448E-05   -0.2032228140E-05    0.4992632015E-05
    0.0000000000E+00    0.2785000000E+01   -0.8471035482E-02    0.3208190732E-02   -0.2781627588E-01    0.1326687013E-01    0.1368231281E-02   -0.6958835539E-02    0.1110727739E-01   -0.4337520618E-02    0.5157774013E-02    0.5940685895E-02   -0.3306803737E-02    0.1336845479E-02   -0.4004739745E-02    0.1390594263E-02    0.3386681098E-03   -0.3944387671E-03    0.5675037525E-03   -0.4755909898E-03   -0.5841322756E-04    0.1288996225E-03   -0.7683793228E-04    0.1652753717E-03   -0.1120637963E-03    0.9643840794E-04    0.1489358888E-04   -0.2967161197E-04    0.2364256088E-04   -0.4878061682E-04    0.3968626719E-04   -0.3405099023E-04   -0.4213185671E-05    0.3726633893E-05   -0.9012690724E-05    0.6195890821E-05   -0.2003013383E-05    0.5113584870E-05
    0.0000000000E+00    0.2790000000E+01   -0.8432935733E-02    0.3295493999E-02   -0.2758781687E-01    0.1341498898E-01    0.1448442972E-02   -0.6952226741E-02    0.1106617514E-01   -0.4428967529E-02    0.5167644331E-02    0.5850537643E-02   -0.3307398250E-02    0.1359107015E-02   -0.4008323557E-02    0.1417099914E-02    0.3364640030E-03   -0.3951012604E-03    0.5645760355E-03   -0.4763969036E-03   -0.5704340867E-04    0.1292593657E-03   -0.7475433819E-04    0.1658712486E-03   -0.1105339253E-03    0.9723816075E-04    0.1464679123E-04   -0.2994202455E-04    0.2337614497E-04   -0.4914438497E-04    0.3932976140E-04   -0.3436495751E-04   -0.4206426439E-05    0.3846047784E-05   -0.8973676131E-05    0.6256970743E-05   -0.1972268366E-05    0.5234376752E-05
    0.0000000000E+00    0.2795000000E+01   -0.8393905897E-02    0.3381919006E-02   -0.2735906457E-01    0.1356054032E-01    0.1527913404E-02   -0.6947027360E-02    0.1102443675E-01   -0.4519849519E-02    0.5176689643E-02    0.5760814919E-02   -0.3307863001E-02    0.1381439809E-02   -0.4011731394E-02    0.1443707962E-02    0.3342648782E-03   -0.3957628744E-03    0.5616573963E-03   -0.4772044981E-03   -0.5566827759E-04    0.1296117197E-03   -0.7266335757E-04    0.1664552863E-03   -0.1089901387E-03    0.9802903507E-04    0.1439762599E-04   -0.3021035565E-04    0.2310373982E-04   -0.4950649307E-04    0.3897006312E-04   -0.3467738434E-04   -0.4198933639E-05    0.3965036767E-05   -0.8934426668E-05    0.6317421150E-05   -0.1939979028E-05    0.5355024513E-05
    0.0000000000E+00    0.2800000000E+01   -0.8353956059E-02    0.3467459082E-02   -0.2713004267E-01    0.1370352667E-01    0.1606624571E-02   -0.6943216734E-02    0.1098206936E-01   -0.4610151959E-02    0.5184918619E-02    0.5671521306E-02   -0.3308193933E-02    0.1403836806E-02   -0.4014957398E-02    0.1470412266E-02    0.3320694085E-03   -0.3964229387E-03    0.5587457981E-03   -0.4780130928E-03   -0.5428767177E-04    0.1299564302E-03   -0.7056486566E-04    0.1670272667E-03   -0.1074321124E-03    0.9881105658E-04    0.1414594088E-04   -0.3047651167E-04    0.2282521676E-04   -0.4986682388E-04    0.3860695965E-04   -0.3498820588E-04   -0.4190648800E-05    0.4083582756E-05   -0.8894800843E-05    0.6377251052E-05   -0.1906131407E-05    0.5475545958E-05
    0.0000000000E+00    0.2805000000E+01   -0.8313096254E-02    0.3552108404E-02   -0.2690077423E-01    0.1384395109E-01    0.1684558549E-02   -0.6940775074E-02    0.1093907910E-01   -0.4699860454E-02    0.5192340122E-02    0.5582660611E-02   -0.3308386439E-02    0.1426291378E-02   -0.4017995331E-02    0.1497207283E-02    0.3298761914E-03   -0.3970809506E-03    0.5558391287E-03   -0.4788222538E-03   -0.5290141179E-04    0.1302932785E-03   -0.6845872889E-04    0.1675870114E-03   -0.1058595437E-03    0.9958430126E-04    0.1389157777E-04   -0.3074041433E-04    0.2254043736E-04   -0.5022527583E-04    0.3824023931E-04   -0.3529738190E-04   -0.4181513238E-05    0.4201674189E-05   -0.8854665053E-05    0.6436481996E-05   -0.1870711894E-05    0.5595960835E-05
    0.0000000000E+00    0.2810000000E+01   -0.8271336541E-02    0.3635861986E-02   -0.2667128171E-01    0.1398181717E-01    0.1761697600E-02   -0.6939683473E-02    0.1089547106E-01   -0.4788960970E-02    0.5198963171E-02    0.5494236869E-02   -0.3308435414E-02    0.1448797391E-02   -0.4020838653E-02    0.1524088113E-02    0.3276837698E-03   -0.3977365821E-03    0.5529352310E-03   -0.4796318001E-03   -0.5150930588E-04    0.1306220831E-03   -0.6634480997E-04    0.1681343817E-03   -0.1042721574E-03    0.1003488918E-03    0.1363437412E-04   -0.3100200127E-04    0.2224925518E-04   -0.5058176441E-04    0.3786969418E-04   -0.3560489630E-04   -0.4171468515E-05    0.4319305838E-05   -0.8813891276E-05    0.6495142459E-05   -0.1833708165E-05    0.5716289774E-05
    0.0000000000E+00    0.2815000000E+01   -0.8228687066E-02    0.3718715655E-02   -0.2644158699E-01    0.1411712907E-01    0.1838024255E-02   -0.6939923896E-02    0.1085124939E-01   -0.4877439955E-02    0.5204796903E-02    0.5406254348E-02   -0.3308335325E-02    0.1471349255E-02   -0.4023480598E-02    0.1551050527E-02    0.3254906528E-03   -0.3983896839E-03    0.5500319338E-03   -0.4804418059E-03   -0.5011115457E-04    0.1309426997E-03   -0.6422297270E-04    0.1686692773E-03   -0.1026697106E-03    0.1011049933E-03    0.1337416499E-04   -0.3126122653E-04    0.2195151837E-04   -0.5093622331E-04    0.3749512282E-04   -0.3591075632E-04   -0.4160457121E-05    0.4436479080E-05   -0.8772353336E-05    0.6553275688E-05   -0.1795108107E-05    0.5836554695E-05
    0.0000000000E+00    0.2820000000E+01   -0.8185158129E-02    0.3800666023E-02   -0.2621171143E-01    0.1424989157E-01    0.1913521411E-02   -0.6941479167E-02    0.1080641729E-01   -0.4965284443E-02    0.5209850536E-02    0.5318717548E-02   -0.3308080272E-02    0.1493941978E-02   -0.4025914256E-02    0.1578090997E-02    0.3232953383E-03   -0.3990402874E-03    0.5471270839E-03   -0.4812525994E-03   -0.4870675521E-04    0.1312550218E-03   -0.6209308661E-04    0.1691916350E-03   -0.1010519973E-03    0.1018528085E-03    0.1311078468E-04   -0.3151806068E-04    0.2164707139E-04   -0.5128860463E-04    0.3711633297E-04   -0.3621499145E-04   -0.4148423308E-05    0.4553201448E-05   -0.8729935954E-05    0.6610931159E-05   -0.1754901424E-05    0.5956778950E-05
    0.0000000000E+00    0.2825000000E+01   -0.8140760240E-02    0.3881710451E-02   -0.2598167589E-01    0.1438011007E-01    0.1988172412E-02   -0.6944332942E-02    0.1076097713E-01   -0.5052482167E-02    0.5214133330E-02    0.5231631207E-02   -0.3307664065E-02    0.1516571202E-02   -0.4028132658E-02    0.1605206706E-02    0.3210963349E-03   -0.3996886041E-03    0.5442185763E-03   -0.4820647577E-03   -0.4729590655E-04    0.1315589802E-03   -0.5995503135E-04    0.1697014265E-03   -0.9941885225E-04    0.1025925724E-03    0.1284406857E-04   -0.3177249098E-04    0.2133575744E-04   -0.5163887951E-04    0.3673314402E-04   -0.3651765215E-04   -0.4135313689E-05    0.4669486357E-05   -0.8686530982E-05    0.6668167355E-05   -0.1713078515E-05    0.6076986930E-05
    0.0000000000E+00    0.2830000000E+01   -0.8095504173E-02    0.3961847003E-02   -0.2575150078E-01    0.1450779061E-01    0.2061961129E-02   -0.6948469679E-02    0.1071493052E-01   -0.5139021648E-02    0.5217654557E-02    0.5145000285E-02   -0.3307080302E-02    0.1539233232E-02   -0.4030128865E-02    0.1632395554E-02    0.3188921835E-03   -0.4003350219E-03    0.5413043852E-03   -0.4828790986E-03   -0.4587841319E-04    0.1318545419E-03   -0.5780870066E-04    0.1701986561E-03   -0.9777015374E-04    0.1033245471E-03    0.1257385506E-04   -0.3202452128E-04    0.2101742069E-04   -0.5198703817E-04    0.3634538913E-04   -0.3681880800E-04   -0.4121078088E-05    0.4785353316E-05   -0.8642039289E-05    0.6725049983E-05   -0.1669632204E-05    0.6197204360E-05
    0.0000000000E+00    0.2835000000E+01   -0.8049401009E-02    0.4041074398E-02   -0.2552120610E-01    0.1463293991E-01    0.2134872028E-02   -0.6953874598E-02    0.1066827839E-01   -0.5224892278E-02    0.5220423467E-02    0.5058829971E-02   -0.3306322452E-02    0.1561925066E-02   -0.4031896053E-02    0.1659656155E-02    0.3166814794E-03   -0.4009801004E-03    0.5383825934E-03   -0.4836966683E-03   -0.4445408994E-04    0.1321417093E-03   -0.5565400609E-04    0.1706833575E-03   -0.9610582657E-04    0.1040490156E-03    0.1229998734E-04   -0.3227417179E-04    0.2069190865E-04   -0.5233308985E-04    0.3595291753E-04   -0.3711854617E-04   -0.4105670035E-05    0.4900827119E-05   -0.8596371426E-05    0.6781651089E-05   -0.1624556525E-05    0.6317457793E-05
    0.0000000000E+00    0.2840000000E+01   -0.8002462174E-02    0.4119391950E-02   -0.2529081143E-01    0.1475556530E-01    0.2206890228E-02   -0.6960533631E-02    0.1062102109E-01   -0.5310084392E-02    0.5222449254E-02    0.4973125672E-02   -0.3305383936E-02    0.1584644399E-02   -0.4033427597E-02    0.1686987816E-02    0.3144628939E-03   -0.4016245627E-03    0.5354514213E-03   -0.4845187275E-03   -0.4302276618E-04    0.1324205183E-03   -0.5349088049E-04    0.1711555910E-03   -0.9442584384E-04    0.1047662761E-03    0.1202231535E-04   -0.3252147896E-04    0.2035907439E-04   -0.5267706242E-04    0.3555559633E-04   -0.3741696938E-04   -0.4089047503E-05    0.5015937887E-05   -0.8549448128E-05    0.6838048020E-05   -0.1577847366E-05    0.6437774240E-05
    0.0000000000E+00    0.2845000000E+01   -0.7954699456E-02    0.4196799504E-02   -0.2506033601E-01    0.1487567473E-01    0.2278001539E-02   -0.6968433377E-02    0.1057315854E-01   -0.5394589321E-02    0.5223741033E-02    0.4887893018E-02   -0.3304258219E-02    0.1607389635E-02   -0.4034717165E-02    0.1714390513E-02    0.3122351961E-03   -0.4022692877E-03    0.5325092554E-03   -0.4853467338E-03   -0.4158429048E-04    0.1326910377E-03   -0.5131928150E-04    0.1716154400E-03   -0.9273022884E-04    0.1054766370E-03    0.1174069791E-04   -0.3276649537E-04    0.2001877902E-04   -0.5301900193E-04    0.3515331250E-04   -0.3771419401E-04   -0.4071173604E-05    0.5130720744E-05   -0.8501200827E-05    0.6894322107E-05   -0.1529502860E-05    0.6558181564E-05
    0.0000000000E+00    0.2850000000E+01   -0.7906125006E-02    0.4273297359E-02   -0.2482979863E-01    0.1499327671E-01    0.2348192454E-02   -0.6977561059E-02    0.1052469031E-01   -0.5478399428E-02    0.5224307808E-02    0.4803137889E-02   -0.3302938905E-02    0.1630159884E-02   -0.4035758799E-02    0.1741864858E-02    0.3099972769E-03   -0.4029153005E-03    0.5295546787E-03   -0.4861823247E-03   -0.4013853617E-04    0.1329533682E-03   -0.4913919581E-04    0.1720630083E-03   -0.9101905754E-04    0.1061804114E-03    0.1145500515E-04   -0.3300929026E-04    0.1967089423E-04   -0.5335897209E-04    0.3474597488E-04   -0.3801034848E-04   -0.4052017420E-05    0.5245216021E-05   -0.8451572175E-05    0.6950558155E-05   -0.1479523259E-05    0.6678707716E-05
    0.0000000000E+00    0.2855000000E+01   -0.7856751278E-02    0.4348886161E-02   -0.2459921751E-01    0.1510838016E-01    0.2417450079E-02   -0.6987904500E-02    0.1047561580E-01   -0.5561508116E-02    0.5224158451E-02    0.4718866476E-02   -0.3301419838E-02    0.1652954954E-02   -0.4036547014E-02    0.1769412052E-02    0.3077481788E-03   -0.4035637673E-03    0.5265865090E-03   -0.4870273020E-03   -0.3868540956E-04    0.1332076450E-03   -0.4695064588E-04    0.1724984174E-03   -0.8929246361E-04    0.1068779149E-03    0.1116512218E-04   -0.3324995164E-04    0.1931530547E-04   -0.5369705378E-04    0.3433351712E-04   -0.3830557236E-04   -0.4031555225E-05    0.5359470182E-05   -0.8400516089E-05    0.7006842573E-05   -0.1427910881E-05    0.6799380058E-05
    0.0000000000E+00    0.2860000000E+01   -0.7806590861E-02    0.4423566753E-02   -0.2436860989E-01    0.1522099402E-01    0.2485761844E-02   -0.6999452164E-02    0.1042593441E-01   -0.5643909786E-02    0.5223301672E-02    0.4635085483E-02   -0.3299695244E-02    0.1675775357E-02   -0.4037076924E-02    0.1797033833E-02    0.3054871464E-03   -0.4042160026E-03    0.5236038617E-03   -0.4878836285E-03   -0.3722486649E-04    0.1334540471E-03   -0.4475370469E-04    0.1729218077E-03   -0.8755065210E-04    0.1075694663E-03    0.1087095616E-04   -0.3348859306E-04    0.1895191734E-04   -0.5403334584E-04    0.3391590352E-04   -0.3860001796E-04   -0.4009773091E-05    0.5473539138E-05   -0.8348000004E-05    0.7063265906E-05   -0.1374670447E-05    0.6920224729E-05
    0.0000000000E+00    0.2865000000E+01   -0.7755655916E-02    0.4497339819E-02   -0.2413799057E-01    0.1533112626E-01    0.2553114573E-02   -0.7012193423E-02    0.1037564591E-01   -0.5725599660E-02    0.5221745985E-02    0.4551802756E-02   -0.3297759997E-02    0.1698622362E-02   -0.4037344470E-02    0.1824732413E-02    0.3032137477E-03   -0.4048735205E-03    0.5206063051E-03   -0.4887534664E-03   -0.3575695709E-04    0.1336928325E-03   -0.4254853816E-04    0.1733333471E-03   -0.8579394319E-04    0.1082554034E-03    0.1057245446E-04   -0.3372537583E-04    0.1858066525E-04   -0.5436796907E-04    0.3349314513E-04   -0.3889385981E-04   -0.3986673698E-05    0.5587499271E-05   -0.8294007166E-05    0.7119923061E-05   -0.1319808406E-05    0.7041263313E-05
    0.0000000000E+00    0.2870000000E+01   -0.7703955919E-02    0.4570204708E-02   -0.2390736620E-01    0.1543877976E-01    0.2619490685E-02   -0.7026119850E-02    0.1032475146E-01   -0.5806573053E-02    0.5219499618E-02    0.4469029859E-02   -0.3295610425E-02    0.1721498305E-02   -0.4037347150E-02    0.1852510406E-02    0.3009283203E-03   -0.4055382939E-03    0.5175944335E-03   -0.4896394125E-03   -0.3428199840E-04    0.1339244868E-03   -0.4033557321E-04    0.1737332781E-03   -0.8402295270E-04    0.1089361595E-03    0.1026967457E-04   -0.3396060151E-04    0.1820155862E-04   -0.5470108699E-04    0.3306536280E-04   -0.3918733988E-04   -0.3962303215E-05    0.5701493259E-05   -0.8238552742E-05    0.7176931070E-05   -0.1263331795E-05    0.7162501958E-05
    0.0000000000E+00    0.2875000000E+01   -0.7651482215E-02    0.4642151761E-02   -0.2367669574E-01    0.1554392449E-01    0.2684842060E-02   -0.7041234511E-02    0.1027325987E-01   -0.5886820445E-02    0.5216569991E-02    0.4386799809E-02   -0.3293249445E-02    0.1744408948E-02   -0.4037088683E-02    0.1880370714E-02    0.2986349680E-03   -0.4062146317E-03    0.5145737387E-03   -0.4905462720E-03   -0.3280174817E-04    0.1341507594E-03   -0.3811665003E-04    0.1741222599E-03   -0.8223984461E-04    0.1096128144E-03    0.9963254692E-05   -0.3419535135E-04    0.1781496615E-04   -0.5503305626E-04    0.3263321918E-04   -0.3948109087E-04   -0.3936933695E-05    0.5816047372E-05   -0.8181786775E-05    0.7234538441E-05   -0.1205238700E-05    0.7283857912E-05
    0.0000000000E+00    0.2880000000E+01   -0.7594815698E-02    0.4711490363E-02   -0.2343719796E-01    0.1564039700E-01    0.2743345922E-02   -0.7059612055E-02    0.1022254128E-01   -0.5965250581E-02    0.5212851810E-02    0.4309068735E-02   -0.3291800649E-02    0.1767893221E-02   -0.4037594208E-02    0.1908307625E-02    0.2969985316E-03   -0.4073260253E-03    0.5124038615E-03   -0.4918772039E-03   -0.3157713418E-04    0.1346029979E-03   -0.3614839918E-04    0.1745772456E-03   -0.8072427942E-04    0.1104090379E-03    0.9757706841E-05   -0.3457229106E-04    0.1748410103E-04   -0.5539785300E-04    0.3229290133E-04   -0.3984767470E-04   -0.3951135450E-05    0.6001920072E-05   -0.8146953847E-05    0.7317809575E-05   -0.1143419477E-05    0.7389034336E-05
    0.0000000000E+00    0.2885000000E+01   -0.7544662582E-02    0.4783491298E-02   -0.2321628570E-01    0.1574743576E-01    0.2813097843E-02   -0.7074749032E-02    0.1016833036E-01   -0.6045257036E-02    0.5208705502E-02    0.4223546932E-02   -0.3287749635E-02    0.1790284476E-02   -0.4035662636E-02    0.1936352364E-02    0.2939485401E-03   -0.4075602266E-03    0.5084085675E-03   -0.4923857533E-03   -0.2979597807E-04    0.1345618002E-03   -0.3363245368E-04    0.1748592351E-03   -0.7860693284E-04    0.1109407108E-03    0.9327469117E-05   -0.3464780159E-04    0.1701202309E-04   -0.5569027166E-04    0.3174512384E-04   -0.4006176623E-04   -0.3878630927E-05    0.6039030563E-05   -0.8061708025E-05    0.7349025510E-05   -0.1084505947E-05    0.7528874644E-05
    0.0000000000E+00    0.2890000000E+01   -0.7490050990E-02    0.4852741191E-02   -0.2298582226E-01    0.1584529420E-01    0.2875486546E-02   -0.7093307437E-02    0.1011501220E-01   -0.6123352604E-02    0.5203776184E-02    0.4142878378E-02   -0.3284701803E-02    0.1813302069E-02   -0.4034581011E-02    0.1964479838E-02    0.2916130351E-03   -0.4082689601E-03    0.5053389916E-03   -0.4933571649E-03   -0.2829314575E-04    0.1347669606E-03   -0.3138967967E-04    0.1752141311E-03   -0.7678197550E-04    0.1116029820E-03    0.9007084876E-05   -0.3487808889E-04    0.1660111572E-04   -0.5601873311E-04    0.3129761015E-04   -0.4035521299E-04   -0.3849231435E-05    0.6153668085E-05   -0.8000432789E-05    0.7408203401E-05   -0.1021720068E-05    0.7651174044E-05
    0.0000000000E+00    0.2895000000E+01   -0.7434795315E-02    0.4921113729E-02   -0.2275555883E-01    0.1594081634E-01    0.2936938347E-02   -0.7112969571E-02    0.1006107288E-01   -0.6200744609E-02    0.5198196496E-02    0.4062700899E-02   -0.3281407563E-02    0.1836356400E-02   -0.4033212359E-02    0.1992703446E-02    0.2892567270E-03   -0.4089869418E-03    0.5022448956E-03   -0.4943498178E-03   -0.2678017518E-04    0.1349630248E-03   -0.2913656901E-04    0.1755570940E-03   -0.7494081297E-04    0.1122594464E-03    0.8680896580E-05   -0.3510563419E-04    0.1618143427E-04   -0.5634595915E-04    0.3084410073E-04   -0.4064803182E-04   -0.3818091490E-05    0.6267670916E-05   -0.7937446039E-05    0.7467766471E-05   -0.9574345503E-06    0.7774010429E-05
    0.0000000000E+00    0.2900000000E+01   -0.7378886179E-02    0.4988597767E-02   -0.2252544772E-01    0.1603396948E-01    0.2997405153E-02   -0.7133739941E-02    0.1000652504E-01   -0.6277427188E-02    0.5191972725E-02    0.3983050593E-02   -0.3277873837E-02    0.1859455288E-02   -0.4031564822E-02    0.2021026567E-02    0.2868850769E-03   -0.4097187692E-03    0.4991336056E-03   -0.4953685922E-03   -0.2525916467E-04    0.1351519389E-03   -0.2687525893E-04    0.1758888133E-03   -0.7308594224E-04    0.1129111361E-03    0.8349702690E-05   -0.3533164865E-04    0.1575349104E-04   -0.5667235538E-04    0.3038542514E-04   -0.4094087544E-04   -0.3785544366E-05    0.6381615711E-05   -0.7872953183E-05    0.7527957143E-05   -0.8916579435E-06    0.7897281276E-05
    0.0000000000E+00    0.2905000000E+01   -0.7322335624E-02    0.5055192388E-02   -0.2229549551E-01    0.1612475919E-01    0.3056875493E-02   -0.7155609948E-02    0.9951373694E-02   -0.6353401854E-02    0.5185111647E-02    0.3903939175E-02   -0.3274101315E-02    0.1882603351E-02   -0.4029640938E-02    0.2049452483E-02    0.2844996047E-03   -0.4104663777E-03    0.4960073544E-03   -0.4964157760E-03   -0.2373063084E-04    0.1353342225E-03   -0.2460632064E-04    0.1762094956E-03   -0.7121815029E-04    0.1135582920E-03    0.8013673551E-05   -0.3555646564E-04    0.1531742836E-04   -0.5699811818E-04    0.2992183577E-04   -0.4123393949E-04   -0.3751678419E-05    0.6495640611E-05   -0.7807021519E-05    0.7588857370E-05   -0.8244149042E-06    0.8020983799E-05
    0.0000000000E+00    0.2910000000E+01   -0.7265159403E-02    0.5120898153E-02   -0.2206571780E-01    0.1621319754E-01    0.3115344551E-02   -0.7178568553E-02    0.9895623328E-02   -0.6428671781E-02    0.5177619956E-02    0.3825374276E-02   -0.3270090251E-02    0.1905804688E-02   -0.4027442902E-02    0.2077984258E-02    0.2821012999E-03   -0.4112311951E-03    0.4928676868E-03   -0.4974931067E-03   -0.2219484899E-04    0.1355101553E-03   -0.2233007639E-04    0.1765192600E-03   -0.6933794665E-04    0.1142009995E-03    0.7672888903E-05   -0.3578027263E-04    0.1487334354E-04   -0.5732340690E-04    0.2945350015E-04   -0.4152733304E-04   -0.3716545789E-05    0.6609809612E-05   -0.7739698777E-05    0.7650516892E-05   -0.7557343202E-06    0.8145129240E-05
    0.0000000000E+00    0.2915000000E+01   -0.7207374465E-02    0.5185715855E-02   -0.2183613287E-01    0.1629929855E-01    0.3172809950E-02   -0.7202603707E-02    0.9839278929E-02   -0.6503240918E-02    0.5169504188E-02    0.3747362253E-02   -0.3265841277E-02    0.1929063187E-02   -0.4024973271E-02    0.2106624654E-02    0.2796910865E-03   -0.4120144301E-03    0.4897160555E-03   -0.4986020417E-03   -0.2065203850E-04    0.1356799414E-03   -0.2004678136E-04    0.1768181928E-03   -0.6744575978E-04    0.1148392784E-03    0.7327412364E-05   -0.3600321226E-04    0.1442133388E-04   -0.5764836649E-04    0.2898056852E-04   -0.4182113016E-04   -0.3680190951E-05    0.6724162668E-05   -0.7671028834E-05    0.7712970764E-05   -0.6856475835E-06    0.8269730616E-05
    0.0000000000E+00    0.2920000000E+01   -0.7148998296E-02    0.5249646185E-02   -0.2160676018E-01    0.1638307712E-01    0.3229270657E-02   -0.7227702667E-02    0.9782346261E-02   -0.6577113689E-02    0.5160770713E-02    0.3669908875E-02   -0.3261355581E-02    0.1952382540E-02   -0.4022235107E-02    0.2135376059E-02    0.2772699275E-03   -0.4128171341E-03    0.4865539522E-03   -0.4997438136E-03   -0.1910240730E-04    0.1358437496E-03   -0.1775666716E-04    0.1771063615E-03   -0.6554198286E-04    0.1154731062E-03    0.6977309259E-05   -0.3622540646E-04    0.1396150723E-04   -0.5797313186E-04    0.2850318924E-04   -0.4211538233E-04   -0.3642656977E-05    0.6838726662E-05   -0.7601055214E-05    0.7776244484E-05   -0.6141889010E-06    0.8394801313E-05
    0.0000000000E+00    0.2925000000E+01   -0.7090048656E-02    0.5312689612E-02   -0.2137761979E-01    0.1646454855E-01    0.3284726577E-02   -0.7253852066E-02    0.9724831963E-02   -0.6650294816E-02    0.5151425742E-02    0.3593019531E-02   -0.3256634956E-02    0.1975766201E-02   -0.4019231985E-02    0.2164240425E-02    0.2748388496E-03   -0.4136402148E-03    0.4833829342E-03   -0.5009194419E-03   -0.1754616523E-04    0.1360017254E-03   -0.1545995507E-04    0.1773838204E-03   -0.6362698675E-04    0.1161024279E-03    0.6622652182E-05   -0.3644696377E-04    0.1349398498E-04   -0.5829782834E-04    0.2802151225E-04   -0.4241012158E-04   -0.3603988439E-05    0.6953522025E-05   -0.7529821278E-05    0.7840354580E-05   -0.5413941400E-06    0.8520351989E-05
    0.0000000000E+00    0.2930000000E+01   -0.7030543453E-02    0.5374846325E-02   -0.2114873218E-01    0.1654372840E-01    0.3339178349E-02   -0.7281037922E-02    0.9666743586E-02   -0.6722789186E-02    0.5141475339E-02    0.3516699313E-02   -0.3251681791E-02    0.1999217327E-02   -0.4015967963E-02    0.2193219208E-02    0.2723989419E-03   -0.4144844372E-03    0.4802046208E-03   -0.5021297329E-03   -0.1598352828E-04    0.1361539957E-03   -0.1315686050E-04    0.1776506128E-03   -0.6170112367E-04    0.1167271608E-03    0.6263522459E-05   -0.3666798174E-04    0.1301890261E-04   -0.5862257104E-04    0.2753569001E-04   -0.4270536265E-04   -0.3564230695E-05    0.7068561120E-05   -0.7457370200E-05    0.7905310186E-05   -0.4673011174E-06    0.8646391024E-05
    0.0000000000E+00    0.2935000000E+01   -0.6970500642E-02    0.5436116206E-02   -0.2092011813E-01    0.1662063233E-01    0.3392627212E-02   -0.7309245628E-02    0.9608089598E-02   -0.6794601720E-02    0.5130925434E-02    0.3440953039E-02   -0.3246499048E-02    0.2022738718E-02   -0.4012447530E-02    0.2222313317E-02    0.2699513476E-03   -0.4153504214E-03    0.4770206772E-03   -0.5033752775E-03   -0.1441471948E-04    0.1363006711E-03   -0.1084759440E-04    0.1779067733E-03   -0.5976472759E-04    0.1173471991E-03    0.5900010454E-05   -0.3688854751E-04    0.1253640938E-04   -0.5894746387E-04    0.2704587660E-04   -0.4300110332E-04   -0.3523430492E-05    0.7183850768E-05   -0.7383744145E-05    0.7971112612E-05   -0.3919497695E-06    0.8772925002E-05
    0.0000000000E+00    0.2940000000E+01   -0.6909938154E-02    0.5496498816E-02   -0.2069179868E-01    0.1669527604E-01    0.3445074900E-02   -0.7338459928E-02    0.9548879374E-02   -0.6865737268E-02    0.5119781843E-02    0.3365785264E-02   -0.3241090215E-02    0.2046332759E-02   -0.4008675546E-02    0.2251523075E-02    0.2674972496E-03   -0.4162386393E-03    0.4738327942E-03   -0.5046564510E-03   -0.1283996841E-04    0.1364418467E-03   -0.8532363687E-05    0.1781523293E-03   -0.5781811346E-04    0.1179624166E-03    0.5532215188E-05   -0.3710873786E-04    0.1204666758E-04   -0.5927259839E-04    0.2655222644E-04   -0.4329732493E-04   -0.3481635456E-05    0.7299391898E-05   -0.7308984353E-05    0.8037757703E-05   -0.3153807123E-06    0.8899955707E-05
    0.0000000000E+00    0.2945000000E+01   -0.6848873831E-02    0.5555993392E-02   -0.2046379505E-01    0.1676767523E-01    0.3496523542E-02   -0.7368664913E-02    0.9489123166E-02   -0.6936200499E-02    0.5108050280E-02    0.3291200281E-02   -0.3235459263E-02    0.2070001366E-02   -0.4004657173E-02    0.2280848179E-02    0.2650378558E-03   -0.4171494137E-03    0.4706426657E-03   -0.5059734131E-03   -0.1125951068E-04    0.1365776026E-03   -0.6211371172E-05    0.1783873020E-03   -0.5586157695E-04    0.1185726715E-03    0.5160243463E-05   -0.3732861882E-04    0.1154985141E-04   -0.5959805310E-04    0.2605489324E-04   -0.4359399301E-04   -0.3438892797E-05    0.7415177587E-05   -0.7233128929E-05    0.8105232083E-05   -0.2376365044E-06    0.9027482931E-05
    0.0000000000E+00    0.2950000000E+01   -0.6787325365E-02    0.5614598852E-02   -0.2023612859E-01    0.1683784549E-01    0.3546975581E-02   -0.7399844010E-02    0.9428832059E-02   -0.7005995797E-02    0.5095736381E-02    0.3217202122E-02   -0.3229610585E-02    0.2093745939E-02   -0.4000397803E-02    0.2310287680E-02    0.2625743829E-03   -0.4180829177E-03    0.4674519663E-03   -0.5073261119E-03   -0.9673585940E-05    0.1367080042E-03   -0.3884815668E-05    0.1786117085E-03   -0.5389539328E-04    0.1191778081E-03    0.4784209449E-05   -0.3754824550E-04    0.1104614602E-04   -0.5992389203E-04    0.2555402837E-04   -0.4389105755E-04   -0.3395251061E-05    0.7531199059E-05   -0.7156214737E-05    0.8173519791E-05   -0.1587603899E-06    0.9155502611E-05
    0.0000000000E+00    0.2955000000E+01   -0.6725310244E-02    0.5672313808E-02   -0.2000882081E-01    0.1690580235E-01    0.3596433684E-02   -0.7431979982E-02    0.9368017917E-02   -0.7075127171E-02    0.5082845717E-02    0.3143794552E-02   -0.3223548938E-02    0.2117567322E-02   -0.3995902985E-02    0.2339839961E-02    0.2601080404E-03   -0.4190391764E-03    0.4642623281E-03   -0.5087142893E-03   -0.8082437504E-05    0.1368331029E-03   -0.1552891948E-05    0.1788255627E-03   -0.5191981706E-04    0.1197776610E-03    0.4404233268E-05   -0.3776766159E-04    0.1053574598E-04   -0.6025016432E-04    0.2504977960E-04   -0.4418845378E-04   -0.3350757075E-05    0.7647439009E-05   -0.7078274602E-05    0.8242597216E-05   -0.7879637257E-07    0.9284006766E-05
    0.0000000000E+00    0.2960000000E+01   -0.6662845699E-02    0.5729136585E-02   -0.1978189326E-01    0.1697156115E-01    0.3644900659E-02   -0.7465054936E-02    0.9306693320E-02   -0.7143598168E-02    0.5069383819E-02    0.3070981071E-02   -0.3217279370E-02    0.2141465771E-02   -0.3991178345E-02    0.2369502732E-02    0.2576400149E-03   -0.4200180704E-03    0.4610753196E-03   -0.5101374892E-03   -0.6486310739E-05    0.1369529365E-03    0.7842089773E-06    0.1790288762E-03   -0.4993508224E-04    0.1203720578E-03    0.4020440237E-05   -0.3798689912E-04    0.1001885410E-04   -0.6057690322E-04    0.2454228980E-04   -0.4448610284E-04   -0.3305456760E-05    0.7763875295E-05   -0.6999338113E-05    0.8312436782E-05    0.2211381760E-08    0.9412983051E-05
    0.0000000000E+00    0.2965000000E+01   -0.6599948657E-02    0.5785065239E-02   -0.1955536755E-01    0.1703513704E-01    0.3692379381E-02   -0.7499050342E-02    0.9244871493E-02   -0.7211411800E-02    0.5055356191E-02    0.2998764916E-02   -0.3210807158E-02    0.2165440929E-02   -0.3986229514E-02    0.2399273026E-02    0.2551714546E-03   -0.4210193402E-03    0.4578924248E-03   -0.5115950677E-03   -0.4885452063E-05    0.1370675296E-03    0.3126299529E-05    0.1792216599E-03   -0.4794140234E-04    0.1209608223E-03    0.3632959810E-05   -0.3820597819E-04    0.9495679883E-05   -0.6090412557E-04    0.2403169572E-04   -0.4478391239E-04   -0.3259394380E-05    0.7880480694E-05   -0.6919430678E-05    0.8383006066E-05    0.8421799326E-07    0.9542416459E-05
    0.0000000000E+00    0.2970000000E+01   -0.6536635700E-02    0.5840097595E-02   -0.1932926528E-01    0.1709654501E-01    0.3738872708E-02   -0.7533947051E-02    0.9182566219E-02   -0.7278570470E-02    0.5040768331E-02    0.2927149061E-02   -0.3204137733E-02    0.2189491809E-02   -0.3981062048E-02    0.2429147214E-02    0.2527034551E-03   -0.4220425932E-03    0.4547150243E-03   -0.5130862057E-03   -0.3280107878E-05    0.1371768940E-03    0.5473195059E-05    0.1794039241E-03   -0.4593897108E-04    0.1215437768E-03    0.3241924481E-05   -0.3842490679E-04    0.8966438116E-05   -0.6123183128E-04    0.2351812677E-04   -0.4508177768E-04   -0.3212611943E-05    0.7997222603E-05   -0.6838573376E-05    0.8454269099E-05    0.1671793098E-06    0.9672286811E-05
    0.0000000000E+00    0.2975000000E+01   -0.6472923023E-02    0.5894231269E-02   -0.1910360799E-01    0.1715579975E-01    0.3784383414E-02   -0.7569725329E-02    0.9119791756E-02   -0.7345075924E-02    0.5025625748E-02    0.2856136219E-02   -0.3197276608E-02    0.2213616787E-02   -0.3975681360E-02    0.2459121015E-02    0.2502370456E-03   -0.4230873112E-03    0.4515443780E-03   -0.5146099227E-03   -0.1670523660E-05    0.1372810294E-03    0.7824713257E-05    0.1795756801E-03   -0.4392796323E-04    0.1221207449E-03    0.2847468734E-05   -0.3864368076E-04    0.8431347306E-05   -0.6156000294E-04    0.2300170406E-04   -0.4537958233E-04   -0.3165148528E-05    0.8114063134E-05   -0.6756782587E-05    0.8526186504E-05    0.2510517920E-06    0.9802569845E-05
    0.0000000000E+00    0.2980000000E+01   -0.6408826400E-02    0.5947463711E-02   -0.1887841716E-01    0.1721291577E-01    0.3828914114E-02   -0.7606364892E-02    0.9056562744E-02   -0.7410929199E-02    0.5009933979E-02    0.2785728851E-02   -0.3190229304E-02    0.2237813599E-02   -0.3970092644E-02    0.2489189529E-02    0.2477731771E-03   -0.4241528594E-03    0.4483816093E-03   -0.5161650928E-03   -0.5694307374E-07    0.1373799241E-03    0.1018067344E-04    0.1797369400E-03   -0.4190853581E-04    0.1226915539E-03    0.2449728008E-05   -0.3886228367E-04    0.7890628141E-05   -0.6188860557E-04    0.2248253953E-04   -0.4567719939E-04   -0.3117040196E-05    0.8230960476E-05   -0.6674069048E-05    0.8598715997E-05    0.3357922280E-06    0.9933237573E-05
    0.0000000000E+00    0.2985000000E+01   -0.6344361157E-02    0.5999792243E-02   -0.1865371414E-01    0.1726790725E-01    0.3872467209E-02   -0.7643844954E-02    0.8992894107E-02   -0.7476130591E-02    0.4993698607E-02    0.2715929172E-02   -0.3183001282E-02    0.2262079354E-02   -0.3964300808E-02    0.2519347260E-02    0.2453127103E-03   -0.4252384971E-03    0.4452276916E-03   -0.5177504618E-03    0.1560392816E-05    0.1374735550E-03    0.1254089592E-04    0.1798877171E-03   -0.3988082940E-04    0.1232560365E-03    0.2048837530E-05   -0.3908068679E-04    0.7344501905E-05   -0.6221758632E-04    0.2196073422E-04   -0.4597449220E-04   -0.3068319007E-05    0.8347867641E-05   -0.6590441454E-05    0.8671815128E-05    0.4213611246E-06    0.1006425641E-04
    0.0000000000E+00    0.2990000000E+01   -0.6279542146E-02    0.6051214097E-02   -0.1842952007E-01    0.1732078817E-01    0.3915044816E-02   -0.7682144274E-02    0.8928800954E-02   -0.7540679632E-02    0.4976925270E-02    0.2646739156E-02   -0.3175597871E-02    0.2286410544E-02   -0.3958310415E-02    0.2549588165E-02    0.2428564065E-03   -0.4263433887E-03    0.4420834372E-03   -0.5193646654E-03    0.3181246226E-05    0.1375618887E-03    0.1490520114E-04    0.1800280264E-03   -0.3784496980E-04    0.1238140326E-03    0.1644931398E-05   -0.3929884949E-04    0.6793188882E-05   -0.6254687485E-04    0.2143637928E-04   -0.4627131585E-04   -0.3019013025E-05    0.8464734527E-05   -0.6505898669E-05    0.8745437253E-05    0.5077174222E-06    0.1019559087E-04
    0.0000000000E+00    0.2995000000E+01   -0.6214383727E-02    0.6101726464E-02   -0.1820585594E-01    0.1737157218E-01    0.3956648723E-02   -0.7721241210E-02    0.8864298478E-02   -0.7604575079E-02    0.4959619682E-02    0.2578160550E-02   -0.3168024201E-02    0.2310803073E-02   -0.3952125618E-02    0.2579905695E-02    0.2404049187E-03   -0.4274666155E-03    0.4389494874E-03   -0.5210062482E-03    0.4805383347E-05    0.1376448817E-03    0.1727340900E-04    0.1801578845E-03   -0.3580106962E-04    0.1243653913E-03    0.1238141382E-05   -0.3951671917E-04    0.6236906741E-05   -0.6287638296E-04    0.2090955348E-04   -0.4656751795E-04   -0.2969145510E-05    0.8581507023E-05   -0.6420437398E-05    0.8819536894E-05    0.5948247931E-06    0.1032719949E-04
    0.0000000000E+00    0.3000000000E+01   -0.6148899752E-02    0.6151326534E-02   -0.1798274242E-01    0.1742027269E-01    0.3997280343E-02   -0.7761113784E-02    0.8799401862E-02   -0.7667814913E-02    0.4941787639E-02    0.2510194880E-02   -0.3160285140E-02    0.2335252282E-02   -0.3945750113E-02    0.2610292846E-02    0.2379587846E-03   -0.4286071890E-03    0.4358263054E-03   -0.5226736835E-03    0.6432574908E-05    0.1377224811E-03    0.1964533818E-04    0.1802773090E-03   -0.3374923012E-04    0.1249099709E-03    0.8285959648E-06   -0.3973423161E-04    0.5675868994E-05   -0.6320600525E-04    0.2038032357E-04   -0.4686294009E-04   -0.2918734743E-05    0.8698128017E-05   -0.6334048688E-05    0.8894068194E-05    0.6826488457E-06    0.1045903778E-04
