    0.0000000000E+00    0.2755000000E+01    0.1790411471E-02   -0.1608374047E-02    0.1145420642E-01   -0.1344765426E-01    0.8215349547E-02   -0.5431093558E-02   -0.1127303756E-03   -0.3214519627E-01   -0.3101822665E-02    0.4390655150E-02   -0.1970819319E-01    0.3577516892E-02   -0.2554963441E-02    0.2022119590E-01    0.2690342824E-02   -0.6983363588E-03    0.3807087706E-02   -0.2392197417E-02    0.8659017486E-02   -0.2229754923E-02   -0.1749902775E-03   -0.1124061102E-02   -0.2079035366E-02    0.2585611247E-02   -0.1682632775E-02   -0.2142729035E-03   -0.1545624310E-01    0.5884654461E-02   -0.3510721367E-03    0.5640629624E-03    0.9335181862E-03   -0.8887609242E-03    0.8859246026E-04    0.1759529947E-03    0.2617663689E-02   -0.1223800574E-02    0.1553482263E-02   -0.5067830275E-03    0.1344105748E-03   -0.1090694161E-03   -0.2258690293E-03    0.1966476158E-03    0.4162804049E-04   -0.8197042744E-04   -0.4652142521E-03    0.2413559192E-03   -0.1162452419E-03    0.3839900690E-04   -0.1303578188E-04    0.1034357288E-04    0.5279622066E-04   -0.3276082011E-04   -0.2730512315E-04    0.1458121033E-04    0.5490767294E-04   -0.2451651852E-04    0.2256555634E-04   -0.1237353289E-04    0.1697543196E-03   -0.1148865802E-03
    0.0000000000E+00    0.2760000000E+01    0.1807588456E-02   -0.1624140900E-02    0.1135555915E-01   -0.1345271796E-01    0.8149033955E-02   -0.5421040965E-02   -0.4251624398E-03   -0.3210553007E-01   -0.3028754802E-02    0.4411131287E-02   -0.1970811690E-01    0.3678816193E-02   -0.2337161652E-02    0.2019695196E-01    0.2691390236E-02   -0.7234415542E-03    0.3783446989E-02   -0.2404553664E-02    0.8637591273E-02   -0.2290111694E-02   -0.1889412870E-03   -0.1124716551E-02   -0.2058019477E-02    0.2602294340E-02   -0.1692802444E-02   -0.2023765091E-03   -0.1541976249E-01    0.5983503720E-02   -0.3473805299E-03    0.5689489823E-03    0.9296370542E-03   -0.8992098740E-03    0.9176894136E-04    0.1767113880E-03    0.2614921019E-02   -0.1245087754E-02    0.1559118591E-02   -0.5179038485E-03    0.1343111438E-03   -0.1111431617E-03   -0.2259448116E-03    0.1994055753E-03    0.4127732099E-04   -0.8252792985E-04   -0.4658418346E-03    0.2464881862E-03   -0.1170742257E-03    0.3855627622E-04   -0.1307611663E-04    0.1062538758E-04    0.5290768179E-04   -0.3332932987E-04   -0.2731039498E-04    0.1489858011E-04    0.5502004278E-04   -0.2508587968E-04    0.2271247762E-04   -0.1246969658E-04    0.1699475228E-03   -0.1175758142E-03
    0.0000000000E+00    0.2765000000E+01    0.1824747428E-02   -0.1640214950E-02    0.1125757068E-01   -0.1345747951E-01    0.8083691759E-02   -0.5411009844E-02   -0.7366594876E-03   -0.3206290322E-01   -0.2955733874E-02    0.4431061096E-02   -0.1970749199E-01    0.3779647917E-02   -0.2120327069E-02    0.2017040591E-01    0.2692104977E-02   -0.7485919927E-03    0.3760005443E-02   -0.2416612987E-02    0.8615675057E-02   -0.2350161982E-02   -0.2028629901E-03   -0.1125260593E-02   -0.2036958211E-02    0.2618777125E-02   -0.1702865174E-02   -0.1904128401E-03   -0.1538290549E-01    0.6081687967E-02   -0.3436599778E-03    0.5738175029E-03    0.9257063229E-03   -0.9096388611E-03    0.9494894899E-04    0.1774577107E-03    0.2612058070E-02   -0.1266289243E-02    0.1564707936E-02   -0.5290236781E-03    0.1342104447E-03   -0.1132160322E-03   -0.2260113292E-03    0.2021691080E-03    0.4092178002E-04   -0.8308745914E-04   -0.4664584661E-03    0.2516186639E-03   -0.1178961589E-03    0.3871667014E-04   -0.1311477191E-04    0.1091346850E-04    0.5301748553E-04   -0.3389599676E-04   -0.2731624018E-04    0.1521199834E-04    0.5512538185E-04   -0.2566475542E-04    0.2286091574E-04   -0.1255711193E-04    0.1701457234E-03   -0.1202687657E-03
    0.0000000000E+00    0.2770000000E+01    0.1841884072E-02   -0.1656599673E-02    0.1116024379E-01   -0.1346194779E-01    0.8019317035E-02   -0.5401004685E-02   -0.1047188038E-02   -0.3201734709E-01   -0.2882774976E-02    0.4450441237E-02   -0.1970630723E-01    0.3879995577E-02   -0.1904476545E-02    0.2014159313E-01    0.2692493006E-02   -0.7737758720E-03    0.3736757748E-02   -0.2428378808E-02    0.8593272918E-02   -0.2409883891E-02   -0.2167526411E-03   -0.1125696202E-02   -0.2015854132E-02    0.2635057697E-02   -0.1712817598E-02   -0.1783892563E-03   -0.1534564653E-01    0.6179191283E-02   -0.3399117051E-03    0.5786670279E-03    0.9217261369E-03   -0.9200437236E-03    0.9813102659E-04    0.1781920482E-03    0.2609067791E-02   -0.1287398264E-02    0.1570244993E-02   -0.5401369595E-03    0.1341079862E-03   -0.1152869267E-03   -0.2260677314E-03    0.2049367348E-03    0.4056151077E-04   -0.8364862284E-04   -0.4670616008E-03    0.2567452083E-03   -0.1187101339E-03    0.3888005919E-04   -0.1315170962E-04    0.1120769675E-04    0.5312514480E-04   -0.3446069230E-04   -0.2732239933E-04    0.1552138986E-04    0.5522336521E-04   -0.2625314853E-04    0.2301049164E-04   -0.1263580721E-04    0.1703474205E-03   -0.1229645022E-03
    0.0000000000E+00    0.2775000000E+01    0.1858994129E-02   -0.1673298365E-02    0.1106358098E-01   -0.1346613073E-01    0.7955903396E-02   -0.5391029461E-02   -0.1356713826E-02   -0.3196889253E-01   -0.2809892240E-02    0.4469267754E-02   -0.1970455003E-01    0.3979844168E-02   -0.1689628103E-02    0.2011054898E-01    0.2692559336E-02   -0.7989810718E-03    0.3713698629E-02   -0.2439855219E-02    0.8570386955E-02   -0.2469256047E-02   -0.2306072197E-03   -0.1126026203E-02   -0.1994709630E-02    0.2651134158E-02   -0.1722655724E-02   -0.1663127572E-03   -0.1530795903E-01    0.6276001487E-02   -0.3361367932E-03    0.5834959583E-03    0.9176962752E-03   -0.9304203398E-03    0.1013136932E-03    0.1789143760E-03    0.2605942573E-02   -0.1308408900E-02    0.1575723955E-02   -0.5512386817E-03    0.1340031810E-03   -0.1173547877E-03   -0.2261130218E-03    0.2077070635E-03    0.4019656035E-04   -0.8421102151E-04   -0.4676485275E-03    0.2618659359E-03   -0.1195152051E-03    0.3904641843E-04   -0.1318688330E-04    0.1150796469E-04    0.5323015551E-04   -0.3502333821E-04   -0.2732860350E-04    0.1582670127E-04    0.5531366854E-04   -0.2685111434E-04    0.2316082729E-04   -0.1270584097E-04    0.1705510641E-03   -0.1256622369E-03
    0.0000000000E+00    0.2780000000E+01    0.1876073409E-02   -0.1690314144E-02    0.1096758437E-01   -0.1347003539E-01    0.7893443956E-02   -0.5381087672E-02   -0.1665201880E-02   -0.3191756974E-01   -0.2737098761E-02    0.4487536177E-02   -0.1970220661E-01    0.4079180350E-02   -0.1475800876E-02    0.2007730859E-01    0.2692308013E-02   -0.8241952767E-03    0.3690822911E-02   -0.2451046947E-02    0.8547017362E-02   -0.2528257823E-02   -0.2444234594E-03   -0.1126253236E-02   -0.1973526903E-02    0.2667004631E-02   -0.1732374982E-02   -0.1541899129E-03   -0.1526981581E-01    0.6372110206E-02   -0.3323361666E-03    0.5883026099E-03    0.9136161550E-03   -0.9407646682E-03    0.1044954591E-03    0.1796245550E-03    0.2602674343E-02   -0.1329316160E-02    0.1581138569E-02   -0.5623244281E-03    0.1338953499E-03   -0.1194186108E-03   -0.2261460686E-03    0.2104788048E-03    0.3982692861E-04   -0.8477425393E-04   -0.4682163984E-03    0.2669792421E-03   -0.1203104021E-03    0.3921583132E-04   -0.1322023977E-04    0.1181417662E-04    0.5333200177E-04   -0.3558390827E-04   -0.2733457718E-04    0.1612790339E-04    0.5539597556E-04   -0.2745875982E-04    0.2331154205E-04   -0.1276729573E-04    0.1707550678E-03   -0.1283613298E-03
    0.0000000000E+00    0.2785000000E+01    0.1893117794E-02   -0.1707649939E-02    0.1087225563E-01   -0.1347366796E-01    0.7831931326E-02   -0.5371182399E-02   -0.1972616622E-02   -0.3186340820E-01   -0.2664406549E-02    0.4505241617E-02   -0.1969926225E-01    0.4177992602E-02   -0.1263015023E-02    0.2004190680E-01    0.2691742125E-02   -0.8494061005E-03    0.3668125563E-02   -0.2461959321E-02    0.8523162553E-02   -0.2586869554E-02   -0.2581978843E-03   -0.1126379721E-02   -0.1952307947E-02    0.2682667268E-02   -0.1741970297E-02   -0.1420267993E-03   -0.1523118942E-01    0.6467512898E-02   -0.3285105792E-03    0.5930852301E-03    0.9094848367E-03   -0.9510727859E-03    0.1076748414E-03    0.1803223316E-03    0.2599254662E-02   -0.1350116024E-02    0.1586482221E-02   -0.5733904158E-03    0.1337837262E-03   -0.1214774557E-03   -0.2261656154E-03    0.2132507869E-03    0.3945256778E-04   -0.8533792311E-04   -0.4687622580E-03    0.2720838146E-03   -0.1210947449E-03    0.3938848868E-04   -0.1325171971E-04    0.1212624724E-04    0.5343016460E-04   -0.3614243386E-04   -0.2734004097E-04    0.1642499406E-04    0.5546998097E-04   -0.2807623742E-04    0.2346227947E-04   -0.1282030291E-04    0.1709578162E-03   -0.1310612814E-03
    0.0000000000E+00    0.2790000000E+01    0.1910123267E-02   -0.1725308485E-02    0.1077759598E-01   -0.1347703375E-01    0.7771357614E-02   -0.5361316345E-02   -0.2278921970E-02   -0.3180643662E-01   -0.2591826485E-02    0.4522378869E-02   -0.1969570147E-01    0.4276271357E-02   -0.1051291630E-02    0.2000437793E-01    0.2690863824E-02   -0.8746012102E-03    0.3645601733E-02   -0.2472598215E-02    0.8498819302E-02   -0.2645072731E-02   -0.2719268514E-03   -0.1126407828E-02   -0.1931054536E-02    0.2698120264E-02   -0.1751436158E-02   -0.1298289436E-03   -0.1519205258E-01    0.6562208816E-02   -0.3246606030E-03    0.5978420176E-03    0.9053010329E-03   -0.9613409249E-03    0.1108503815E-03    0.1810073384E-03    0.2595674831E-02   -0.1370805476E-02    0.1591748002E-02   -0.5844335202E-03    0.1336674615E-03   -0.1235304561E-03   -0.2261702942E-03    0.2160219707E-03    0.3907338213E-04   -0.8590164180E-04   -0.4692830795E-03    0.2771786491E-03   -0.1218672557E-03    0.3956469074E-04   -0.1328126244E-04    0.1244410581E-04    0.5352411990E-04   -0.3669899434E-04   -0.2734470491E-04    0.1671798562E-04    0.5553540930E-04   -0.2870375456E-04    0.2361262959E-04   -0.1286496232E-04    0.1711577564E-03   -0.1337617862E-03
    0.0000000000E+00    0.2795000000E+01    0.1927085939E-02   -0.1743292310E-02    0.1068360611E-01   -0.1348013724E-01    0.7711714427E-02   -0.5351491858E-02   -0.2584081420E-02   -0.3174668285E-01   -0.2519368291E-02    0.4538942508E-02   -0.1969150834E-01    0.4374009132E-02   -0.8406525357E-03    0.1996475574E-01    0.2689674379E-02   -0.8997684483E-03    0.3623246753E-02   -0.2482969996E-02    0.8473982922E-02   -0.2702850175E-02   -0.2856066101E-03   -0.1126339442E-02   -0.1909768186E-02    0.2713361857E-02   -0.1760766708E-02   -0.1176012827E-03   -0.1515237843E-01    0.6656200921E-02   -0.3207866138E-03    0.6025711412E-03    0.9010631168E-03   -0.9715655065E-03    0.1140206650E-03    0.1816790972E-03    0.2591925985E-02   -0.1391382534E-02    0.1596928790E-02   -0.5954512805E-03    0.1335456327E-03   -0.1255768291E-03   -0.2261586391E-03    0.2187914597E-03    0.3868923005E-04   -0.8646503896E-04   -0.4697757924E-03    0.2822630549E-03   -0.1226269757E-03    0.3974483220E-04   -0.1330880193E-04    0.1276768694E-04    0.5361336108E-04   -0.3725373946E-04   -0.2734829962E-04    0.1700694532E-04    0.5559199741E-04   -0.2934154341E-04    0.2376228234E-04   -0.1290149389E-04    0.1713532484E-03   -0.1364626082E-03
    0.0000000000E+00    0.2800000000E+01    0.1944002103E-02   -0.1761603726E-02    0.1059028628E-01   -0.1348298195E-01    0.7652992905E-02   -0.5341710933E-02   -0.2888058129E-02   -0.3168417388E-01   -0.2447040509E-02    0.4554926970E-02   -0.1968666670E-01    0.4471200630E-02   -0.6311201355E-03    0.1992307331E-01    0.2688174257E-02   -0.9248959493E-03    0.3601056113E-02   -0.2493081442E-02    0.8448647471E-02   -0.2760186180E-02   -0.2992333710E-03   -0.1126176140E-02   -0.1888450113E-02    0.2728390339E-02   -0.1769955845E-02   -0.1053481351E-03   -0.1511214082E-01    0.6749495755E-02   -0.3168887783E-03    0.6072707614E-03    0.8967691291E-03   -0.9817431721E-03    0.1171843420E-03    0.1823370279E-03    0.2587999194E-02   -0.1411846250E-02    0.1602017324E-02   -0.6064418841E-03    0.1334172483E-03   -0.1276158853E-03   -0.2261291010E-03    0.2215585106E-03    0.3829992219E-04   -0.8702776543E-04   -0.4702373192E-03    0.2873366608E-03   -0.1233729726E-03    0.3992939899E-04   -0.1333427298E-04    0.1309693619E-04    0.5369739180E-04   -0.3780687110E-04   -0.2735054124E-04    0.1729194679E-04    0.5563953033E-04   -0.2998988904E-04    0.2391088469E-04   -0.1293009196E-04    0.1715427444E-03   -0.1391636926E-03
    0.0000000000E+00    0.2805000000E+01    0.1960868327E-02   -0.1780244803E-02    0.1049763625E-01   -0.1348557043E-01    0.7595183740E-02   -0.5331975163E-02   -0.3190814945E-02   -0.3161893581E-01   -0.2374850477E-02    0.4570326624E-02   -0.1968116047E-01    0.4567842868E-02   -0.4227170776E-03    0.1987936306E-01    0.2686363245E-02   -0.9499722476E-03    0.3579025380E-02   -0.2502939665E-02    0.8422805991E-02   -0.2817066622E-02   -0.3128034009E-03   -0.1125919168E-02   -0.1867101151E-02    0.2743204045E-02   -0.1778997334E-02   -0.9307319467E-04   -0.1507131444E-01    0.6842103258E-02   -0.3129670354E-03    0.6119390516E-03    0.8924167805E-03   -0.9918708102E-03    0.1203401518E-03    0.1829804600E-03    0.2583885533E-02   -0.1432196712E-02    0.1607006268E-02   -0.6174041193E-03    0.1332812563E-03   -0.1296470375E-03   -0.2260800605E-03    0.2243225403E-03    0.3790522389E-04   -0.8758950020E-04   -0.4706646044E-03    0.2923994192E-03   -0.1241043502E-03    0.4011894638E-04   -0.1335761054E-04    0.1343180472E-04    0.5377573797E-04   -0.3835865143E-04   -0.2735115764E-04    0.1757310037E-04    0.5567781230E-04   -0.3064908315E-04    0.2405811914E-04   -0.1295100152E-04    0.1717247170E-03   -0.1418650948E-03
    0.0000000000E+00    0.2810000000E+01    0.1977681590E-02   -0.1799217333E-02    0.1040565548E-01   -0.1348790394E-01    0.7538277245E-02   -0.5322285642E-02   -0.3492314404E-02   -0.3155099392E-01   -0.2302804317E-02    0.4585135802E-02   -0.1967497392E-01    0.4663935312E-02   -0.2154658737E-03    0.1983365683E-01    0.2684240634E-02   -0.9749863797E-03    0.3557150032E-02   -0.2512551994E-02    0.8396450802E-02   -0.2873479020E-02   -0.3263131522E-03   -0.1125569419E-02   -0.1845721630E-02    0.2757801351E-02   -0.1787884953E-02   -0.8077954894E-04   -0.1502987473E-01    0.6934036551E-02   -0.3090210719E-03    0.6165742198E-03    0.8880034422E-03   -0.1001945578E-02    0.1234869514E-03    0.1836086521E-03    0.2579576140E-02   -0.1452435020E-02    0.1611888264E-02   -0.6283372847E-03    0.1331365508E-03   -0.1316698100E-03   -0.2260098415E-03    0.2270831295E-03    0.3750485770E-04   -0.8814995687E-04   -0.4710546455E-03    0.2974516057E-03   -0.1248202501E-03    0.4031407217E-04   -0.1337874611E-04    0.1377223793E-04    0.5384795794E-04   -0.3890940879E-04   -0.2734990477E-04    0.1785057551E-04    0.5570669499E-04   -0.3131944406E-04    0.2420368972E-04   -0.1296450263E-04    0.1718976820E-03   -0.1445669756E-03
    0.0000000000E+00    0.2815000000E+01    0.1994439528E-02   -0.1818522762E-02    0.1031434325E-01   -0.1348998214E-01    0.7482263409E-02   -0.5312642733E-02   -0.3792518626E-02   -0.3148037271E-01   -0.2230906906E-02    0.4599348784E-02   -0.1966809203E-01    0.4759480089E-02   -0.9388310822E-05    0.1978598604E-01    0.2681805496E-02   -0.9999279682E-03    0.3535425146E-02   -0.2521925850E-02    0.8369573852E-02   -0.2929412534E-02   -0.3397594529E-03   -0.1125127414E-02   -0.1824311159E-02    0.2772180647E-02   -0.1796612664E-02   -0.6846974030E-04   -0.1498779756E-01    0.7025311690E-02   -0.3050502821E-03    0.6211745320E-03    0.8835261127E-03   -0.1011964912E-02    0.1266237529E-03    0.1842208209E-03    0.2575062213E-02   -0.1472563260E-02    0.1616655945E-02   -0.6392410308E-03    0.1329819769E-03   -0.1336838493E-03   -0.2259167183E-03    0.2298400225E-03    0.3709849995E-04   -0.8870889102E-04   -0.4714045154E-03    0.3024938207E-03   -0.1255198447E-03    0.4051537427E-04   -0.1339761035E-04    0.1411817394E-04    0.5391364545E-04   -0.3945953531E-04   -0.2734654331E-04    0.1812456782E-04    0.5572606110E-04   -0.3200128294E-04    0.2434733608E-04   -0.1297092575E-04    0.1720601898E-03   -0.1472695689E-03
    0.0000000000E+00    0.2820000000E+01    0.2011140850E-02   -0.1838162076E-02    0.1022369900E-01   -0.1349180219E-01    0.7427132026E-02   -0.5303045630E-02   -0.4091388993E-02   -0.3140709612E-01   -0.2159161821E-02    0.4612959669E-02   -0.1966050086E-01    0.4854482364E-02    0.1954954953E-03    0.1973638226E-01    0.2679057129E-02   -0.1024787288E-02    0.3513844813E-02   -0.2531068556E-02    0.8342167189E-02   -0.2984857861E-02   -0.3531398106E-03   -0.1124593281E-02   -0.1802868240E-02    0.2786340283E-02   -0.1805174860E-02   -0.5614589516E-04   -0.1494505826E-01    0.7115947389E-02   -0.3010536977E-03    0.6257383360E-03    0.8789813380E-03   -0.1021926536E-02    0.1297497778E-03    0.1848161882E-03    0.2570334931E-02   -0.1492584457E-02    0.1621301893E-02   -0.6501150811E-03    0.1328163325E-03   -0.1356889362E-03   -0.2257989153E-03    0.2325931207E-03    0.3668578052E-04   -0.8926610828E-04   -0.4717113762E-03    0.3075269943E-03   -0.1262023113E-03    0.4072338146E-04   -0.1341412927E-04    0.1446952966E-04    0.5397244199E-04   -0.4000950182E-04   -0.2734086571E-04    0.1839533788E-04    0.5573582233E-04   -0.3269488616E-04    0.2448883668E-04   -0.1297065764E-04    0.1722108218E-03   -0.1499731557E-03
    0.0000000000E+00    0.2825000000E+01    0.2027786132E-02   -0.1858135577E-02    0.1013372300E-01   -0.1349335727E-01    0.7372872855E-02   -0.5293491493E-02   -0.4388885493E-02   -0.3133118775E-01   -0.2087571203E-02    0.4625962043E-02   -0.1965218806E-01    0.4948951055E-02    0.3991686907E-03    0.1968487815E-01    0.2675995824E-02   -0.1049555302E-02    0.3492401028E-02   -0.2539987058E-02    0.8314223631E-02   -0.3039806953E-02   -0.3664529383E-03   -0.1123966725E-02   -0.1781389557E-02    0.2800278476E-02   -0.1813566728E-02   -0.4380997535E-04   -0.1490162960E-01    0.7205964765E-02   -0.2970298554E-03    0.6302640880E-03    0.8743650332E-03   -0.1031828431E-02    0.1328645433E-03    0.1853940614E-03    0.2565385184E-02   -0.1512502526E-02    0.1625818468E-02   -0.6609587322E-03    0.1326383596E-03   -0.1376850061E-03   -0.2256545867E-03    0.2353424670E-03    0.3626627482E-04   -0.8982147566E-04   -0.4719724730E-03    0.3125524036E-03   -0.1268667733E-03    0.4093843349E-04   -0.1342820715E-04    0.1482616184E-04    0.5402404562E-04   -0.4055987609E-04   -0.2733270302E-04    0.1866322979E-04    0.5573589993E-04   -0.3340047365E-04    0.2462802803E-04   -0.1296417320E-04    0.1723481204E-03   -0.1526779736E-03
    0.0000000000E+00    0.2830000000E+01    0.2044379402E-02   -0.1878442436E-02    0.1004441756E-01   -0.1349463334E-01    0.7319475909E-02   -0.5283973617E-02   -0.4684965190E-02   -0.3125267154E-01   -0.2016135448E-02    0.4638348199E-02   -0.1964314364E-01    0.5042900375E-02    0.6016207944E-03    0.1963150960E-01    0.2672624327E-02   -0.1074223629E-02    0.3471081425E-02   -0.2548687440E-02    0.8285737902E-02   -0.3094252381E-02   -0.3796997669E-03   -0.1123246976E-02   -0.1759868515E-02    0.2813993096E-02   -0.1821784908E-02   -0.3146429368E-04   -0.1485747733E-01    0.7295387128E-02   -0.2929765244E-03    0.6347503850E-03    0.8696720896E-03   -0.1041668784E-02    0.1359680235E-03    0.1859539843E-03    0.2560202933E-02   -0.1532322225E-02    0.1630197381E-02   -0.6717698746E-03    0.1324467173E-03   -0.1396721828E-03   -0.2254817553E-03    0.2380882127E-03    0.3583948439E-04   -0.9037493985E-04   -0.4721850880E-03    0.3175717232E-03   -0.1275121678E-03    0.4116045207E-04   -0.1343971063E-04    0.1518782402E-04    0.5406822713E-04   -0.4111136888E-04   -0.2732194682E-04    0.1892872244E-04    0.5572618728E-04   -0.3411812875E-04    0.2476483752E-04   -0.1295209748E-04    0.1724705176E-03   -0.1553841352E-03
    0.0000000000E+00    0.2835000000E+01    0.2060931631E-02   -0.1899079694E-02    0.9955789851E-02   -0.1349560194E-01    0.7266932089E-02   -0.5274477445E-02   -0.4979578789E-02   -0.3117157297E-01   -0.1944852464E-02    0.4650107305E-02   -0.1963336142E-01    0.5136353311E-02    0.8028542432E-03    0.1957632040E-01    0.2668950944E-02   -0.1098784404E-02    0.3449864272E-02   -0.2557173946E-02    0.8256708833E-02   -0.3148185898E-02   -0.3928856267E-03   -0.1122432667E-02   -0.1738292024E-02    0.2827481201E-02   -0.1829828804E-02   -0.1911262674E-04   -0.1481255012E-01    0.7384239956E-02   -0.2888900963E-03    0.6391960100E-03    0.8648954579E-03   -0.1051445829E-02    0.1390609899E-03    0.1864960521E-03    0.2554775667E-02   -0.1552049116E-02    0.1634428636E-02   -0.6825428944E-03    0.1322399040E-03   -0.1416508532E-03   -0.2252781500E-03    0.2408305460E-03    0.3540478852E-04   -0.9092656249E-04   -0.4723463984E-03    0.3225871583E-03   -0.1281369380E-03    0.4138845182E-04   -0.1344841318E-04    0.1555404239E-04    0.5410485805E-04   -0.4166493980E-04   -0.2730859444E-04    0.1919254612E-04    0.5570646187E-04   -0.3484764998E-04    0.2489933243E-04   -0.1293531246E-04    0.1725760629E-03   -0.1580913542E-03
    0.0000000000E+00    0.2840000000E+01    0.2077469543E-02   -0.1920039744E-02    0.9867858775E-02   -0.1349620204E-01    0.7215234626E-02   -0.5264970352E-02   -0.5272661728E-02   -0.3108792217E-01   -0.1873715683E-02    0.4661220635E-02   -0.1962284233E-01    0.5229350636E-02    0.1002900725E-02    0.1951937417E-01    0.2664997221E-02   -0.1123229799E-02    0.3428705861E-02   -0.2565446635E-02    0.8227144560E-02   -0.3201594815E-02   -0.4060256716E-03   -0.1121521512E-02   -0.1716632383E-02    0.2840737847E-02   -0.1837703776E-02   -0.6762993012E-05   -0.1476675387E-01    0.7472551420E-02   -0.2847640297E-03    0.6436000184E-03    0.8600237796E-03   -0.1061157443E-02    0.1421458525E-03    0.1870216860E-03    0.2549084362E-02   -0.1571689599E-02    0.1638497742E-02   -0.6932634685E-03    0.1320160443E-03   -0.1436218536E-03   -0.2250407650E-03    0.2435695189E-03    0.3496131196E-04   -0.9147660396E-04   -0.4724530759E-03    0.3276018181E-03   -0.1287382539E-03    0.4161933522E-04   -0.1345386164E-04    0.1592381999E-04    0.5413397782E-04   -0.4222207770E-04   -0.2729285601E-04    0.1945597384E-04    0.5567615971E-04   -0.3558818414E-04    0.2503189445E-04   -0.1291531584E-04    0.1726617944E-03   -0.1607983549E-03
    0.0000000000E+00    0.2845000000E+01    0.2094062274E-02   -0.1941302731E-02    0.9780675892E-02   -0.1349628475E-01    0.7164383330E-02   -0.5255370658E-02   -0.5564106958E-02   -0.3100176325E-01   -0.1802707863E-02    0.4671646938E-02   -0.1961160405E-01    0.5321978538E-02    0.1201870286E-02    0.1946079044E-01    0.2660820972E-02   -0.1147550496E-02    0.3407502306E-02   -0.2573494432E-02    0.8197077789E-02   -0.3254451070E-02   -0.4191612270E-03   -0.1120509314E-02   -0.1694822652E-02    0.2853752475E-02   -0.1845430618E-02    0.5564005542E-05   -0.1471987355E-01    0.7560354795E-02   -0.2805841120E-03    0.6479619637E-03    0.8550341254E-03   -0.1070799913E-02    0.1452291928E-03    0.1875359429E-03    0.2543091098E-02   -0.1591251196E-02    0.1642377142E-02   -0.7038929351E-03    0.1317722136E-03   -0.1455870381E-03   -0.2247644825E-03    0.2463045388E-03    0.3450751559E-04   -0.9202577480E-04   -0.4725000237E-03    0.3326209023E-03   -0.1293096245E-03    0.4184426939E-04   -0.1345496891E-04    0.1629474376E-04    0.5415598400E-04   -0.4278565060E-04   -0.2727548149E-04    0.1972171897E-04    0.5563370292E-04   -0.3633715062E-04    0.2516367442E-04   -0.1289519340E-04    0.1727218834E-03   -0.1635012076E-03
    0.0000000000E+00    0.2850000000E+01    0.2110929855E-02   -0.1962805516E-02    0.9694410286E-02   -0.1349538826E-01    0.7114401922E-02   -0.5245421762E-02   -0.5853654096E-02   -0.3091319186E-01   -0.1731775691E-02    0.4681262781E-02   -0.1959971976E-01    0.5414481556E-02    0.1400150413E-02    0.1940089158E-01    0.2656609656E-02   -0.1171729385E-02    0.3385934184E-02   -0.2581267070E-02    0.8166627250E-02   -0.3306667006E-02   -0.4324261883E-03   -0.1119385843E-02   -0.1672656447E-02    0.2866494193E-02   -0.1853083894E-02    0.1780142161E-04   -0.1467125500E-01    0.7647699554E-02   -0.2763091260E-03    0.6522827603E-03    0.8498623187E-03   -0.1080362904E-02    0.1483320555E-03    0.1880568570E-03    0.2536688425E-02   -0.1610744013E-02    0.1645991129E-02   -0.7143049629E-03    0.1315016520E-03   -0.1475515968E-03   -0.2244364068E-03    0.2490323317E-03    0.3403950480E-04   -0.9257624768E-04   -0.4724751672E-03    0.3376566228E-03   -0.1298311975E-03    0.4203400941E-04   -0.1344834827E-04    0.1665934629E-04    0.5417240847E-04   -0.4336340070E-04   -0.2725908049E-04    0.1999758682E-04    0.5557374021E-04   -0.3708583930E-04    0.2529853997E-04   -0.1288376067E-04    0.1727397039E-03   -0.1661861353E-03
    0.0000000000E+00    0.2855000000E+01    0.2129233192E-02   -0.1984215962E-02    0.9609966328E-02   -0.1349109879E-01    0.7065463187E-02   -0.5233774574E-02   -0.6140081167E-02   -0.3082262834E-01   -0.1660643947E-02    0.4689427483E-02   -0.1958759955E-01    0.5508086411E-02    0.1599855313E-02    0.1934127202E-01    0.2653359552E-02   -0.1195695481E-02    0.3362335406E-02   -0.2588471266E-02    0.8136443814E-02   -0.3357773789E-02   -0.4465302766E-03   -0.1118104668E-02   -0.1649058144E-02    0.2878804595E-02   -0.1861070609E-02    0.2959040133E-04   -0.1461748753E-01    0.7734734824E-02   -0.2717299583E-03    0.6565708969E-03    0.8441865743E-03   -0.1089792888E-02    0.1515648700E-03    0.1886833544E-03    0.2529330379E-02   -0.1630192070E-02    0.1648960122E-02   -0.7238248505E-03    0.1311734021E-03   -0.1495409885E-03   -0.2239945006E-03    0.2517321945E-03    0.3353868248E-04   -0.9313904085E-04   -0.4723214331E-03    0.3427642573E-03   -0.1301990605E-03    0.4203210727E-04   -0.1341620267E-04    0.1697867055E-04    0.5419154798E-04   -0.4399340975E-04   -0.2725770941E-04    0.2032304408E-04    0.5546713503E-04   -0.3778752214E-04    0.2545697555E-04   -0.1292523354E-04    0.1726309849E-03   -0.1687784016E-03
    0.0000000000E+00    0.2860000000E+01    0.2046247145E-02   -0.2034890977E-02    0.9447015743E-02   -0.1369655899E-01    0.7001272639E-02   -0.5339724893E-02   -0.6528458312E-02   -0.3069458037E-01   -0.1613483081E-02    0.4752715188E-02   -0.1953866342E-01    0.5495653409E-02    0.1612544079E-02    0.1914291055E-01    0.2562762971E-02   -0.1225436092E-02    0.3483789992E-02   -0.2621611729E-02    0.8048535296E-02   -0.3449575420E-02   -0.3986348237E-03   -0.1120591138E-02   -0.1718927959E-02    0.2904622039E-02   -0.1833157676E-02    0.7285482842E-04   -0.1485991775E-01    0.7810578955E-02   -0.2851688636E-03    0.6600197643E-03    0.8661442114E-03   -0.1103845148E-02    0.1451852287E-03    0.1805856957E-03    0.2569002092E-02   -0.1648114734E-02    0.1684539662E-02   -0.7923504582E-03    0.1334360259E-03   -0.1493534702E-03   -0.2288186355E-03    0.2563208752E-03    0.3461128402E-04   -0.9275460096E-04   -0.4769838026E-03    0.3432531911E-03   -0.1396050272E-03    0.5572298053E-04   -0.1493395244E-04    0.2069109653E-04    0.5348076313E-04   -0.4136273288E-04   -0.2602333821E-04    0.1724002366E-04    0.5791748743E-04   -0.4259075830E-04    0.2382276039E-04   -0.9146054686E-05    0.1797953229E-03   -0.1779322927E-03
    0.0000000000E+00    0.2865000000E+01    0.2152481615E-02   -0.2031806113E-02    0.9432714847E-02   -0.1350897708E-01    0.6967869099E-02   -0.5225898412E-02   -0.6721518660E-02   -0.3062949224E-01   -0.1521928884E-02    0.4711132201E-02   -0.1955635751E-01    0.5680239366E-02    0.1971080108E-02    0.1919904579E-01    0.2634551293E-02   -0.1244011061E-02    0.3334327080E-02   -0.2605754024E-02    0.8066894297E-02   -0.3463869660E-02   -0.4664495242E-03   -0.1115735506E-02   -0.1613873120E-02    0.2904525746E-02   -0.1871807265E-02    0.5732204288E-04   -0.1454632463E-01    0.7906101073E-02   -0.2648019754E-03    0.6649090553E-03    0.8361484622E-03   -0.1109073987E-02    0.1567469120E-03    0.1887316527E-03    0.2519991083E-02   -0.1668727523E-02    0.1658671443E-02   -0.7504976217E-03    0.1307958162E-03   -0.1532182261E-03   -0.2236904335E-03    0.2573818329E-03    0.3271324239E-04   -0.9413747292E-04   -0.4724746747E-03    0.3523974050E-03   -0.1320548674E-03    0.4384254726E-04   -0.1354636199E-04    0.1807236613E-04    0.5411233551E-04   -0.4484290784E-04   -0.2708545844E-04    0.2052969219E-04    0.5556302901E-04   -0.3976364866E-04    0.2553237225E-04   -0.1250272793E-04    0.1733049215E-03   -0.1748313009E-03
    0.0000000000E+00    0.2870000000E+01    0.2170168684E-02   -0.2054342851E-02    0.9349862470E-02   -0.1350469769E-01    0.6921211582E-02   -0.5214871402E-02   -0.7003429682E-02   -0.3053136069E-01   -0.1451341701E-02    0.4717657097E-02   -0.1954177611E-01    0.5772112048E-02    0.2165947471E-02    0.1913372597E-01    0.2629944434E-02   -0.1267615809E-02    0.3311667248E-02   -0.2612555911E-02    0.8034718819E-02   -0.3513688098E-02   -0.4800599932E-03   -0.1114155438E-02   -0.1590508393E-02    0.2916206481E-02   -0.1879049870E-02    0.6931059587E-04   -0.1449155638E-01    0.7991831860E-02   -0.2601760403E-03    0.6690588411E-03    0.8302889865E-03   -0.1118337338E-02    0.1599059997E-03    0.1892471977E-03    0.2512055302E-02   -0.1688014241E-02    0.1661284762E-02   -0.7602256972E-03    0.1304162416E-03   -0.1551807880E-03   -0.2231591914E-03    0.2600962988E-03    0.3218856981E-04   -0.9469274993E-04   -0.4721673435E-03    0.3575095967E-03   -0.1324032258E-03    0.4393331070E-04   -0.1351334648E-04    0.1841999822E-04    0.5410518359E-04   -0.4547462299E-04   -0.2706940086E-04    0.2084060150E-04    0.5544340178E-04   -0.4052359745E-04    0.2567470352E-04   -0.1252019226E-04    0.1731693588E-03   -0.1774677550E-03
    0.0000000000E+00    0.2875000000E+01    0.2186433170E-02   -0.2077601139E-02    0.9266580275E-02   -0.1350293932E-01    0.6875099895E-02   -0.5205464433E-02   -0.7285020342E-02   -0.3043032167E-01   -0.1381216850E-02    0.4724309769E-02   -0.1952594740E-01    0.5862170455E-02    0.2356947016E-02    0.1906489686E-01    0.2623837524E-02   -0.1291170760E-02    0.3291058125E-02   -0.2619547071E-02    0.8001192489E-02   -0.3563588217E-02   -0.4927628020E-03   -0.1112517231E-02   -0.1568339838E-02    0.2927841730E-02   -0.1885614914E-02    0.8174962687E-04   -0.1444003647E-01    0.8077042802E-02   -0.2557474945E-03    0.6731530673E-03    0.8246956243E-03   -0.1127603951E-02    0.1629266372E-03    0.1896199062E-03    0.2504495084E-02   -0.1707244067E-02    0.1664171209E-02   -0.7707372733E-03    0.1300495274E-03   -0.1571099414E-03   -0.2226605962E-03    0.2628407219E-03    0.3167428355E-04   -0.9523481308E-04   -0.4718670910E-03    0.3625721973E-03   -0.1328547246E-03    0.4421990910E-04   -0.1349882583E-04    0.1881756235E-04    0.5408098677E-04   -0.4606881804E-04   -0.2703376058E-04    0.2110649205E-04    0.5535111886E-04   -0.4135211324E-04    0.2579027639E-04   -0.1248465673E-04    0.1731118838E-03   -0.1801980995E-03
    0.0000000000E+00    0.2880000000E+01    0.2202237171E-02   -0.2101304893E-02    0.9183616048E-02   -0.1350170231E-01    0.6829676070E-02   -0.5196560376E-02   -0.7565278174E-02   -0.3032672562E-01   -0.1311325152E-02    0.4730564032E-02   -0.1950922045E-01    0.5951434021E-02    0.2545834571E-02    0.1899387829E-01    0.2617057708E-02   -0.1314621041E-02    0.3271120039E-02   -0.2626483137E-02    0.7966861271E-02   -0.3613187960E-02   -0.5051478166E-03   -0.1110781500E-02   -0.1546475594E-02    0.2939300812E-02   -0.1891842866E-02    0.9434317773E-04   -0.1438895286E-01    0.8161854960E-02   -0.2513427169E-03    0.6771996818E-03    0.8191022608E-03   -0.1136830944E-02    0.1659010487E-03    0.1899320261E-03    0.2496862418E-02   -0.1726437783E-02    0.1667019318E-02   -0.7814732573E-03    0.1296703250E-03   -0.1590272083E-03   -0.2221438904E-03    0.2655984019E-03    0.3115504867E-04   -0.9577304894E-04   -0.4715279237E-03    0.3676312736E-03   -0.1333238034E-03    0.4457235675E-04   -0.1348812731E-04    0.1923271305E-04    0.5404688463E-04   -0.4665705689E-04   -0.2699030006E-04    0.2136011078E-04    0.5526226798E-04   -0.4221024566E-04    0.2589621076E-04   -0.1243285601E-04    0.1730635113E-03   -0.1829606788E-03
    0.0000000000E+00    0.2885000000E+01    0.2217776342E-02   -0.2125396925E-02    0.9101118205E-02   -0.1350057767E-01    0.6784960922E-02   -0.5187932339E-02   -0.7843976176E-02   -0.3022065805E-01   -0.1241617959E-02    0.4736316770E-02   -0.1949167322E-01    0.6040121984E-02    0.2732961638E-02    0.1892095195E-01    0.2609773888E-02   -0.1337957192E-02    0.3251570933E-02   -0.2633316876E-02    0.7931840195E-02   -0.3662417723E-02   -0.5173364259E-03   -0.1108938188E-02   -0.1524731951E-02    0.2950557190E-02   -0.1897804610E-02    0.1070334194E-03   -0.1433774432E-01    0.8246305660E-02   -0.2469248872E-03    0.6812008173E-03    0.8134530738E-03   -0.1146011101E-02    0.1688488596E-03    0.1902000573E-03    0.2489068263E-02   -0.1745604667E-02    0.1669766431E-02   -0.7923211121E-03    0.1292731695E-03   -0.1609377073E-03   -0.2215986512E-03    0.2683669277E-03    0.3062756626E-04   -0.9630970703E-04   -0.4711410168E-03    0.3726977515E-03   -0.1337935552E-03    0.4496414105E-04   -0.1347834665E-04    0.1965874758E-04    0.5400459928E-04   -0.4724616249E-04   -0.2694151541E-04    0.2160844673E-04    0.5517235344E-04   -0.4308987722E-04    0.2599606373E-04   -0.1237255433E-04    0.1730101867E-03   -0.1857428663E-03
    0.0000000000E+00    0.2890000000E+01    0.2233113869E-02   -0.2149857722E-02    0.9019131609E-02   -0.1349943158E-01    0.6740954570E-02   -0.5179507354E-02   -0.8121024128E-02   -0.3011215888E-01   -0.1172078080E-02    0.4741538749E-02   -0.1947333824E-01    0.6128314528E-02    0.2918438375E-02    0.1884621969E-01    0.2602041790E-02   -0.1361178126E-02    0.3232318537E-02   -0.2640034636E-02    0.7896171292E-02   -0.3711262182E-02   -0.5293693563E-03   -0.1106982366E-02   -0.1503047662E-02    0.2961602443E-02   -0.1903525047E-02    0.1198035568E-03   -0.1428624030E-01    0.8330415561E-02   -0.2424809146E-03    0.6851577475E-03    0.8077288804E-03   -0.1155143500E-02    0.1717772076E-03    0.1904292533E-03    0.2481086332E-02   -0.1764751567E-02    0.1672393424E-02   -0.8032451483E-03    0.1288561273E-03   -0.1628437348E-03   -0.2210215786E-03    0.2711463312E-03    0.3009066606E-04   -0.9684586718E-04   -0.4707041934E-03    0.3777763489E-03   -0.1342589911E-03    0.4538652869E-04   -0.1346861930E-04    0.2009338155E-04    0.5395493370E-04   -0.4783860945E-04   -0.2688827653E-04    0.2185390416E-04    0.5508034734E-04   -0.4398840124E-04    0.2609108921E-04   -0.1230653526E-04    0.1729476121E-03   -0.1885406900E-03
    0.0000000000E+00    0.2895000000E+01    0.2248274479E-02   -0.2174678607E-02    0.8937671111E-02   -0.1349821033E-01    0.6697651347E-02   -0.5171257141E-02   -0.8396372361E-02   -0.3000125495E-01   -0.1102697729E-02    0.4746222758E-02   -0.1945423595E-01    0.6216050640E-02    0.3102306101E-02    0.1876973089E-01    0.2593884835E-02   -0.1384285545E-02    0.3213325675E-02   -0.2646632090E-02    0.7859876650E-02   -0.3759721813E-02   -0.5412641634E-03   -0.1104910689E-02   -0.1481397089E-02    0.2972433491E-02   -0.1909016216E-02    0.1326485200E-03   -0.1423438474E-01    0.8414198433E-02   -0.2380046968E-03    0.6890716341E-03    0.8019213932E-03   -0.1164229111E-02    0.1746896455E-03    0.1906217111E-03    0.2472909101E-02   -0.1783884177E-02    0.1674894159E-02   -0.8142315946E-03    0.1284183751E-03   -0.1647467604E-03   -0.2204115649E-03    0.2739373148E-03    0.2954382282E-04   -0.9738220947E-04   -0.4702173390E-03    0.3828698376E-03   -0.1347186036E-03    0.4583584944E-04   -0.1345868300E-04    0.2053560092E-04    0.5389846041E-04   -0.4843562406E-04   -0.2683105564E-04    0.2209773272E-04    0.5498607947E-04   -0.4490441541E-04    0.2618185047E-04   -0.1223609249E-04    0.1728742545E-03   -0.1913524476E-03
    0.0000000000E+00    0.2900000000E+01    0.2263268350E-02   -0.2199854878E-02    0.8856740317E-02   -0.1349689061E-01    0.6655043642E-02   -0.5163170330E-02   -0.8669987273E-02   -0.2988796843E-01   -0.1033473014E-02    0.4750370406E-02   -0.1943438304E-01    0.6303352900E-02    0.3284581179E-02    0.1869151502E-01    0.2585314758E-02   -0.1407282470E-02    0.3194575966E-02   -0.2653108058E-02    0.7822971911E-02   -0.3807802961E-02   -0.5530298529E-03   -0.1102720517E-02   -0.1459768129E-02    0.2983049351E-02   -0.1914285704E-02    0.1455674620E-03   -0.1418216567E-01    0.8497663539E-02   -0.2334928663E-03    0.6929436786E-03    0.7960266824E-03   -0.1173269656E-02    0.1775883879E-03    0.1907784298E-03    0.2464536558E-02   -0.1803007303E-02    0.1677267717E-02   -0.8252746347E-03    0.1279595796E-03   -0.1666479339E-03   -0.2197684359E-03    0.2767407841E-03    0.2898680102E-04   -0.9791933448E-04   -0.4696812577E-03    0.3879801202E-03   -0.1351722205E-03    0.4631026237E-04   -0.1344850390E-04    0.2098486057E-04    0.5383566797E-04   -0.4903789467E-04   -0.2677012993E-04    0.2234057002E-04    0.5488980510E-04   -0.4583717523E-04    0.2626870346E-04   -0.1216202205E-04    0.1727897314E-03   -0.1941773205E-03
    0.0000000000E+00    0.2905000000E+01    0.2278099153E-02   -0.2225383515E-02    0.8776337916E-02   -0.1349546286E-01    0.6613123146E-02   -0.5155243043E-02   -0.8941843061E-02   -0.2977231969E-01   -0.9644021026E-03    0.4753987605E-02   -0.1941379518E-01    0.6390235697E-02    0.3465269762E-02    0.1861159271E-01    0.2576338545E-02   -0.1430172663E-02    0.3176062238E-02   -0.2659462446E-02    0.7785470764E-02   -0.3855514361E-02   -0.5646717714E-03   -0.1100409643E-02   -0.1438154795E-02    0.2993450027E-02   -0.1919339427E-02    0.1585611813E-03   -0.1412959116E-01    0.8580816370E-02   -0.2289433798E-03    0.6967751787E-03    0.7900429769E-03   -0.1182267192E-02    0.1804750550E-03    0.1909000084E-03    0.2455972359E-02   -0.1822124903E-02    0.1679515701E-02   -0.8363716475E-03    0.1274796883E-03   -0.1685482404E-03   -0.2190925199E-03    0.2795576793E-03    0.2841952404E-04   -0.9845777991E-04   -0.4690972458E-03    0.3931085718E-03   -0.1356202585E-03    0.4680866925E-04   -0.1343815474E-04    0.2144081612E-04    0.5376701858E-04   -0.4964584658E-04   -0.2670572192E-04    0.2258284381E-04    0.5479194025E-04   -0.4678613668E-04    0.2635184574E-04   -0.1208475774E-04    0.1726941315E-03   -0.1970147234E-03
    0.0000000000E+00    0.2910000000E+01    0.2292767279E-02   -0.2251262248E-02    0.8696460252E-02   -0.1349392446E-01    0.6571881408E-02   -0.5147475103E-02   -0.9211918333E-02   -0.2965432843E-01   -0.8954845418E-03    0.4757082703E-02   -0.1939248794E-01    0.6476708503E-02    0.3644373766E-02    0.1852998025E-01    0.2566961249E-02   -0.1452960338E-02    0.3157781828E-02   -0.2665695421E-02    0.7747386701E-02   -0.3902865624E-02   -0.5761935664E-03   -0.1097976214E-02   -0.1416554232E-02    0.3003636059E-02   -0.1924182726E-02    0.1716310468E-03   -0.1407667948E-01    0.8663658917E-02   -0.2243549544E-03    0.7005675328E-03    0.7839697762E-03   -0.1191223914E-02    0.1833509614E-03    0.1909869257E-03    0.2447222221E-02   -0.1841240080E-02    0.1681641116E-02   -0.8475212786E-03    0.1269788417E-03   -0.1704485579E-03   -0.2183844676E-03    0.2823888968E-03    0.2784202351E-04   -0.9899805484E-04   -0.4684669091E-03    0.3982561712E-03   -0.1360634260E-03    0.4733027362E-04   -0.1342776090E-04    0.2190320923E-04    0.5369297366E-04   -0.5025976667E-04   -0.2663802429E-04    0.2282484782E-04    0.5469297755E-04   -0.4775083882E-04    0.2643145305E-04   -0.1200465903E-04    0.1725878594E-03   -0.1998642298E-03
    0.0000000000E+00    0.2915000000E+01    0.2307271320E-02   -0.2277489138E-02    0.8617102515E-02   -0.1349227666E-01    0.6531310038E-02   -0.5139868264E-02   -0.9480194562E-02   -0.2953401436E-01   -0.8267209678E-03    0.4759665593E-02   -0.1937047717E-01    0.6562777290E-02    0.3821893509E-02    0.1844669180E-01    0.2557187278E-02   -0.1475649980E-02    0.3139734397E-02   -0.2671807050E-02    0.7708733775E-02   -0.3949866452E-02   -0.5875980602E-03   -0.1095418693E-02   -0.1394965359E-02    0.3013608309E-02   -0.1928820822E-02    0.1847784781E-03   -0.1402345437E-01    0.8746189796E-02   -0.2197268176E-03    0.7043222297E-03    0.7778074406E-03   -0.1200142051E-02    0.1862172370E-03    0.1910396638E-03    0.2438293132E-02   -0.1860355055E-02    0.1683647800E-02   -0.8587225467E-03    0.1264573298E-03   -0.1723496779E-03   -0.2176451582E-03    0.2852352467E-03    0.2725441807E-04   -0.9954064652E-04   -0.4677920591E-03    0.4034235562E-03   -0.1365025679E-03    0.4787438534E-04   -0.1341748012E-04    0.2237183029E-04    0.5361398278E-04   -0.5087980768E-04   -0.2656722028E-04    0.2306680052E-04    0.5459342594E-04   -0.4873080671E-04    0.2650764110E-04   -0.1192193672E-04    0.1724714403E-03   -0.2027253634E-03
    0.0000000000E+00    0.2920000000E+01    0.2321608798E-02   -0.2304062357E-02    0.8538259352E-02   -0.1349052296E-01    0.6491400842E-02   -0.5132425313E-02   -0.9746655235E-02   -0.2941139742E-01   -0.7581129753E-03    0.4761747195E-02   -0.1934777901E-01    0.6648445241E-02    0.3997829054E-02    0.1836174056E-01    0.2547021028E-02   -0.1498246193E-02    0.3121920807E-02   -0.2677797137E-02    0.7669526899E-02   -0.3996526164E-02   -0.5988876723E-03   -0.1092735867E-02   -0.1373388190E-02    0.3023367840E-02   -0.1933259016E-02    0.1980046639E-03   -0.1396994248E-01    0.8828404343E-02   -0.2150585860E-03    0.7080408320E-03    0.7715569767E-03   -0.1209023786E-02    0.1890748783E-03    0.1910587711E-03    0.2429192896E-02   -0.1879471139E-02    0.1685540108E-02   -0.8699743888E-03    0.1259155654E-03   -0.1742523092E-03   -0.2168756483E-03    0.2880974240E-03    0.2665689881E-04   -0.1000860215E-03   -0.4670746457E-03    0.4086110483E-03   -0.1369385911E-03    0.4844032178E-04   -0.1340748210E-04    0.2284647193E-04    0.5353049950E-04   -0.5150605782E-04   -0.2649348559E-04    0.2330886057E-04    0.5449378344E-04   -0.4972551254E-04    0.2658054256E-04   -0.1183682524E-04    0.1723454635E-03   -0.2055975658E-03
    0.0000000000E+00    0.2925000000E+01    0.2335776560E-02   -0.2330980080E-02    0.8459925197E-02   -0.1348866825E-01    0.6452145863E-02   -0.5125149554E-02   -0.1001128538E-01   -0.2928649804E-01   -0.6896630754E-03    0.4763339151E-02   -0.1932440984E-01    0.6733713119E-02    0.4172180875E-02    0.1827513943E-01    0.2536467224E-02   -0.1520753581E-02    0.3104342495E-02   -0.2683665152E-02    0.7629781957E-02   -0.4042853381E-02   -0.6100646279E-03   -0.1089926851E-02   -0.1351823465E-02    0.3032915851E-02   -0.1937502752E-02    0.2113103936E-03   -0.1391617184E-01    0.8910294710E-02   -0.2103502017E-03    0.7117249561E-03    0.7652199134E-03   -0.1217871198E-02    0.1919247685E-03    0.1910448896E-03    0.2419929845E-02   -0.1898588720E-02    0.1687322688E-02   -0.8812754150E-03    0.1253540660E-03   -0.1761570777E-03   -0.2160771332E-03    0.2909759887E-03    0.2604972303E-04   -0.1006346223E-03   -0.4663167129E-03    0.4138186606E-03   -0.1373724068E-03    0.4902736193E-04   -0.1339794649E-04    0.2332693490E-04    0.5344296727E-04   -0.5213851673E-04   -0.2641699288E-04    0.2355114173E-04    0.5439458206E-04   -0.5073450975E-04    0.2665024111E-04   -0.1174944375E-04    0.1722105361E-03   -0.2084801674E-03
    0.0000000000E+00    0.2930000000E+01    0.2349771002E-02   -0.2358240416E-02    0.8382094474E-02   -0.1348671828E-01    0.6413537394E-02   -0.5118044503E-02   -0.1027407127E-01   -0.2915933726E-01   -0.6213746513E-03    0.4764453587E-02   -0.1930038612E-01    0.6818579472E-02    0.4344950183E-02    0.1818690149E-01    0.2525531092E-02   -0.1543176637E-02    0.3087001089E-02   -0.2689410212E-02    0.7589515790E-02   -0.4088855795E-02   -0.6211310626E-03   -0.1086991092E-02   -0.1330272443E-02    0.3042253621E-02   -0.1941557627E-02    0.2246959543E-03   -0.1386217080E-01    0.8991849991E-02   -0.2056018957E-03    0.7153762478E-03    0.7587982197E-03   -0.1226686218E-02    0.1947676824E-03    0.1909987666E-03    0.2410512621E-02   -0.1917707251E-02    0.1689000329E-02   -0.8926237754E-03    0.1247734392E-03   -0.1780645212E-03   -0.2152509173E-03    0.2938713526E-03    0.2543320722E-04   -0.1011868639E-03   -0.4655203473E-03    0.4190461103E-03   -0.1378049020E-03    0.4963472095E-04   -0.1338905584E-04    0.2381301405E-04    0.5335182195E-04   -0.5277712764E-04   -0.2633791234E-04    0.2379372380E-04    0.5429629568E-04   -0.5175722881E-04    0.2671682348E-04   -0.1165991677E-04    0.1720673238E-03   -0.2113724932E-03
    0.0000000000E+00    0.2935000000E+01    0.2363588198E-02   -0.2385841372E-02    0.8304761709E-02   -0.1348467935E-01    0.6375567993E-02   -0.5111113694E-02   -0.1053500017E-01   -0.2902993675E-01   -0.5532519560E-03    0.4765102941E-02   -0.1927572424E-01    0.6903040792E-02    0.4516139100E-02    0.1809704031E-01    0.2514218448E-02   -0.1565519643E-02    0.3069898164E-02   -0.2695031089E-02    0.7548746117E-02   -0.4134539989E-02   -0.6320890674E-03   -0.1083928383E-02   -0.1308736773E-02    0.3051382476E-02   -0.1945429360E-02    0.2381610636E-03   -0.1380796732E-01    0.9073056364E-02   -0.2008141662E-03    0.7189963607E-03    0.7522942430E-03   -0.1235470583E-02    0.1976042841E-03    0.1909212571E-03    0.2400950008E-02   -0.1936825260E-02    0.1690577826E-02   -0.9040170883E-03    0.1241743684E-03   -0.1799750855E-03   -0.2143983880E-03    0.2967837682E-03    0.2480772232E-04   -0.1017431295E-03   -0.4646876429E-03    0.4242928245E-03   -0.1382369120E-03    0.5026154058E-04   -0.1338098932E-04    0.2430448832E-04    0.5325748302E-04   -0.5342176751E-04   -0.2625641103E-04    0.2403665690E-04    0.5419937103E-04   -0.5279306855E-04    0.2678035828E-04   -0.1156833189E-04    0.1719163870E-03   -0.2142736319E-03
    0.0000000000E+00    0.2940000000E+01    0.2377223978E-02   -0.2413780836E-02    0.8227921601E-02   -0.1348255803E-01    0.6338230455E-02   -0.5104360551E-02   -0.1079406019E-01   -0.2889831897E-01   -0.4853000882E-03    0.4765299808E-02   -0.1925044033E-01    0.6987091629E-02    0.4685750684E-02    0.1800557021E-01    0.2502535729E-02   -0.1587786577E-02    0.3053035079E-02   -0.2700526239E-02    0.7507491421E-02   -0.4179911314E-02   -0.6429407011E-03   -0.1080738863E-02   -0.1287218413E-02    0.3060303757E-02   -0.1949123741E-02    0.2517048283E-03   -0.1375358837E-01    0.9153897279E-02   -0.1959877616E-03    0.7225869300E-03    0.7457106590E-03   -0.1244225804E-02    0.2004351204E-03    0.1908133191E-03    0.2391250786E-02   -0.1955940355E-02    0.1692059874E-02   -0.9154524079E-03    0.1235576005E-03   -0.1818891191E-03   -0.2135209936E-03    0.2997133209E-03    0.2417368812E-04   -0.1023037663E-03   -0.4638206682E-03    0.4295579469E-03   -0.1386692025E-03    0.5090688673E-04   -0.1337392211E-04    0.2480112629E-04    0.5316035456E-04   -0.5407226627E-04   -0.2617264818E-04    0.2427995463E-04    0.5410423004E-04   -0.5384141898E-04    0.2684090618E-04   -0.1147476924E-04    0.1717582718E-03   -0.2171826168E-03
    0.0000000000E+00    0.2945000000E+01    0.2390673974E-02   -0.2442056561E-02    0.8151569066E-02   -0.1348036106E-01    0.6301517795E-02   -0.5097788277E-02   -0.1105124013E-01   -0.2876450711E-01   -0.4175249729E-03    0.4765056811E-02   -0.1922455008E-01    0.7070724713E-02    0.4853788926E-02    0.1791250641E-01    0.2490489988E-02   -0.1609981028E-02    0.3036412863E-02   -0.2705893838E-02    0.7465770810E-02   -0.4224973775E-02   -0.6536879856E-03   -0.1077423019E-02   -0.1265719572E-02    0.3069018795E-02   -0.1952646570E-02    0.2653257241E-03   -0.1369905947E-01    0.9234353662E-02   -0.1911236666E-03    0.7261495504E-03    0.7390504257E-03   -0.1252953134E-02    0.2032606133E-03    0.1906760062E-03    0.2381423605E-02   -0.1975049258E-02    0.1693450973E-02   -0.9269262210E-03    0.1229239331E-03   -0.1838068693E-03   -0.2126202197E-03    0.3026599251E-03    0.2353156951E-04   -0.1028690804E-03   -0.4629214306E-03    0.4348403488E-03   -0.1391024543E-03    0.5156975407E-04   -0.1336802112E-04    0.2530267958E-04    0.5306081510E-04   -0.5472839590E-04   -0.2608678100E-04    0.2452361885E-04    0.5401124352E-04   -0.5490161005E-04    0.2689850749E-04   -0.1137927771E-04    0.1715935016E-03   -0.2200984492E-03
    0.0000000000E+00    0.2950000000E+01    0.2403933654E-02   -0.2470666164E-02    0.8075699253E-02   -0.1347809518E-01    0.6265423218E-02   -0.5091399809E-02   -0.1130652936E-01   -0.2862852515E-01   -0.3499333373E-03    0.4764386480E-02   -0.1919806852E-01    0.7153931064E-02    0.5020258657E-02    0.1781786522E-01    0.2478088876E-02   -0.1632106120E-02    0.3020032125E-02   -0.2711131834E-02    0.7423603858E-02   -0.4269729972E-02   -0.6643328912E-03   -0.1073981679E-02   -0.1244242668E-02    0.3077528890E-02   -0.1956003599E-02    0.2790215884E-03   -0.1364440429E-01    0.9314404157E-02   -0.1862230882E-03    0.7296857503E-03    0.7323167399E-03   -0.1261653541E-02    0.2060810543E-03    0.1905104540E-03    0.2371476866E-02   -0.1994147834E-02    0.1694755339E-02   -0.9384344620E-03    0.1222742018E-03   -0.1857284801E-03   -0.2116975688E-03    0.3056233212E-03    0.2288187030E-04   -0.1034393345E-03   -0.4619918472E-03    0.4401386410E-03   -0.1395372511E-03    0.5224907124E-04   -0.1336344043E-04    0.2580887739E-04    0.5295921894E-04   -0.5538989004E-04   -0.2599895682E-04    0.2476762152E-04    0.5392074586E-04   -0.5597295972E-04    0.2695319022E-04   -0.1128189637E-04    0.1714224401E-03   -0.2230198993E-03
    0.0000000000E+00    0.2955000000E+01    0.2416998334E-02   -0.2499607124E-02    0.8000307555E-02   -0.1347576707E-01    0.6229940086E-02   -0.5085197753E-02   -0.1155991773E-01   -0.2849039790E-01   -0.2825326674E-03    0.4763301134E-02   -0.1917100988E-01    0.7236700126E-02    0.5185165465E-02    0.1772166410E-01    0.2465340583E-02   -0.1654164445E-02    0.3003893004E-02   -0.2716237993E-02    0.7381010439E-02   -0.4314181044E-02   -0.6748773108E-03   -0.1070416010E-02   -0.1222790295E-02    0.3085835288E-02   -0.1959200453E-02    0.2927896260E-03   -0.1358964437E-01    0.9394025392E-02   -0.1812874432E-03    0.7331969728E-03    0.7255129950E-03   -0.1270327690E-02    0.2088965955E-03    0.1903178703E-03    0.2361418627E-02   -0.2013231141E-02    0.1695976828E-02   -0.9499725411E-03    0.1216092687E-03   -0.1876539867E-03   -0.2107545386E-03    0.3086030768E-03    0.2222512747E-04   -0.1040147424E-03   -0.4610337143E-03    0.4454511900E-03   -0.1399740709E-03    0.5294371121E-04   -0.1336033195E-04    0.2631946167E-04    0.5285588673E-04   -0.5605642956E-04   -0.2590931133E-04    0.2501190941E-04    0.5383300727E-04   -0.5705472677E-04    0.2700496967E-04   -0.1118266050E-04    0.1712453718E-03   -0.2259456716E-03
    0.0000000000E+00    0.2960000000E+01    0.2429863193E-02   -0.2528876791E-02    0.7925389598E-02   -0.1347338324E-01    0.6195061880E-02   -0.5079184360E-02   -0.1181139542E-01   -0.2835015092E-01   -0.2153311673E-03    0.4761812792E-02   -0.1914338742E-01    0.7319019915E-02    0.5348515567E-02    0.1762392179E-01    0.2452253795E-02   -0.1676158002E-02    0.2987995125E-02   -0.2721209965E-02    0.7338010552E-02   -0.4358326650E-02   -0.6853230365E-03   -0.1066727502E-02   -0.1201365198E-02    0.3093939167E-02   -0.1962242569E-02    0.3066264258E-03   -0.1353479885E-01    0.9473192263E-02   -0.1763183419E-03    0.7366845531E-03    0.7186427390E-03   -0.1278975923E-02    0.2117072453E-03    0.1900995183E-03    0.2351256498E-02   -0.2032293481E-02    0.1697118870E-02   -0.9615353859E-03    0.1209300072E-03   -0.1895833201E-03   -0.2097926039E-03    0.3115985886E-03    0.2156190724E-04   -0.1045954690E-03   -0.4600486842E-03    0.4507761325E-03   -0.1404132782E-03    0.5365250069E-04   -0.1335881703E-04    0.2683411546E-04    0.5275110490E-04   -0.5672766353E-04   -0.2581797102E-04    0.2525641627E-04    0.5374826082E-04   -0.5814617623E-04    0.2705384499E-04   -0.1108159469E-04    0.1710624818E-03   -0.2288744068E-03
    0.0000000000E+00    0.2965000000E+01    0.2442523278E-02   -0.2558472385E-02    0.7850941230E-02   -0.1347095000E-01    0.6160782162E-02   -0.5073361501E-02   -0.1206095289E-01   -0.2820781057E-01   -0.1483377156E-03    0.4759933074E-02   -0.1911521328E-01    0.7400877167E-02    0.5510315667E-02    0.1752465834E-01    0.2438837616E-02   -0.1698088148E-02    0.2972337569E-02   -0.2726045334E-02    0.7294624150E-02   -0.4402164967E-02   -0.6956717332E-03   -0.1062917954E-02   -0.1179970244E-02    0.3101841617E-02   -0.1965135130E-02    0.3205279878E-03   -0.1347988421E-01    0.9551878245E-02   -0.1713175709E-03    0.7401496960E-03    0.7117096318E-03   -0.1287598248E-02    0.2145128649E-03    0.1898567001E-03    0.2340997566E-02   -0.2051328466E-02    0.1698184405E-02   -0.9731174927E-03    0.1202372929E-03   -0.1915163019E-03   -0.2088131941E-03    0.3146090843E-03    0.2089279825E-04   -0.1051816245E-03   -0.4590382354E-03    0.4561113922E-03   -0.1408551186E-03    0.5437423202E-04   -0.1335900909E-04    0.2735253320E-04    0.5264512439E-04   -0.5740320256E-04   -0.2572505085E-04    0.2550106649E-04    0.5366667313E-04   -0.5924653135E-04    0.2709980083E-04   -0.1097873086E-04    0.1708738577E-03   -0.2318047208E-03
    0.0000000000E+00    0.2970000000E+01    0.2454973509E-02   -0.2588391012E-02    0.7776958501E-02   -0.1346847338E-01    0.6127094525E-02   -0.5067730650E-02   -0.1230858077E-01   -0.2806340396E-01   -0.8156179216E-04    0.4757673117E-02   -0.1908649832E-01    0.7482257507E-02    0.5670572803E-02    0.1742389517E-01    0.2425101503E-02   -0.1719955559E-02    0.2956918860E-02   -0.2730741689E-02    0.7250870973E-02   -0.4445692718E-02   -0.7059249105E-03   -0.1058989456E-02   -0.1158608398E-02    0.3109543631E-02   -0.1967883002E-02    0.3344897595E-03   -0.1342491415E-01    0.9630055711E-02   -0.1662870780E-03    0.7435934663E-03    0.7047174039E-03   -0.1296194332E-02    0.2173131651E-03    0.1895907429E-03    0.2330648313E-02   -0.2070329085E-02    0.1699175836E-02   -0.9847129848E-03    0.1195319902E-03   -0.1934526495E-03   -0.2078176798E-03    0.3176336350E-03    0.2021840523E-04   -0.1057732661E-03   -0.4580036564E-03    0.4614547113E-03   -0.1412997148E-03    0.5510767768E-04   -0.1336100341E-04    0.2787439423E-04    0.5253814948E-04   -0.5808262754E-04   -0.2563064529E-04    0.2574574431E-04    0.5358835034E-04   -0.6035498767E-04    0.2714280347E-04   -0.1087407503E-04    0.1706794189E-03   -0.2347351010E-03
    0.0000000000E+00    0.2975000000E+01    0.2467208678E-02   -0.2618629667E-02    0.7703437631E-02   -0.1346595913E-01    0.6093992570E-02   -0.5062292894E-02   -0.1255426979E-01   -0.2791695890E-01   -0.1501341202E-04    0.4755043497E-02   -0.1905725206E-01    0.7563145632E-02    0.5829294205E-02    0.1732165506E-01    0.2411055178E-02   -0.1741760198E-02    0.2941736964E-02   -0.2735296678E-02    0.7206770372E-02   -0.4488905205E-02   -0.7160838988E-03   -0.1054944363E-02   -0.1137282702E-02    0.3117046094E-02   -0.1970490676E-02    0.3485066742E-03   -0.1336989944E-01    0.9707696271E-02   -0.1612289500E-03    0.7470167650E-03    0.6976698145E-03   -0.1304763497E-02    0.2201077066E-03    0.1893029795E-03    0.2320214556E-02   -0.2089287784E-02    0.1700094979E-02   -0.9963156757E-03    0.1188149401E-03   -0.1953919761E-03   -0.2068073514E-03    0.3206711564E-03    0.1953934434E-04   -0.1063703939E-03   -0.4569460224E-03    0.4668036610E-03   -0.1417470653E-03    0.5585160027E-04   -0.1336487230E-04    0.2839936018E-04    0.5243034523E-04   -0.5876549793E-04   -0.2553483849E-04    0.2599034184E-04    0.5351334965E-04   -0.6147076137E-04    0.2718280794E-04   -0.1076765580E-04    0.1704789555E-03   -0.2376640154E-03
    0.0000000000E+00    0.2980000000E+01    0.2479223455E-02   -0.2649185251E-02    0.7630374985E-02   -0.1346341264E-01    0.6061469847E-02   -0.5057048920E-02   -0.1279801070E-01   -0.2776850389E-01    0.5129693635E-04    0.4752054172E-02   -0.1902748254E-01    0.7643525498E-02    0.5986487119E-02    0.1721796215E-01    0.2396708552E-02   -0.1763501294E-02    0.2926789286E-02   -0.2739708070E-02    0.7162341156E-02   -0.4531796377E-02   -0.7261498254E-03   -0.1050785275E-02   -0.1115996254E-02    0.3124349772E-02   -0.1972962215E-02    0.3625732036E-03   -0.1331484783E-01    0.9784771114E-02   -0.1561453943E-03    0.7504203206E-03    0.6905706110E-03   -0.1313304724E-02    0.2228959000E-03    0.1889947341E-03    0.2309701387E-02   -0.2108196546E-02    0.1700943035E-02   -0.1007919140E-02    0.1180869497E-03   -0.1973337962E-03   -0.2057834041E-03    0.3237204232E-03    0.1885623652E-04   -0.1069729516E-03   -0.4558661775E-03    0.4721556752E-03   -0.1421970440E-03    0.5660476868E-04   -0.1337066648E-04    0.2892708326E-04    0.5232182674E-04   -0.5945134450E-04   -0.2543769558E-04    0.2623473280E-04    0.5344165365E-04   -0.6259302719E-04    0.2721974970E-04   -0.1065948814E-04    0.1702721030E-03   -0.2405898894E-03
    0.0000000000E+00    0.2985000000E+01    0.2491012385E-02   -0.2680054585E-02    0.7557767036E-02   -0.1346083893E-01    0.6029519829E-02   -0.5051999044E-02   -0.1303979422E-01   -0.2761806805E-01    0.1173583867E-03    0.4748714414E-02   -0.1899719631E-01    0.7723380511E-02    0.6142158665E-02    0.1711284195E-01    0.2382071634E-02   -0.1785177331E-02    0.2912072695E-02   -0.2743973819E-02    0.7117601437E-02   -0.4574358903E-02   -0.7361235937E-03   -0.1046515006E-02   -0.1094752181E-02    0.3131455311E-02   -0.1975301210E-02    0.3766834105E-03   -0.1325976406E-01    0.9861251355E-02   -0.1510387169E-03    0.7538046770E-03    0.6834234891E-03   -0.1321816655E-02    0.2256770095E-03    0.1886673036E-03    0.2299113132E-02   -0.2127046982E-02    0.1701720560E-02   -0.1019516787E-02    0.1173487807E-03   -0.1992775294E-03   -0.2047469234E-03    0.3267800785E-03    0.1816970151E-04   -0.1075808267E-03   -0.4547647229E-03    0.4775080727E-03   -0.1426494014E-03    0.5736596793E-04   -0.1337841284E-04    0.2945720625E-04    0.5221266075E-04   -0.6013968143E-04   -0.2533926361E-04    0.2647878190E-04    0.5337319139E-04   -0.6372098558E-04    0.2725356004E-04   -0.1054961912E-04    0.1700583604E-03   -0.2435111701E-03
    0.0000000000E+00    0.2990000000E+01    0.2502569892E-02   -0.2711234418E-02    0.7485610325E-02   -0.1345824267E-01    0.5998135871E-02   -0.5047143216E-02   -0.1327961094E-01   -0.2746568104E-01    0.1831597677E-03    0.4745032772E-02   -0.1896639832E-01    0.7802693729E-02    0.6296315671E-02    0.1700632120E-01    0.2367154451E-02   -0.1806786048E-02    0.2897583537E-02   -0.2748092120E-02    0.7072568491E-02   -0.4616584269E-02   -0.7460058652E-03   -0.1042136556E-02   -0.1073553626E-02    0.3138363230E-02   -0.1977510735E-02    0.3908310076E-03   -0.1320464978E-01    0.9937108387E-02   -0.1459113004E-03    0.7571701849E-03    0.6762320545E-03   -0.1330297606E-02    0.2284501573E-03    0.1883219423E-03    0.2288453314E-02   -0.2145830419E-02    0.1702427447E-02   -0.1031101936E-02    0.1166011396E-03   -0.2012225067E-03   -0.2036988717E-03    0.3298486467E-03    0.1748035193E-04   -0.1081938504E-03   -0.4536420024E-03    0.4828580885E-03   -0.1431037674E-03    0.5813401615E-04   -0.1338811325E-04    0.2998936351E-04    0.5210286851E-04   -0.6083003230E-04   -0.2523957007E-04    0.2672234356E-04    0.5330781985E-04   -0.6485381238E-04    0.2728414895E-04   -0.1043807987E-04    0.1698370487E-03   -0.2464262666E-03
    0.0000000000E+00    0.2995000000E+01    0.2513890285E-02   -0.2742721447E-02    0.7413901432E-02   -0.1345562811E-01    0.5967311171E-02   -0.5042481051E-02   -0.1351745134E-01   -0.2731137307E-01    0.2486896949E-03    0.4741017034E-02   -0.1893509197E-01    0.7881448062E-02    0.6448964524E-02    0.1689842793E-01    0.2351966959E-02   -0.1828324448E-02    0.2883317669E-02   -0.2752061458E-02    0.7027258629E-02   -0.4658462882E-02   -0.7557970453E-03   -0.1037653077E-02   -0.1052403719E-02    0.3145073921E-02   -0.1979593321E-02    0.4050094220E-03   -0.1314950365E-01    0.1001231422E-01   -0.1407655815E-03    0.7605169947E-03    0.6689997858E-03   -0.1338745579E-02    0.2312143298E-03    0.1879598455E-03    0.2277724624E-02   -0.2164537995E-02    0.1703062922E-02   -0.1042667896E-02    0.1158446678E-03   -0.2031679768E-03   -0.2026400742E-03    0.3329245489E-03    0.1678878759E-04   -0.1088117980E-03   -0.4524980955E-03    0.4882029008E-03   -0.1435596555E-03    0.5890777437E-04   -0.1339974419E-04    0.3052319008E-04    0.5199241427E-04   -0.6152189098E-04   -0.2513862426E-04    0.2696527326E-04    0.5324533746E-04   -0.6599071120E-04    0.2731142011E-04   -0.1032492452E-04    0.1696073265E-03   -0.2493336054E-03
    0.0000000000E+00    0.3000000000E+01    0.2524967753E-02   -0.2774512332E-02    0.7342636927E-02   -0.1345299913E-01    0.5937038752E-02   -0.5038011854E-02   -0.1375330568E-01   -0.2715517475E-01    0.3139366631E-03    0.4736674193E-02   -0.1890327907E-01    0.7959626473E-02    0.6600111036E-02    0.1678919125E-01    0.2336518960E-02   -0.1849788813E-02    0.2869270494E-02   -0.2755880665E-02    0.6981687084E-02   -0.4699984199E-02   -0.7654972711E-03   -0.1033067846E-02   -0.1031305559E-02    0.3151587652E-02   -0.1981550924E-02    0.4192118611E-03   -0.1309432141E-01    0.1008684182E-01   -0.1356040280E-03    0.7638450543E-03    0.6617300001E-03   -0.1347158283E-02    0.2339683859E-03    0.1875821356E-03    0.2266928913E-02   -0.2183160752E-02    0.1703625541E-02   -0.1054208043E-02    0.1150799327E-03   -0.2051131154E-03   -0.2015712096E-03    0.3360061177E-03    0.1609558962E-04   -0.1094343924E-03   -0.4513328115E-03    0.4935396591E-03   -0.1440164689E-03    0.5968616167E-04   -0.1341325261E-04    0.3105830871E-04    0.5188121230E-04   -0.6221475735E-04   -0.2503641408E-04    0.2720741819E-04    0.5318548497E-04   -0.6713091854E-04    0.2733526375E-04   -0.1021020806E-04    0.1693682121E-03   -0.2522316875E-03
