    0.0000000000E+00    0.2755000000E+01    0.2108251167E-02   -0.5716070415E-02   -0.1559489857E-01    0.1190435125E-01    0.3802200084E-01   -0.2398416231E-01    0.1457793497E-02    0.6324922740E-02   -0.3388409804E-01    0.1217891945E-01    0.2199137965E-01    0.8606113710E-02   -0.6816501224E-02    0.2770186122E-01    0.4772489118E-02   -0.1521599384E-02   -0.1362199690E-02    0.8980516119E-04    0.4119089028E-02   -0.3077031824E-04    0.1138999844E-02    0.8508055685E-03   -0.1401759073E-02   -0.1333952770E-02    0.2257597466E-02   -0.2165783129E-03   -0.6488714811E-02   -0.2604268606E-02   -0.4263985458E-03   -0.3959316116E-03    0.4013440909E-03    0.5255886324E-03   -0.7261509980E-03   -0.3111799413E-03    0.7289565003E-03    0.7715900481E-03   -0.3082160419E-02   -0.2264071340E-04    0.5226864884E-04    0.9381377451E-04   -0.4665537525E-04   -0.1126084280E-03    0.9374662346E-04    0.8103590720E-04   -0.3100851689E-04   -0.1463964573E-03    0.3134539890E-03    0.1641721284E-03    0.1049085304E-04   -0.1134500335E-04   -0.3251779383E-05    0.1851656048E-04   -0.2366827731E-04   -0.1306357985E-04    0.1341204906E-04    0.2815608847E-05    0.2860033508E-05   -0.2126024589E-04    0.3757350445E-04    0.6264256957E-04
    0.0000000000E+00    0.2760000000E+01    0.1993509548E-02   -0.5731883329E-02   -0.1545398403E-01    0.1185224174E-01    0.3766023960E-01   -0.2421940789E-01    0.1475160589E-02    0.6325367311E-02   -0.3380514726E-01    0.1240961954E-01    0.2200641796E-01    0.8461036796E-02   -0.6676600671E-02    0.2763161481E-01    0.4777475087E-02   -0.1580607603E-02   -0.1381504901E-02    0.1217950960E-03    0.4128456089E-02   -0.9174147933E-04    0.1146338279E-02    0.8607186001E-03   -0.1408809877E-02   -0.1340088128E-02    0.2262744360E-02   -0.2074930141E-03   -0.6490951995E-02   -0.2588372328E-02   -0.4305581889E-03   -0.3994389452E-03    0.4055975738E-03    0.5290541307E-03   -0.7317375607E-03   -0.3139987307E-03    0.7333540911E-03    0.7739530424E-03   -0.3093389368E-02   -0.2596954568E-04    0.5327024768E-04    0.9484348891E-04   -0.4743623708E-04   -0.1137857065E-03    0.9475395708E-04    0.8227110214E-04   -0.3190144862E-04   -0.1475084976E-03    0.3157006284E-03    0.1648959248E-03    0.1048680218E-04   -0.1160102045E-04   -0.3096560357E-05    0.1858805201E-04   -0.2380510873E-04   -0.1322146542E-04    0.1355847253E-04    0.3126192540E-05    0.2608421368E-05   -0.2153424753E-04    0.3757750237E-04    0.6275847368E-04
    0.0000000000E+00    0.2765000000E+01    0.1879059965E-02   -0.5746459662E-02   -0.1531495163E-01    0.1179970987E-01    0.3729807242E-01   -0.2445053433E-01    0.1492685152E-02    0.6325390218E-02   -0.3372465443E-01    0.1263922196E-01    0.2202003061E-01    0.8316628338E-02   -0.6537393726E-02    0.2756121214E-01    0.4782354696E-02   -0.1639665140E-02   -0.1400767957E-02    0.1538133212E-03    0.4137829685E-02   -0.1525494361E-03    0.1153646819E-02    0.8706382066E-03   -0.1415792961E-02   -0.1346224143E-02    0.2267851333E-02   -0.1984015738E-03   -0.6492843088E-02   -0.2572379156E-02   -0.4347241268E-03   -0.4029642490E-03    0.4098513704E-03    0.5325283308E-03   -0.7373410842E-03   -0.3168405105E-03    0.7377268034E-03    0.7763238013E-03   -0.3104557908E-02   -0.2936628538E-04    0.5427112569E-04    0.9588798040E-04   -0.4821387907E-04   -0.1149723893E-03    0.9576434268E-04    0.8351425448E-04   -0.3278462192E-04   -0.1486222427E-03    0.3179453151E-03    0.1656555676E-03    0.1047985210E-04   -0.1185695450E-04   -0.2940413500E-05    0.1866317576E-04   -0.2393962489E-04   -0.1338465881E-04    0.1370380758E-04    0.3440892878E-05    0.2352995094E-05   -0.2180441083E-04    0.3757504773E-04    0.6286811597E-04
    0.0000000000E+00    0.2770000000E+01    0.1764919192E-02   -0.5759803752E-02   -0.1517778829E-01    0.1174676922E-01    0.3693556750E-01   -0.2467755564E-01    0.1510350674E-02    0.6324974916E-02   -0.3364263905E-01    0.1286768906E-01    0.2203220453E-01    0.8172888073E-02   -0.6398885150E-02    0.2749063118E-01    0.4787129308E-02   -0.1698757278E-02   -0.1419984619E-02    0.1858528125E-03    0.4147204438E-02   -0.2131865974E-03    0.1160920523E-02    0.8805651165E-03   -0.1422702355E-02   -0.1352360516E-02    0.2272915050E-02   -0.1892988925E-03   -0.6494372132E-02   -0.2556280221E-02   -0.4388925875E-03   -0.4065073252E-03    0.4141015499E-03    0.5360104349E-03   -0.7429569508E-03   -0.3197071297E-03    0.7420692967E-03    0.7786992605E-03   -0.3115653120E-02   -0.3283489776E-04    0.5527005862E-04    0.9694636508E-04   -0.4898736470E-04   -0.1161674950E-03    0.9677660208E-04    0.8476490924E-04   -0.3365744473E-04   -0.1497362557E-03    0.3201847360E-03    0.1664501857E-03    0.1047003454E-04   -0.1211262081E-04   -0.2783396812E-05    0.1874176067E-04   -0.2407158995E-04   -0.1355286489E-04    0.1384780196E-04    0.3759531524E-05    0.2093752297E-05   -0.2207075355E-04    0.3756627334E-04    0.6297071669E-04
    0.0000000000E+00    0.2775000000E+01    0.1651103599E-02   -0.5771919428E-02   -0.1504247954E-01    0.1169343355E-01    0.3657279150E-01   -0.2490048279E-01    0.1528142986E-02    0.6324104803E-02   -0.3355911755E-01    0.1309498252E-01    0.2204292795E-01    0.8029813630E-02   -0.6261076988E-02    0.2741984999E-01    0.4791798991E-02   -0.1757868816E-02   -0.1439150111E-02    0.2179065530E-03    0.4156574350E-02   -0.2736454927E-03    0.1168154349E-02    0.8904993901E-03   -0.1429532149E-02   -0.1358496165E-02    0.2277931522E-02   -0.1801804440E-03   -0.6495524599E-02   -0.2540064571E-02   -0.4430597908E-03   -0.4100675086E-03    0.4183442722E-03    0.5394991640E-03   -0.7485803265E-03   -0.3225998717E-03    0.7463766478E-03    0.7810757315E-03   -0.3126661641E-02   -0.3637763083E-04    0.5626591350E-04    0.9801762456E-04   -0.4975585452E-04   -0.1173699289E-03    0.9778960450E-04    0.8602245399E-04   -0.3451948196E-04   -0.1508490155E-03    0.3224156879E-03    0.1672785471E-03    0.1045734741E-04   -0.1236783102E-04   -0.2625544518E-05    0.1882363496E-04   -0.2420079485E-04   -0.1372576080E-04    0.1399022059E-04    0.4081904897E-05    0.1830667315E-05   -0.2233328235E-04    0.3755140455E-04    0.6306548962E-04
    0.0000000000E+00    0.2780000000E+01    0.1537629091E-02   -0.5782810054E-02   -0.1490900963E-01    0.1163971697E-01    0.3620980922E-01   -0.2511932384E-01    0.1546050261E-02    0.6322763479E-02   -0.3347410323E-01    0.1332106374E-01    0.2205219055E-01    0.7887400704E-02   -0.6123968607E-02    0.2734884702E-01    0.4796362467E-02   -0.1816984231E-02   -0.1458259115E-02    0.2499676042E-03    0.4165932809E-02   -0.3339188456E-03    0.1175343242E-02    0.9004404128E-03   -0.1436276602E-02   -0.1364629240E-02    0.2282896192E-02   -0.1710423529E-03   -0.6496287634E-02   -0.2523719384E-02   -0.4472220078E-03   -0.4136436684E-03    0.4225758477E-03    0.5429927729E-03   -0.7542062340E-03   -0.3255194320E-03    0.7506444240E-03    0.7834489593E-03   -0.3137569898E-02   -0.3999497119E-04    0.5725766491E-04    0.9910061602E-04   -0.5051862003E-04   -0.1185784945E-03    0.9880228663E-04    0.8728612483E-04   -0.3537046532E-04   -0.1519589342E-03    0.3246351217E-03    0.1681390715E-03    0.1044175408E-04   -0.1262239735E-04   -0.2466868646E-05    0.1890862971E-04   -0.2432706252E-04   -0.1390300059E-04    0.1413084934E-04    0.4407789096E-05    0.1563688925E-05   -0.2259199181E-04    0.3753076501E-04    0.6315165625E-04
    0.0000000000E+00    0.2785000000E+01    0.1424511043E-02   -0.5792478575E-02   -0.1477736161E-01    0.1158563406E-01    0.3584668320E-01   -0.2533408423E-01    0.1564062957E-02    0.6320934992E-02   -0.3338760625E-01    0.1354589421E-01    0.2205998378E-01    0.7745643238E-02   -0.5987556783E-02    0.2727760140E-01    0.4800817079E-02   -0.1876087845E-02   -0.1477305781E-02    0.2820291835E-03    0.4175272600E-02   -0.3939996591E-03    0.1182482217E-02    0.9103868993E-03   -0.1442930225E-02   -0.1370757152E-02    0.2287804028E-02   -0.1618814571E-03   -0.6496650266E-02   -0.2507230209E-02   -0.4513756183E-03   -0.4172342160E-03    0.4267927943E-03    0.5464890721E-03   -0.7598296261E-03   -0.3284659046E-03    0.7548687475E-03    0.7858141884E-03   -0.3148364333E-02   -0.4368562972E-04    0.5824440944E-04    0.1001940845E-03   -0.5127505704E-04   -0.1197919078E-03    0.9981367279E-04    0.8855501566E-04   -0.3621030539E-04   -0.1530643833E-03    0.3268401850E-03    0.1690298505E-03    0.1042318441E-04   -0.1287613756E-04   -0.2307357087E-05    0.1899658171E-04   -0.2445024933E-04   -0.1408421685E-04    0.1426949572E-04    0.4736940176E-05    0.1292741452E-05   -0.2284687188E-04    0.3750476974E-04    0.6322845823E-04
    0.0000000000E+00    0.2790000000E+01    0.1311764252E-02   -0.5800927574E-02   -0.1464751747E-01    0.1153119997E-01    0.3548347349E-01   -0.2554476691E-01    0.1582173750E-02    0.6318604080E-02   -0.3329963366E-01    0.1376943592E-01    0.2206630098E-01    0.7604533643E-02   -0.5851835819E-02    0.2720609328E-01    0.4805158785E-02   -0.1935163986E-02   -0.1496283747E-02    0.3140847392E-03    0.4184585933E-02   -0.4538812931E-03    0.1189566443E-02    0.9203369100E-03   -0.1449487876E-02   -0.1376876617E-02    0.2292649623E-02   -0.1526953592E-03   -0.6496603572E-02   -0.2490581229E-02   -0.4555171687E-03   -0.4208371210E-03    0.4309918915E-03    0.5499854575E-03   -0.7654454615E-03   -0.3314387776E-03    0.7590463526E-03    0.7881662378E-03   -0.3159031642E-02   -0.4744655718E-04    0.5922537948E-04    0.1012966770E-03   -0.5202469587E-04   -0.1210088096E-03    0.1008228924E-03    0.8982808798E-04   -0.3703909261E-04   -0.1541637039E-03    0.3290282615E-03    0.1699486680E-03    0.1040153518E-04   -0.1312887951E-04   -0.2146979330E-05    0.1908733556E-04   -0.2457024834E-04   -0.1426902835E-04    0.1440599636E-04    0.5069101750E-05    0.1017733857E-05   -0.2309790197E-04    0.3747394988E-04    0.6329517336E-04
    0.0000000000E+00    0.2795000000E+01    0.1199402893E-02   -0.5808159331E-02   -0.1451945825E-01    0.1147643053E-01    0.3512023733E-01   -0.2575137272E-01    0.1600377439E-02    0.6315756394E-02   -0.3321018949E-01    0.1399165169E-01    0.2207113753E-01    0.7464063041E-02   -0.5716797682E-02    0.2713430406E-01    0.4809382167E-02   -0.1994197169E-02   -0.1515186173E-02    0.3461280212E-03    0.4193864482E-02   -0.5135575378E-03    0.1196591328E-02    0.9302878775E-03   -0.1455944837E-02   -0.1382983710E-02    0.2297427297E-02   -0.1434824637E-03   -0.6496140813E-02   -0.2473755545E-02   -0.4596434250E-03   -0.4244499347E-03    0.4351702295E-03    0.5534789460E-03   -0.7710487794E-03   -0.3344369378E-03    0.7631746290E-03    0.7904995800E-03   -0.3169558997E-02   -0.5127298572E-04    0.6019995483E-04    0.1024069585E-03   -0.5276721147E-04   -0.1222277847E-03    0.1018291985E-03    0.9110418614E-04   -0.3785710483E-04   -0.1552552402E-03    0.3311970093E-03    0.1708930337E-03    0.1037666998E-04   -0.1338046595E-04   -0.1985680466E-05    0.1918074577E-04   -0.2468699261E-04   -0.1445703720E-04    0.1454021202E-04    0.5404005305E-05    0.7385312516E-06   -0.2334507678E-04    0.3743889115E-04    0.6335111929E-04
    0.0000000000E+00    0.2800000000E+01    0.1087440492E-02   -0.5814175884E-02   -0.1439316421E-01    0.1142134236E-01    0.3475702892E-01   -0.2595390058E-01    0.1618670824E-02    0.6312378704E-02   -0.3311927485E-01    0.1421250554E-01    0.2207449103E-01    0.7324221525E-02   -0.5582432171E-02    0.2706221670E-01    0.4813480466E-02   -0.2053172257E-02   -0.1534005793E-02    0.3781531577E-03    0.4203099435E-02   -0.5730226899E-03    0.1203552588E-02    0.9402366447E-03   -0.1462296884E-02   -0.1389073928E-02    0.2302131203E-02   -0.1342420014E-03   -0.6495257501E-02   -0.2456735477E-02   -0.4637514248E-03   -0.4280698189E-03    0.4393252527E-03    0.5569662183E-03   -0.7766347736E-03   -0.3374586850E-03    0.7672516560E-03    0.7928084292E-03   -0.3179934270E-02   -0.5515850018E-04    0.6116767256E-04    0.1035234290E-03   -0.5350243020E-04   -0.1234473787E-03    0.1028319815E-03    0.9238205220E-04   -0.3866480621E-04   -0.1563373574E-03    0.3333443941E-03    0.1718602115E-03    0.1034842640E-04   -0.1363076036E-04   -0.1823389386E-05    0.1927668052E-04   -0.2480045707E-04   -0.1464784310E-04    0.1467203335E-04    0.5741372122E-05    0.4549852838E-06   -0.2358839043E-04    0.3740028667E-04    0.6339568086E-04
    0.0000000000E+00    0.2805000000E+01    0.9758899073E-03   -0.5818979101E-02   -0.1426861489E-01    0.1136595291E-01    0.3439389921E-01   -0.2615234787E-01    0.1637052581E-02    0.6308459089E-02   -0.3302688811E-01    0.1443196306E-01    0.2207636136E-01    0.7184998442E-02   -0.5448727089E-02    0.2698981592E-01    0.4817445647E-02   -0.2112074629E-02   -0.1552734978E-02    0.4101547230E-03    0.4212281558E-02   -0.6322716138E-03    0.1210446315E-02    0.9501795140E-03   -0.1468540338E-02   -0.1395142267E-02    0.2306755428E-02   -0.1249740416E-03   -0.6493951427E-02   -0.2439502872E-02   -0.4678385222E-03   -0.4316935833E-03    0.4434547969E-03    0.5604436680E-03   -0.7821988635E-03   -0.3405017544E-03    0.7712762213E-03    0.7950868311E-03   -0.3190146250E-02   -0.5909513198E-04    0.6212823449E-04    0.1046445429E-03   -0.5423033427E-04   -0.1246661172E-03    0.1038307835E-03    0.9366034387E-04   -0.3946284369E-04   -0.1574084657E-03    0.3354687197E-03    0.1728472584E-03    0.1031661216E-04   -0.1387964990E-04   -0.1660018451E-05    0.1937502217E-04   -0.2491065496E-04   -0.1484103925E-04    0.1480137821E-04    0.6080923708E-05    0.1669212922E-06   -0.2382785011E-04    0.3735889868E-04    0.6342831467E-04
    0.0000000000E+00    0.2810000000E+01    0.8647633325E-03   -0.5822570743E-02   -0.1414578931E-01    0.1131028061E-01    0.3403089578E-01   -0.2634671072E-01    0.1655523110E-02    0.6303987094E-02   -0.3293302507E-01    0.1464999162E-01    0.2207675072E-01    0.7046382697E-02   -0.5315668439E-02    0.2691708846E-01    0.4821268481E-02   -0.2170890335E-02   -0.1571365825E-02    0.4421278051E-03    0.4221401274E-02   -0.6912997970E-03    0.1217269023E-02    0.9601123041E-03   -0.1474672104E-02   -0.1401183304E-02    0.2311294093E-02   -0.1156794936E-03   -0.6492222609E-02   -0.2422039414E-02   -0.4719024275E-03   -0.4353177268E-03    0.4475571162E-03    0.5639074548E-03   -0.7877367603E-03   -0.3435633478E-03    0.7752478235E-03    0.7973287556E-03   -0.3200184834E-02   -0.6307347450E-04    0.6308151208E-04    0.1057687278E-03   -0.5495106333E-04   -0.1258825261E-03    0.1048253088E-03    0.9493765506E-04   -0.4025204048E-04   -0.1584670421E-03    0.3375686538E-03    0.1738510639E-03    0.1028101455E-04   -0.1412705174E-04   -0.1495464006E-05    0.1947566847E-04   -0.2501764744E-04   -0.1503622082E-04    0.1492819425E-04    0.6422380457E-05   -0.1258617058E-06   -0.2406348816E-04    0.3731555135E-04    0.6344855005E-04
    0.0000000000E+00    0.2815000000E+01    0.7540723297E-03   -0.5824952525E-02   -0.1402466605E-01    0.1125434495E-01    0.3366806269E-01   -0.2653698432E-01    0.1674084411E-02    0.6298953868E-02   -0.3283767920E-01    0.1486656073E-01    0.2207566365E-01    0.6908363076E-02   -0.5183240577E-02    0.2684402328E-01    0.4824938676E-02   -0.2229606249E-02   -0.1589890285E-02    0.4740680705E-03    0.4230448764E-02   -0.7501033895E-03    0.1224017688E-02    0.9700304176E-03   -0.1480689676E-02   -0.1407191292E-02    0.2315741443E-02   -0.1063600987E-03   -0.6490073148E-02   -0.2404326932E-02   -0.4759412376E-03   -0.4389384862E-03    0.4516309001E-03    0.5673535639E-03   -0.7932445279E-03   -0.3466401710E-03    0.7791666551E-03    0.7995281913E-03   -0.3210041221E-02   -0.6708281203E-04    0.6402754831E-04    0.1068944056E-03   -0.5566491253E-04   -0.1270951531E-03    0.1058154309E-03    0.9621253581E-04   -0.4103338521E-04   -0.1595116515E-03    0.3396432495E-03    0.1748683870E-03    0.1024140122E-04   -0.1437291716E-04   -0.1329611240E-05    0.1957853392E-04   -0.2512153418E-04   -0.1523298906E-04    0.1505245554E-04    0.6765470709E-05   -0.4235769424E-06   -0.2429534866E-04    0.3727111713E-04    0.6345601747E-04
    0.0000000000E+00    0.2820000000E+01    0.6438278975E-03   -0.5826126172E-02   -0.1390522333E-01    0.1119816662E-01    0.3330544044E-01   -0.2672316319E-01    0.1692739945E-02    0.6293352257E-02   -0.3274084188E-01    0.1508164218E-01    0.2207310703E-01    0.6770928611E-02   -0.5051426348E-02    0.2677061182E-01    0.4828445037E-02   -0.2288210200E-02   -0.1608300335E-02    0.5059718299E-03    0.4239414093E-02   -0.8086792212E-03    0.1230689745E-02    0.9799289161E-03   -0.1486591102E-02   -0.1413160263E-02    0.2320091918E-02   -0.9701842008E-04   -0.6487506948E-02   -0.2386347700E-02   -0.4799534546E-03   -0.4425518879E-03    0.4556752716E-03    0.5707778704E-03   -0.7987186339E-03   -0.3497284778E-03    0.7830335572E-03    0.8016792390E-03   -0.3219708083E-02   -0.7111125132E-04    0.6496655579E-04    0.1080200118E-03   -0.5637232608E-04   -0.1283025886E-03    0.1068011977E-03    0.9748351526E-04   -0.4180801644E-04   -0.1605409648E-03    0.3416919645E-03    0.1758958975E-03    0.1019752687E-04   -0.1461723591E-04   -0.1162335101E-05    0.1968354767E-04   -0.2522245832E-04   -0.1543095273E-04    0.1517416094E-04    0.7109936527E-05   -0.7264591314E-06   -0.2452351826E-04    0.3722651488E-04    0.6345046726E-04
    0.0000000000E+00    0.2825000000E+01    0.5340406213E-03   -0.5826093452E-02   -0.1378743903E-01    0.1114176785E-01    0.3294306594E-01   -0.2690524139E-01    0.1711494585E-02    0.6287176862E-02   -0.3264250263E-01    0.1529521024E-01    0.2206908996E-01    0.6634069002E-02   -0.4920207097E-02    0.2669684825E-01    0.4831775718E-02   -0.2346691097E-02   -0.1626588257E-02    0.5378361118E-03    0.4248287379E-02   -0.8670247809E-03    0.1237283046E-02    0.9898026039E-03   -0.1492374875E-02   -0.1419084140E-02    0.2324340200E-02   -0.8765784217E-04   -0.6484529210E-02   -0.2368084713E-02   -0.4839379857E-03   -0.4461538036E-03    0.4596897623E-03    0.5741762074E-03   -0.8041559885E-03   -0.3528241137E-03    0.7868499321E-03    0.8037762007E-03   -0.3229179739E-02   -0.7514583105E-04    0.6589891074E-04    0.1091440142E-03   -0.5707388480E-04   -0.1295034892E-03    0.1077828311E-03    0.9874912297E-04   -0.4257720127E-04   -0.1615537717E-03    0.3437146786E-03    0.1769302030E-03    0.1014914001E-04   -0.1486004611E-04   -0.9935026686E-06    0.1979065040E-04   -0.2532060446E-04   -0.1562972877E-04    0.1529332875E-04    0.7455543366E-05   -0.1034747614E-05   -0.2474811460E-04    0.3718265577E-04    0.6343173572E-04
    0.0000000000E+00    0.2830000000E+01    0.4247209700E-03   -0.5824856169E-02   -0.1367129068E-01    0.1108517292E-01    0.3258097258E-01   -0.2708321260E-01    0.1730354686E-02    0.6280424006E-02   -0.3254264940E-01    0.1550724164E-01    0.2206362355E-01    0.6497775191E-02   -0.4789562416E-02    0.2662272998E-01    0.4834918596E-02   -0.2405039016E-02   -0.1644747132E-02    0.5696587629E-03    0.4257059050E-02   -0.9251381248E-03    0.1243795712E-02    0.9996461211E-03   -0.1498039682E-02   -0.1424956880E-02    0.2328481195E-02   -0.7828260181E-04   -0.6481145451E-02   -0.2349521932E-02   -0.4878941093E-03   -0.4497400078E-03    0.4636742376E-03    0.5775444447E-03   -0.8095539616E-03   -0.3559225547E-03    0.7906175759E-03    0.8058136658E-03   -0.3238452348E-02   -0.7917256386E-04    0.6682513994E-04    0.1102649283E-03   -0.5777028327E-04   -0.1306966018E-03    0.1087607218E-03    0.1000079102E-03   -0.4334230427E-04   -0.1625489864E-03    0.3457117185E-03    0.1779678608E-03    0.1009599209E-04   -0.1510144279E-04   -0.8229743966E-06    0.1989978531E-04   -0.2541619942E-04   -0.1582893691E-04    0.1540998800E-04    0.7802095219E-05   -0.1348681409E-05   -0.2496930997E-04    0.3714044854E-04    0.6339984191E-04
    0.0000000000E+00    0.2835000000E+01    0.3158799553E-03   -0.5822416051E-02   -0.1355675498E-01    0.1102840946E-01    0.3221919035E-01   -0.2725706970E-01    0.1749328518E-02    0.6273091569E-02   -0.3244126869E-01    0.1571771540E-01    0.2205672066E-01    0.6362040276E-02   -0.4659469275E-02    0.2654825851E-01    0.4837861971E-02   -0.2463245267E-02   -0.1662771823E-02    0.6014386290E-03    0.4265720303E-02   -0.9830176339E-03    0.1250225762E-02    0.1009454054E-02   -0.1503583813E-02   -0.1430772648E-02    0.2332509891E-02   -0.6889791802E-04   -0.6477359488E-02   -0.2330644475E-02   -0.4918213730E-03   -0.4533062354E-03    0.4676287194E-03    0.5808785809E-03   -0.8149103591E-03   -0.3590189217E-03    0.7943383388E-03    0.8077865840E-03   -0.3247524180E-02   -0.8317628523E-04    0.6774589621E-04    0.1113813242E-03   -0.5846228630E-04   -0.1318807940E-03    0.1097354159E-03    0.1012584676E-03   -0.4410473729E-04   -0.1635256336E-03    0.3476839066E-03    0.1790053428E-03    0.1003785223E-04   -0.1534160146E-04   -0.6506026338E-06    0.2001087838E-04   -0.2550951695E-04   -0.1602818297E-04    0.1552415988E-04    0.8149463001E-05   -0.1668491918E-05   -0.2518736489E-04    0.3710071065E-04    0.6335496661E-04
    0.0000000000E+00    0.2840000000E+01    0.2075307558E-03   -0.5818774359E-02   -0.1344380677E-01    0.1097151171E-01    0.3185774627E-01   -0.2742680328E-01    0.1768427669E-02    0.6265178455E-02   -0.3233834558E-01    0.1592661206E-01    0.2204839512E-01    0.6226861424E-02   -0.4529899372E-02    0.2647344159E-01    0.4840596090E-02   -0.2521302372E-02   -0.1680661354E-02    0.6331759727E-03    0.4274264102E-02   -0.1040661365E-02    0.1256570147E-02    0.1019221084E-02   -0.1509003676E-02   -0.1436526139E-02    0.2336420860E-02   -0.5951041208E-04   -0.6473168555E-02   -0.2311438676E-02   -0.4957193097E-03   -0.4568482314E-03    0.4715529369E-03    0.5841748818E-03   -0.8202232981E-03   -0.3621079154E-03    0.7980133247E-03    0.8096903206E-03   -0.3256396177E-02   -0.8713994830E-04    0.6866190619E-04    0.1124918119E-03   -0.5915063253E-04   -0.1330551011E-03    0.1107075821E-03    0.1024994328E-03   -0.4486586094E-04   -0.1644827886E-03    0.3496326893E-03    0.1800388647E-03    0.9974537302E-05   -0.1558083121E-04   -0.4762234184E-06    0.2012378547E-04   -0.2560089248E-04   -0.1622700844E-04    0.1563581468E-04    0.8497652372E-05   -0.1994352192E-05   -0.2540266692E-04    0.3706405067E-04    0.6329758396E-04
    0.0000000000E+00    0.2845000000E+01    0.9969359664E-04   -0.5813930571E-02   -0.1333241534E-01    0.1091453046E-01    0.3149666518E-01   -0.2759239640E-01    0.1787671788E-02    0.6256682919E-02   -0.3223386289E-01    0.1613391106E-01    0.2203865989E-01    0.6092245139E-02   -0.4400810523E-02    0.2639829975E-01    0.4843117482E-02   -0.2579203841E-02   -0.1698425916E-02    0.6648737154E-03    0.4282688021E-02   -0.1098065068E-02    0.1262821784E-02    0.1028942259E-02   -0.1514289291E-02   -0.1442213324E-02    0.2340206610E-02   -0.5012952849E-04   -0.6468548886E-02   -0.2291891768E-02   -0.4995865681E-03   -0.4603617761E-03    0.4754449804E-03    0.5874301650E-03   -0.8254907652E-03   -0.3651834759E-03    0.8016405660E-03    0.8115206548E-03   -0.3265073532E-02   -0.9104202957E-04    0.6957383203E-04    0.1135949556E-03   -0.5983576587E-04   -0.1342188307E-03    0.1116779263E-03    0.1037294674E-03   -0.4562672856E-04   -0.1654193661E-03    0.3515605498E-03    0.1810637799E-03    0.9905990523E-05   -0.1581973697E-04   -0.2996251835E-06    0.2023813663E-04   -0.2569077857E-04   -0.1642473152E-04    0.1574474700E-04    0.8847001186E-05   -0.2326305932E-05   -0.2561594005E-04    0.3703052565E-04    0.6322878712E-04
    0.0000000000E+00    0.2850000000E+01   -0.7584511390E-05   -0.5807876809E-02   -0.1322252909E-01    0.1085757389E-01    0.3113597314E-01   -0.2775380199E-01    0.1807108503E-02    0.6247595728E-02   -0.3212779691E-01    0.1633957992E-01    0.2202751982E-01    0.5958228004E-02   -0.4272110825E-02    0.2632289289E-01    0.4845446061E-02   -0.2636943063E-02   -0.1716115160E-02    0.6965425049E-03    0.4291005453E-02   -0.1155214147E-02    0.1268957490E-02    0.1038613832E-02   -0.1519406066E-02   -0.1447834211E-02    0.2343850681E-02   -0.4077356513E-04   -0.6463397699E-02   -0.2271989964E-02   -0.5034173858E-03   -0.4638425924E-03    0.4792958782E-03    0.5906427703E-03   -0.8307087564E-03   -0.3682371674E-03    0.8052057523E-03    0.8132735549E-03   -0.3273572040E-02   -0.9484527225E-04    0.7048174731E-04    0.1146888674E-03   -0.6051678694E-04   -0.1353719436E-03    0.1126468699E-03    0.1049470928E-03   -0.4638711352E-04   -0.1663332265E-03    0.3534727432E-03    0.1820719575E-03    0.9832589674E-05   -0.1605987727E-04   -0.1204114343E-06    0.2035269827E-04   -0.2577997824E-04   -0.1661978373E-04    0.1585007101E-04    0.9198976897E-05   -0.2663893510E-05   -0.2582896643E-04    0.3699816869E-04    0.6315152253E-04
    0.0000000000E+00    0.2855000000E+01   -0.1140862964E-03   -0.5800556901E-02   -0.1311396352E-01    0.1080110503E-01    0.3077572031E-01   -0.2791077664E-01    0.1826959970E-02    0.6237850526E-02   -0.3202008401E-01    0.1654349526E-01    0.2201492039E-01    0.5825026469E-02   -0.4143395801E-02    0.2624751431E-01    0.4847748592E-02   -0.2694504954E-02   -0.1734023635E-02    0.7282376816E-03    0.4299326679E-02   -0.1212025264E-02    0.1274850224E-02    0.1048238829E-02   -0.1524162238E-02   -0.1453412391E-02    0.2347277094E-02   -0.3151414944E-04   -0.6457112194E-02   -0.2251703364E-02   -0.5071759816E-03   -0.4672852797E-03    0.4830502713E-03    0.5938192521E-03   -0.8358576707E-03   -0.3712459289E-03    0.8086151506E-03    0.8149431513E-03   -0.3281964486E-02   -0.9841327983E-04    0.7138142005E-04    0.1157681464E-03   -0.6118392153E-04   -0.1365177391E-03    0.1136122914E-03    0.1061493687E-03   -0.4713857902E-04   -0.1672146278E-03    0.3553900993E-03    0.1830324372E-03    0.9757350563E-05   -0.1630856291E-04    0.6301918056E-07    0.2046074761E-04   -0.2587138175E-04   -0.1680489036E-04    0.1594658592E-04    0.9561970246E-05   -0.3003642158E-05   -0.2605001138E-04    0.3695267452E-04    0.6307991688E-04
    0.0000000000E+00    0.2860000000E+01   -0.2384566616E-03   -0.5797305601E-02   -0.1302128359E-01    0.1070645066E-01    0.3041296426E-01   -0.2808498355E-01    0.1828149611E-02    0.6233903130E-02   -0.3191509961E-01    0.1675592459E-01    0.2200752454E-01    0.5673183580E-02   -0.4048859624E-02    0.2614692936E-01    0.4833977877E-02   -0.2752975641E-02   -0.1725439143E-02    0.7551495701E-03    0.4297114993E-02   -0.1276090587E-02    0.1291911513E-02    0.1057099412E-02   -0.1545792101E-02   -0.1456412491E-02    0.2357063170E-02   -0.1656186049E-04   -0.6504421834E-02   -0.2233006691E-02   -0.5141915807E-03   -0.4708327278E-03    0.4918201985E-03    0.5960934778E-03   -0.8427074219E-03   -0.3758079335E-03    0.8205864911E-03    0.8167974440E-03   -0.3284218601E-02   -0.1126079380E-03    0.7275518169E-04    0.1172319400E-03   -0.6281545834E-04   -0.1373079272E-03    0.1148671828E-03    0.1075097312E-03   -0.4878080234E-04   -0.1689157042E-03    0.3556459892E-03    0.1864638370E-03    0.9394050453E-05   -0.1594178614E-04    0.1177185298E-06    0.2116399400E-04   -0.2573873853E-04   -0.1760783345E-04    0.1650709043E-04    0.9182686889E-05   -0.3675528623E-05   -0.2557603697E-04    0.3823844466E-04    0.6180646858E-04
    0.0000000000E+00    0.2865000000E+01   -0.3279447527E-03   -0.5783054406E-02   -0.1290322742E-01    0.1068307957E-01    0.3005607758E-01   -0.2821517495E-01    0.1864649068E-02    0.6217530082E-02   -0.3180041952E-01    0.1694781792E-01    0.2198657343E-01    0.5557720019E-02   -0.3891736931E-02    0.2609254284E-01    0.4849461758E-02   -0.2809279958E-02   -0.1765878785E-02    0.7908866160E-03    0.4314137935E-02   -0.1325951893E-02    0.1287879297E-02    0.1067208004E-02   -0.1535570653E-02   -0.1463987818E-02    0.2354605406E-02   -0.1231345045E-04   -0.6450613109E-02   -0.2210296881E-02   -0.5150579959E-03   -0.4740678687E-03    0.4911594934E-03    0.5999044110E-03   -0.8462569702E-03   -0.3773852797E-03    0.8164851944E-03    0.8180710320E-03   -0.3297418883E-02   -0.1066632622E-03    0.7324396264E-04    0.1179488559E-03   -0.6264985287E-04   -0.1387258477E-03    0.1155879650E-03    0.1085347188E-03   -0.4877594227E-04   -0.1690271283E-03    0.3589624073E-03    0.1852353954E-03    0.9551422940E-05   -0.1672539213E-04    0.4199687217E-06    0.2076114991E-04   -0.2602319892E-04   -0.1725270072E-04    0.1619506539E-04    0.1019112805E-04   -0.3747188400E-05   -0.2639661579E-04    0.3705665504E-04    0.6274824967E-04
    0.0000000000E+00    0.2870000000E+01   -0.4329772758E-03   -0.5772221803E-02   -0.1279921248E-01    0.1062637572E-01    0.2969707545E-01   -0.2835992703E-01    0.1884863657E-02    0.6206177004E-02   -0.3168789988E-01    0.1714695160E-01    0.2197004822E-01    0.5426031004E-02   -0.3764519845E-02    0.2601610696E-01    0.4850833888E-02   -0.2866359878E-02   -0.1783125659E-02    0.8224418646E-03    0.4321919580E-02   -0.1382134226E-02    0.1293607055E-02    0.1076632457E-02   -0.1540094203E-02   -0.1469291617E-02    0.2357691848E-02   -0.3103678907E-05   -0.6443647036E-02   -0.2188927169E-02   -0.5187743367E-03   -0.4773836908E-03    0.4948869710E-03    0.6029157204E-03   -0.8512915821E-03   -0.3803081007E-03    0.8198756966E-03    0.8194936574E-03   -0.3305246514E-02   -0.1099734851E-03    0.7414989053E-04    0.1189997589E-03   -0.6333018489E-04   -0.1398308636E-03    0.1165648530E-03    0.1096950385E-03   -0.4955372702E-04   -0.1698533035E-03    0.3608293987E-03    0.1861618136E-03    0.9455912643E-05   -0.1697163307E-04    0.6100984962E-06    0.2087910657E-04   -0.2611239277E-04   -0.1743736823E-04    0.1628871002E-04    0.1055060608E-04   -0.4110473537E-05   -0.2661020512E-04    0.3704099567E-04    0.6263928922E-04
    0.0000000000E+00    0.2875000000E+01   -0.5377309104E-03   -0.5760293680E-02   -0.1269685326E-01    0.1056918754E-01    0.2933847299E-01   -0.2850088136E-01    0.1904981597E-02    0.6194388877E-02   -0.3157380877E-01    0.1734461817E-01    0.2195234009E-01    0.5294621699E-02   -0.3638180299E-02    0.2593904787E-01    0.4851679732E-02   -0.2923295992E-02   -0.1799824166E-02    0.8538989257E-03    0.4329383521E-02   -0.1438205929E-02    0.1299422364E-02    0.1085974256E-02   -0.1544753652E-02   -0.1474467647E-02    0.2360744656E-02    0.6145772787E-05   -0.6437136689E-02   -0.2167219353E-02   -0.5225221380E-03   -0.4806536945E-03    0.4986728073E-03    0.6058580523E-03   -0.8563135543E-03   -0.3832128619E-03    0.8233738163E-03    0.8208362167E-03   -0.3312833138E-02   -0.1133056926E-03    0.7506637088E-04    0.1200453085E-03   -0.6402920842E-04   -0.1409180059E-03    0.1175519315E-03    0.1108425951E-03   -0.5035407448E-04   -0.1706722385E-03    0.3626650980E-03    0.1871039517E-03    0.9350009925E-05   -0.1721036042E-04    0.8009605545E-06    0.2100774016E-04   -0.2619883556E-04   -0.1762922838E-04    0.1638730395E-04    0.1089991759E-04   -0.4485853128E-05   -0.2681380493E-04    0.3705253225E-04    0.6250514886E-04
    0.0000000000E+00    0.2880000000E+01   -0.6420263882E-03   -0.5747227343E-02   -0.1259599772E-01    0.1051190359E-01    0.2898030403E-01   -0.2863784994E-01    0.1925184053E-02    0.6182119966E-02   -0.3145809729E-01    0.1754072826E-01    0.2193341086E-01    0.5163680781E-02   -0.3512387143E-02    0.2586161855E-01    0.4852137637E-02   -0.2980082247E-02   -0.1816219700E-02    0.8853062456E-03    0.4336623155E-02   -0.1494101196E-02    0.1305222720E-02    0.1095237305E-02   -0.1549392802E-02   -0.1479537565E-02    0.2363704299E-02    0.1537471250E-04   -0.6430586588E-02   -0.2145158263E-02   -0.5262737487E-03   -0.4838745915E-03    0.5024728465E-03    0.6087384420E-03   -0.8613093585E-03   -0.3860809673E-03    0.8269032638E-03    0.8220969126E-03   -0.3320246606E-02   -0.1165497038E-03    0.7599028881E-04    0.1210817399E-03   -0.6473909868E-04   -0.1419907301E-03    0.1185479806E-03    0.1119756416E-03   -0.5116999626E-04   -0.1714767826E-03    0.3644879342E-03    0.1880374083E-03    0.9236329654E-05   -0.1744780305E-04    0.9938021016E-06    0.2114155565E-04   -0.2628496649E-04   -0.1782242309E-04    0.1648656685E-04    0.1124612336E-04   -0.4870359357E-05   -0.2701446588E-04    0.3707928434E-04    0.6235785766E-04
    0.0000000000E+00    0.2885000000E+01   -0.7458237785E-03   -0.5733020560E-02   -0.1249660356E-01    0.1045462344E-01    0.2862257919E-01   -0.2877080948E-01    0.1945508552E-02    0.6169373841E-02   -0.3134075140E-01    0.1773527142E-01    0.2191327175E-01    0.5033253820E-02   -0.3387066379E-02    0.2578388470E-01    0.4852227311E-02   -0.3036721844E-02   -0.1832359060E-02    0.9166766589E-03    0.4343654206E-02   -0.1549811154E-02    0.1310991035E-02    0.1104420797E-02   -0.1553984218E-02   -0.1484504856E-02    0.2366560999E-02    0.2456650979E-04   -0.6423908962E-02   -0.2122745598E-02   -0.5300265251E-03   -0.4870446582E-03    0.5062811426E-03    0.6115579872E-03   -0.8662790591E-03   -0.3889062365E-03    0.8304526053E-03    0.8232766662E-03   -0.3327510586E-02   -0.1196779446E-03    0.7692208953E-04    0.1221084474E-03   -0.6545926979E-04   -0.1430500567E-03    0.1195539563E-03    0.1130939205E-03   -0.5200108005E-04   -0.1722662976E-03    0.3663039140E-03    0.1889569621E-03    0.9115391189E-05   -0.1768554401E-04    0.1188854294E-05    0.2127954737E-04   -0.2637151925E-04   -0.1801579943E-04    0.1658573645E-04    0.1159071396E-04   -0.5263449985E-05   -0.2721398839E-04    0.3711916356E-04    0.6220064029E-04
    0.0000000000E+00    0.2890000000E+01   -0.8491073119E-03   -0.5717678657E-02   -0.1239864819E-01    0.1039739635E-01    0.2826530451E-01   -0.2889976783E-01    0.1965966646E-02    0.6156163415E-02   -0.3122176500E-01    0.1792825243E-01    0.2189194224E-01    0.4903363299E-02   -0.3262190124E-02    0.2570588034E-01    0.4851948900E-02   -0.3093220405E-02   -0.1848255283E-02    0.9480170038E-03    0.4350479728E-02   -0.1605336921E-02    0.1316725144E-02    0.1113523642E-02   -0.1558522792E-02   -0.1489370472E-02    0.2369314084E-02    0.3371240771E-04   -0.6417085842E-02   -0.2099987604E-02   -0.5337822380E-03   -0.4901628540E-03    0.5100983641E-03    0.6143171813E-03   -0.8712253343E-03   -0.3916850554E-03    0.8340214083E-03    0.8243774231E-03   -0.3334641628E-02   -0.1226784281E-03    0.7786278709E-04    0.1231255094E-03   -0.6619032698E-04   -0.1440967088E-03    0.1205711660E-03    0.1141975752E-03   -0.5284793845E-04   -0.1730413798E-03    0.3681168698E-03    0.1898610142E-03    0.8987385174E-05   -0.1792436995E-04    0.1386153526E-05    0.2142148760E-04   -0.2645890950E-04   -0.1820907421E-04    0.1668464694E-04    0.1193413219E-04   -0.5664968974E-05   -0.2741331053E-04    0.3717173927E-04    0.6203512623E-04
    0.0000000000E+00    0.2895000000E+01   -0.9518682428E-03   -0.5701209634E-02   -0.1230211542E-01    0.1034025660E-01    0.2790848446E-01   -0.2902474411E-01    0.1986561300E-02    0.6142504853E-02   -0.3110113614E-01    0.1811968164E-01    0.2186944362E-01    0.4774026333E-02   -0.3137745356E-02    0.2562763063E-01    0.4851297768E-02   -0.3149584839E-02   -0.1863912112E-02    0.9793324445E-03    0.4357099766E-02   -0.1660682557E-02    0.1322427286E-02    0.1122545141E-02   -0.1563009880E-02   -0.1494135147E-02    0.2371965905E-02    0.4280629031E-04   -0.6410118760E-02   -0.2076893129E-02   -0.5375439651E-03   -0.4932286936E-03    0.5139270550E-03    0.6170167029E-03   -0.8761517900E-03   -0.3944149475E-03    0.8376121891E-03    0.8254018666E-03   -0.3341654495E-02   -0.1255448581E-03    0.7881350529E-04    0.1241333163E-03   -0.6693315286E-04   -0.1451314205E-03    0.1216009784E-03    0.1152870089E-03   -0.5371135978E-04   -0.1738030675E-03    0.3699299471E-03    0.1907492694E-03    0.8852436254E-05   -0.1816483666E-04    0.1585662150E-05    0.2156737581E-04   -0.2654745043E-04   -0.1840219019E-04    0.1678329475E-04    0.1227668434E-04   -0.6074845921E-05   -0.2761308204E-04    0.3723699034E-04    0.6186257455E-04
    0.0000000000E+00    0.2900000000E+01   -0.1054100440E-02   -0.5683622912E-02   -0.1220699197E-01    0.1028323237E-01    0.2755212305E-01   -0.2914576369E-01    0.2007291262E-02    0.6128415883E-02   -0.3097886612E-01    0.1830957226E-01    0.2184579733E-01    0.4645259093E-02   -0.3013725988E-02    0.2554915751E-01    0.4850268322E-02   -0.3205822943E-02   -0.1879330215E-02    0.1010627511E-02    0.4363513811E-02   -0.1715853185E-02    0.1328101359E-02    0.1131485166E-02   -0.1567449207E-02   -0.1498799981E-02    0.2374520239E-02    0.5184339762E-04   -0.6403015812E-02   -0.2053473015E-02   -0.5413152547E-03   -0.4962422208E-03    0.5177703838E-03    0.6196576053E-03   -0.8810624786E-03   -0.3970942260E-03    0.8412283114E-03    0.8263533095E-03   -0.3348563353E-02   -0.1282741409E-03    0.7977534539E-04    0.1251324644E-03   -0.6768866566E-04   -0.1461550054E-03    0.1226447342E-03    0.1163628133E-03   -0.5459209827E-04   -0.1745526175E-03    0.3717459421E-03    0.1916221388E-03    0.8710669341E-05   -0.1840741087E-04    0.1787300070E-05    0.2171728870E-04   -0.2663739072E-04   -0.1859523076E-04    0.1688172913E-04    0.1261852809E-04   -0.6493018527E-05   -0.2781391410E-04    0.3731499897E-04    0.6168405504E-04
    0.0000000000E+00    0.2905000000E+01   -0.1155798861E-02   -0.5664928888E-02   -0.1211326633E-01    0.1022634867E-01    0.2719622434E-01   -0.2926285636E-01    0.2028152516E-02    0.6113915098E-02   -0.3085495925E-01    0.1849793924E-01    0.2182102411E-01    0.4517078185E-02   -0.2890130209E-02    0.2547048144E-01    0.4848855344E-02   -0.3261943157E-02   -0.1894509274E-02    0.1041906397E-02    0.4369721617E-02   -0.1770854295E-02    0.1333751948E-02    0.1140344205E-02   -0.1571845426E-02   -0.1503366619E-02    0.2376981700E-02    0.6081992734E-04   -0.6395787193E-02   -0.2029739760E-02   -0.5450998028E-03   -0.4992039898E-03    0.5216316836E-03    0.6222413683E-03   -0.8859616876E-03   -0.3997218875E-03    0.8448732381E-03    0.8272356180E-03   -0.3355382038E-02   -0.1308655417E-03    0.8074933186E-04    0.1261237125E-03   -0.6845772775E-04   -0.1471683688E-03    0.1237037027E-03    0.1174257558E-03   -0.5549079066E-04   -0.1752914191E-03    0.3735673970E-03    0.1924805216E-03    0.8562232520E-05   -0.1865251233E-04    0.1990956870E-05    0.2187133887E-04   -0.2672893555E-04   -0.1878833326E-04    0.1698000855E-04    0.1295978872E-04   -0.6919399878E-05   -0.2801632447E-04    0.3740584373E-04    0.6150060446E-04
    0.0000000000E+00    0.2910000000E+01   -0.1256958900E-02   -0.5645138738E-02   -0.1202092822E-01    0.1016962849E-01    0.2684079289E-01   -0.2937605560E-01    0.2049138874E-02    0.6099021557E-02   -0.3072942280E-01    0.1868479864E-01    0.2179514366E-01    0.4389501106E-02   -0.2766959361E-02    0.2539162192E-01    0.4847054547E-02   -0.3317954367E-02   -0.1909448816E-02    0.1073173028E-02    0.4375723515E-02   -0.1825691398E-02    0.1339383879E-02    0.1149123383E-02   -0.1576203491E-02   -0.1507837303E-02    0.2379355450E-02    0.6973289528E-04   -0.6388443319E-02   -0.2005707270E-02   -0.5489012878E-03   -0.5021150489E-03    0.5255142345E-03    0.6247699000E-03   -0.8908538096E-03   -0.4022975692E-03    0.8485501997E-03    0.8280531416E-03   -0.3362124042E-02   -0.1333203256E-03    0.8173638178E-04    0.1271079543E-03   -0.6924110349E-04   -0.1481725035E-03    0.1247790538E-03    0.1184767594E-03   -0.5640792261E-04   -0.1760209457E-03    0.3753966099E-03    0.1933257029E-03    0.8407303913E-05   -0.1890053235E-04    0.2196493795E-05    0.2202963932E-04   -0.2682225067E-04   -0.1898167464E-04    0.1707818458E-04    0.1330057088E-04   -0.7353875243E-05   -0.2822084277E-04    0.3750955965E-04    0.6131317486E-04
    0.0000000000E+00    0.2915000000E+01   -0.1357576064E-02   -0.5624264306E-02   -0.1192996829E-01    0.1011309320E-01    0.2648583414E-01   -0.2948539807E-01    0.2070242244E-02    0.6083754494E-02   -0.3060226697E-01    0.1887016717E-01    0.2176817434E-01    0.4262546330E-02   -0.2644217413E-02    0.2531259766E-01    0.4844862841E-02   -0.3373865715E-02   -0.1924148577E-02    0.1104431058E-02    0.4381520531E-02   -0.1880369810E-02    0.1345001976E-02    0.1157824445E-02   -0.1580528332E-02   -0.1512214865E-02    0.2381647020E-02    0.7858008510E-04   -0.6380993903E-02   -0.1981390622E-02   -0.5527232637E-03   -0.5049769181E-03    0.5294211374E-03    0.6272455183E-03   -0.8957432434E-03   -0.4048215261E-03    0.8522620185E-03    0.8288106406E-03   -0.3368802392E-02   -0.1356415603E-03    0.8273728493E-04    0.1280861956E-03   -0.7003943377E-04   -0.1491684777E-03    0.1258718370E-03    0.1195168852E-03   -0.5734381076E-04   -0.1767427207E-03    0.3772356276E-03    0.1941592884E-03    0.8246096532E-05   -0.1915183151E-04    0.2403751767E-05    0.2219231418E-04   -0.2691746369E-04   -0.1917545249E-04    0.1717629705E-04    0.1364098803E-04   -0.7796289043E-05   -0.2842794649E-04    0.3762612082E-04    0.6112270170E-04
    0.0000000000E+00    0.2920000000E+01   -0.1457645784E-02   -0.5602318019E-02   -0.1184037800E-01    0.1005676285E-01    0.2613135470E-01   -0.2959092328E-01    0.2091452796E-02    0.6068133077E-02   -0.3047350481E-01    0.1905406173E-01    0.2174013297E-01    0.4136233253E-02   -0.2521910628E-02    0.2523342650E-01    0.4842278459E-02   -0.3429686427E-02   -0.1938608662E-02    0.1135683832E-02    0.4387114417E-02   -0.1934894505E-02    0.1350610899E-02    0.1166449729E-02   -0.1584824652E-02   -0.1516502702E-02    0.2383862171E-02    0.8736002904E-04   -0.6373447463E-02   -0.1956805833E-02   -0.5565690814E-03   -0.5077915613E-03    0.5333552285E-03    0.6296709205E-03   -0.9006343081E-03   -0.4072946082E-03    0.8560110050E-03    0.8295132135E-03   -0.3375429507E-02   -0.1378339719E-03    0.8375268909E-04    0.1290595344E-03   -0.7085322244E-04   -0.1501574192E-03    0.1269829639E-03    0.1205473148E-03   -0.5829859488E-04   -0.1774582897E-03    0.3790862229E-03    0.1949831557E-03    0.8078855307E-05   -0.1940675151E-04    0.2612547558E-05    0.2235946699E-04   -0.2701466472E-04   -0.1936988212E-04    0.1727437287E-04    0.1398117359E-04   -0.8246453662E-05   -0.2863814375E-04    0.3775543243E-04    0.6093009889E-04
    0.0000000000E+00    0.2925000000E+01   -0.1557163289E-02   -0.5579312822E-02   -0.1175214938E-01    0.1000065614E-01    0.2577736263E-01   -0.2969267330E-01    0.2112759083E-02    0.6052176206E-02   -0.3034315224E-01    0.1923649913E-01    0.2171103469E-01    0.4010582040E-02   -0.2400047327E-02    0.2515412530E-01    0.4839301014E-02   -0.3485425631E-02   -0.1952829613E-02    0.1166934334E-02    0.4392507637E-02   -0.1989269988E-02    0.1356215033E-02    0.1175002129E-02   -0.1589096800E-02   -0.1520704726E-02    0.2386006788E-02    0.9607199498E-04   -0.6365811033E-02   -0.1931969626E-02   -0.5604418252E-03   -0.5105613522E-03    0.5373190169E-03    0.6320491438E-03   -0.9055311662E-03   -0.4097182356E-03    0.8597988929E-03    0.8301662195E-03   -0.3382017041E-02   -0.1399038140E-03    0.8478308991E-04    0.1300291396E-03   -0.7168282693E-04   -0.1511404990E-03    0.1281131956E-03    0.1215693317E-03   -0.5927224038E-04   -0.1781691950E-03    0.3809498797E-03    0.1957994088E-03    0.7905858946E-05   -0.1966560325E-04    0.2822681767E-05    0.2253119738E-04   -0.2711390761E-04   -0.1956518732E-04    0.1737240642E-04    0.1432119472E-04   -0.8704136684E-05   -0.2885188167E-04    0.3789733300E-04    0.6073625966E-04
    0.0000000000E+00    0.2930000000E+01   -0.1656123529E-02   -0.5555262106E-02   -0.1166527499E-01    0.9944790564E-02    0.2542386770E-01   -0.2979069250E-01    0.2134148150E-02    0.6035902306E-02   -0.3021122787E-01    0.1941749569E-01    0.2168089283E-01    0.3885613445E-02   -0.2278637689E-02    0.2507470978E-01    0.4835931507E-02   -0.3541092190E-02   -0.1966812423E-02    0.1198185137E-02    0.4397703326E-02   -0.2043500199E-02    0.1361818394E-02    0.1183485051E-02   -0.1593348665E-02   -0.1524825310E-02    0.2388086765E-02    0.1047159736E-03   -0.6358089991E-02   -0.1906899199E-02   -0.5643442585E-03   -0.5132890356E-03    0.5413146360E-03    0.6343835207E-03   -0.9104377526E-03   -0.4120943677E-03    0.8636267979E-03    0.8307752001E-03   -0.3388575722E-02   -0.1418587371E-03    0.8582882371E-04    0.1309962313E-03   -0.7252845238E-04   -0.1521189128E-03    0.1292631310E-03    0.1225843013E-03   -0.6026453486E-04   -0.1788769542E-03    0.3828277709E-03    0.1966103363E-03    0.7727416856E-05   -0.1992866762E-04    0.3033936526E-05    0.2270758430E-04   -0.2721520944E-04   -0.1976159401E-04    0.1747038039E-04    0.1466116317E-04   -0.9169070445E-05   -0.2906960966E-04    0.3805159268E-04    0.6054196755E-04
    0.0000000000E+00    0.2935000000E+01   -0.1754521107E-02   -0.5530179651E-02   -0.1157974778E-01    0.9889182322E-02    0.2507088161E-01   -0.2988502717E-01    0.2155605638E-02    0.6019329164E-02   -0.3007775293E-01    0.1959706698E-01    0.2164971883E-01    0.3761348590E-02   -0.2157693553E-02    0.2499519442E-01    0.4832172298E-02   -0.3596694538E-02   -0.1980558520E-02    0.1229438353E-02    0.4402705225E-02   -0.2097588425E-02    0.1367424551E-02    0.1191902351E-02   -0.1597583611E-02   -0.1528869216E-02    0.2390107917E-02    0.1132926583E-03   -0.6350287970E-02   -0.1881611992E-02   -0.5682787790E-03   -0.5159776826E-03    0.5453438053E-03    0.6366776288E-03   -0.9153577096E-03   -0.4144254658E-03    0.8674951929E-03    0.8313457993E-03   -0.3395115216E-02   -0.1437076469E-03    0.8689006278E-04    0.1319620604E-03   -0.7339014943E-04   -0.1530938629E-03    0.1304331990E-03    0.1235936513E-03   -0.6127509512E-04   -0.1795830382E-03    0.3847207461E-03    0.1974183683E-03    0.7543865976E-05   -0.2019619719E-04    0.3246080203E-05    0.2288869226E-04   -0.2731855144E-04   -0.1995932451E-04    0.1756825547E-04    0.1500118230E-04   -0.9640948811E-05   -0.2929174610E-04    0.3821791978E-04    0.6034805061E-04
    0.0000000000E+00    0.2940000000E+01   -0.1852350234E-02   -0.5504079556E-02   -0.1149556091E-01    0.9833846388E-02    0.2471841815E-01   -0.2997572533E-01    0.2177115910E-02    0.6002473753E-02   -0.2994275111E-01    0.1977522749E-01    0.2161752224E-01    0.3637808742E-02   -0.2037228230E-02    0.2491559225E-01    0.4828027056E-02   -0.3652240524E-02   -0.1994069729E-02    0.1260695590E-02    0.4407517608E-02   -0.2151537229E-02    0.1373036573E-02    0.1200258278E-02   -0.1601804413E-02   -0.1532841525E-02    0.2392075883E-02    0.1218034158E-03   -0.6342406817E-02   -0.1856125462E-02   -0.5722473814E-03   -0.5186306423E-03    0.5494078025E-03    0.6389352392E-03   -0.9202943287E-03   -0.4167144495E-03    0.8714038985E-03    0.8318836850E-03   -0.3401643994E-02   -0.1454605513E-03    0.8796681388E-04    0.1329278882E-03   -0.7426781547E-04   -0.1540665403E-03    0.1316236527E-03    0.1245988508E-03   -0.6230337619E-04   -0.1802888522E-03    0.3866293191E-03    0.1982260346E-03    0.7355568998E-05   -0.2046840824E-04    0.3458867390E-05    0.2307456077E-04   -0.2742388187E-04   -0.2015860008E-04    0.1766596734E-04    0.1534132810E-04   -0.1011943131E-04   -0.2951869189E-04    0.3839596405E-04    0.6015524897E-04
    0.0000000000E+00    0.2945000000E+01   -0.1949604697E-02   -0.5476976172E-02   -0.1141270774E-01    0.9778796488E-02    0.2436649336E-01   -0.3006283630E-01    0.2198662172E-02    0.5985352097E-02   -0.2980624837E-01    0.1995199041E-01    0.2158431063E-01    0.3515015073E-02   -0.1917256294E-02    0.2483591480E-01    0.4823500680E-02   -0.3707737267E-02   -0.2007348222E-02    0.1291957909E-02    0.4412145199E-02   -0.2205348386E-02    0.1378656971E-02    0.1208557402E-02   -0.1606013221E-02   -0.1536747559E-02    0.2393996048E-02    0.1302502514E-03   -0.6334446601E-02   -0.1830456853E-02   -0.5762516271E-03   -0.5212514897E-03    0.5535074423E-03    0.6411602604E-03   -0.9252504979E-03   -0.4189646463E-03    0.8753520839E-03    0.8323944701E-03   -0.3408169218E-02   -0.1471284000E-03    0.8905891868E-04    0.1338949667E-03   -0.7516119638E-04   -0.1550381064E-03    0.1328345670E-03    0.1256013892E-03   -0.6334867921E-04   -0.1809957180E-03    0.3885536632E-03    0.1990359219E-03    0.7162910253E-05   -0.2074548229E-04    0.3672043275E-05    0.2326521150E-04   -0.2753111398E-04   -0.2035962160E-04    0.1776343466E-04    0.1568168057E-04   -0.1060414181E-04   -0.2975080884E-04    0.3858531899E-04    0.5996419096E-04
    0.0000000000E+00    0.2950000000E+01   -0.2046277837E-02   -0.5448884035E-02   -0.1133118163E-01    0.9724045115E-02    0.2401512565E-01   -0.3014641046E-01    0.2220226613E-02    0.5967979132E-02   -0.2966827275E-01    0.2012736737E-01    0.2155008970E-01    0.3392988425E-02   -0.1797793383E-02    0.2475617191E-01    0.4818599214E-02   -0.3763191023E-02   -0.2020396469E-02    0.1323225795E-02    0.4416593076E-02   -0.2259022841E-02    0.1384287665E-02    0.1216804545E-02   -0.1610211531E-02   -0.1540592800E-02    0.2395873458E-02    0.1386357635E-03   -0.6326405644E-02   -0.1804622993E-02   -0.5802926199E-03   -0.5238439732E-03    0.5576430639E-03    0.6433566820E-03   -0.9302286563E-03   -0.4211797391E-03    0.8793382777E-03    0.8328836370E-03   -0.3414696654E-02   -0.1487229124E-03    0.9016605671E-04    0.1348645184E-03   -0.7606989266E-04   -0.1560096761E-03    0.1340658371E-03    0.1266027553E-03   -0.6441016421E-04   -0.1817048577E-03    0.3904936071E-03    0.1998506327E-03    0.6966292131E-05   -0.2102756393E-04    0.3885343731E-05    0.2346063739E-04   -0.2764013076E-04   -0.2056257941E-04    0.1786055338E-04    0.1602228874E-04   -0.1109467367E-04   -0.2998842925E-04    0.3878553708E-04    0.5977554696E-04
    0.0000000000E+00    0.2955000000E+01   -0.2142362532E-02   -0.5419817796E-02   -0.1125097586E-01    0.9669603547E-02    0.2366433583E-01   -0.3022649891E-01    0.2241790556E-02    0.5950368602E-02   -0.2952885412E-01    0.2030136824E-01    0.2151486324E-01    0.3271749078E-02   -0.1678855979E-02    0.2467637172E-01    0.4813329727E-02   -0.3818607062E-02   -0.2033217163E-02    0.1354499131E-02    0.4420866574E-02   -0.2312560670E-02    0.1389929956E-02    0.1225004699E-02   -0.1614400168E-02   -0.1544382806E-02    0.2397712758E-02    0.1469630877E-03   -0.6318280602E-02   -0.1778640081E-02   -0.5843709924E-03   -0.5264119549E-03    0.5618145261E-03    0.6455285182E-03   -0.9352307575E-03   -0.4233637048E-03    0.8833603904E-03    0.8333564624E-03   -0.3421230594E-02   -0.1502563978E-03    0.9128775066E-04    0.1358377201E-03   -0.7699336490E-04   -0.1569823014E-03    0.1353171811E-03    0.1276044180E-03   -0.6548686181E-04   -0.1824173786E-03    0.3924486401E-03    0.2006727411E-03    0.6766133529E-05   -0.2131475174E-04    0.4098499881E-05    0.2366081367E-04   -0.2775078728E-04   -0.2076764672E-04    0.1795720524E-04    0.1636320309E-04   -0.1159059118E-04   -0.3023184944E-04    0.3899612681E-04    0.5958990641E-04
    0.0000000000E+00    0.2960000000E+01   -0.2237851196E-02   -0.5389792158E-02   -0.1117208357E-01    0.9615481883E-02    0.2331414721E-01   -0.3030315311E-01    0.2263334611E-02    0.5932532952E-02   -0.2938802394E-01    0.2047400094E-01    0.2147863329E-01    0.3151316526E-02   -0.1560461193E-02    0.2459652053E-01    0.4807700195E-02   -0.3873989566E-02   -0.2045813164E-02    0.1385777182E-02    0.4424971182E-02   -0.2365961060E-02    0.1395584505E-02    0.1233162952E-02   -0.1618579279E-02   -0.1548123127E-02    0.2399518121E-02    0.1552358385E-03   -0.6310066548E-02   -0.1752523504E-02   -0.5884868947E-03   -0.5289593560E-03    0.5660212082E-03    0.6476797500E-03   -0.9402582378E-03   -0.4255207531E-03    0.8874157431E-03    0.8338179494E-03   -0.3427773806E-02   -0.1517415713E-03    0.9242337285E-04    0.1368156816E-03   -0.7793094363E-04   -0.1579569555E-03    0.1365881432E-03    0.1286078040E-03   -0.6657768935E-04   -0.1831342605E-03    0.3944179153E-03    0.2015047557E-03    0.6562861784E-05   -0.2160711349E-04    0.4311239583E-05    0.2386568459E-04   -0.2786291158E-04   -0.2097497147E-04    0.1805325326E-04    0.1670443667E-04   -0.1209143412E-04   -0.3048133110E-04    0.3921655752E-04    0.5940777505E-04
    0.0000000000E+00    0.2965000000E+01   -0.2332735781E-02   -0.5358821797E-02   -0.1109449756E-01    0.9561689076E-02    0.2296458552E-01   -0.3037642459E-01    0.2284838845E-02    0.5914483267E-02   -0.2924581499E-01    0.2064527133E-01    0.2144140017E-01    0.3031709260E-02   -0.1442626538E-02    0.2451662285E-01    0.4801719367E-02   -0.3929341533E-02   -0.2058187418E-02    0.1417058587E-02    0.4428912441E-02   -0.2419222294E-02    0.1401251331E-02    0.1241284407E-02   -0.1622748347E-02   -0.1551819221E-02    0.2401293201E-02    0.1634580399E-03   -0.6301757096E-02   -0.1726287660E-02   -0.5926399938E-03   -0.5314900995E-03    0.5702620192E-03    0.6498142707E-03   -0.9453119951E-03   -0.4276552599E-03    0.8915011049E-03    0.8342727624E-03   -0.3434327510E-02   -0.1531913657E-03    0.9357215449E-04    0.1377994319E-03   -0.7888184002E-04   -0.1589345200E-03    0.1378781012E-03    0.1296142807E-03   -0.6768146662E-04   -0.1838563476E-03    0.3964002640E-03    0.2023490766E-03    0.6356911260E-05   -0.2190466908E-04    0.4523286679E-05    0.2407517024E-04   -0.2797630596E-04   -0.2118466727E-04    0.1814855187E-04    0.1704599123E-04   -0.1259671926E-04   -0.3073710124E-04    0.3944629169E-04    0.5922958257E-04
    0.0000000000E+00    0.2970000000E+01   -0.2427007788E-02   -0.5326921308E-02   -0.1101821029E-01    0.9508232991E-02    0.2261567895E-01   -0.3044636459E-01    0.2306282938E-02    0.5896229204E-02   -0.2910226112E-01    0.2081518308E-01    0.2140316266E-01    0.2912944573E-02   -0.1325369720E-02    0.2443668129E-01    0.4795396620E-02   -0.3984664715E-02   -0.2070342896E-02    0.1448341356E-02    0.4432695836E-02   -0.2472341759E-02    0.1406929809E-02    0.1249374101E-02   -0.1626906196E-02   -0.1555476377E-02    0.2403041085E-02    0.1716340550E-03   -0.6293344535E-02   -0.1699945805E-02   -0.5968294776E-03   -0.5340080512E-03    0.5745354124E-03    0.6519358311E-03   -0.9503923742E-03   -0.4297717039E-03    0.8956127377E-03    0.8347251653E-03   -0.3440891363E-02   -0.1546187445E-03    0.9473319665E-04    0.1387899018E-03   -0.7984515540E-04   -0.1599157698E-03    0.1391862724E-03    0.1306251359E-03   -0.6879692958E-04   -0.1845843324E-03    0.3983942108E-03    0.2032079613E-03    0.6148721130E-05   -0.2220739484E-04    0.4734371795E-05    0.2428916609E-04   -0.2809075850E-04   -0.2139684105E-04    0.1824294198E-04    0.1738785045E-04   -0.1310594489E-04   -0.3099932343E-04    0.3968474152E-04    0.5905570651E-04
    0.0000000000E+00    0.2975000000E+01   -0.2520658286E-02   -0.5294105134E-02   -0.1094321375E-01    0.9455120459E-02    0.2226745802E-01   -0.3051302379E-01    0.2327646374E-02    0.5877778962E-02   -0.2895739695E-01    0.2098373757E-01    0.2136391812E-01    0.2795038381E-02   -0.1208708405E-02    0.2435669664E-01    0.4788741805E-02   -0.4039959554E-02   -0.2082282516E-02    0.1479622881E-02    0.4436326690E-02   -0.2525315956E-02    0.1412618686E-02    0.1257436929E-02   -0.1631051031E-02   -0.1559099632E-02    0.2404764264E-02    0.1797685048E-03   -0.6284819984E-02   -0.1673509912E-02   -0.6010540668E-03   -0.5365169667E-03    0.5788394066E-03    0.6540479881E-03   -0.9554991609E-03   -0.4318745955E-03    0.8997464466E-03    0.8351789693E-03   -0.3447463477E-02   -0.1560365123E-03    0.9590548193E-04    0.1397879106E-03   -0.8081989731E-04   -0.1609013640E-03    0.1405117262E-03    0.1316415617E-03   -0.6992275227E-04   -0.1853187558E-03    0.4003979915E-03    0.2040834859E-03    0.5938726974E-05   -0.2251522672E-04    0.4944225780E-05    0.2450753590E-04   -0.2820603567E-04   -0.2161155033E-04    0.1833625595E-04    0.1772995156E-04   -0.1361859430E-04   -0.3126813440E-04    0.3993132691E-04    0.5888646677E-04
    0.0000000000E+00    0.2980000000E+01   -0.2613677938E-02   -0.5260387501E-02   -0.1086949938E-01    0.9402357350E-02    0.2191995551E-01   -0.3057645201E-01    0.2348908594E-02    0.5859139262E-02   -0.2881125756E-01    0.2115093388E-01    0.2132366269E-01    0.2678005058E-02   -0.1092660014E-02    0.2427666788E-01    0.4781765097E-02   -0.4095225146E-02   -0.2094009076E-02    0.1510899953E-02    0.4439810068E-02   -0.2578140530E-02    0.1418316101E-02    0.1265477564E-02   -0.1635180464E-02   -0.1562693699E-02    0.2406464602E-02    0.1878661916E-03   -0.6276173560E-02   -0.1646990555E-02   -0.6053120322E-03   -0.5390204365E-03    0.5831716126E-03    0.6561540568E-03   -0.9606315834E-03   -0.4339684108E-03    0.9038976360E-03    0.8356374840E-03   -0.3454040457E-02   -0.1574571341E-03    0.9708788835E-04    0.1407941530E-03   -0.8180499138E-04   -0.1618918338E-03    0.1418533948E-03    0.1326646380E-03   -0.7105756088E-04   -0.1860599972E-03    0.4024095785E-03    0.2049775145E-03    0.5727359162E-05   -0.2282805707E-04    0.5152588666E-05    0.2473012321E-04   -0.2832189293E-04   -0.2182882602E-04    0.1842832632E-04    0.1807222652E-04   -0.1413413966E-04   -0.3154360947E-04    0.4018545471E-04    0.5872212089E-04
    0.0000000000E+00    0.2985000000E+01   -0.2706057036E-02   -0.5225782371E-02   -0.1079705801E-01    0.9349948651E-02    0.2157320629E-01   -0.3063669790E-01    0.2370049183E-02    0.5840315353E-02   -0.2866387824E-01    0.2131676875E-01    0.2128239144E-01    0.2561857302E-02   -0.9772415150E-03    0.2419659222E-01    0.4774476832E-02   -0.4150459226E-02   -0.2105525186E-02    0.1542168782E-02    0.4443150669E-02   -0.2630810303E-02    0.1424019618E-02    0.1273500389E-02   -0.1639291562E-02   -0.1566262898E-02    0.2408143328E-02    0.1959320148E-03   -0.6267394558E-02   -0.1620396814E-02   -0.6096012187E-03   -0.5415218352E-03    0.5875292658E-03    0.6582570648E-03   -0.9657883228E-03   -0.4360575255E-03    0.9080613712E-03    0.8361034766E-03   -0.3460617457E-02   -0.1588925567E-03    0.9827920422E-04    0.1418091879E-03   -0.8279929773E-04   -0.1628875755E-03    0.1432100866E-03    0.1336953171E-03   -0.7219995494E-04   -0.1868082733E-03    0.4044267052E-03    0.2058916664E-03    0.5515037951E-05   -0.2314573596E-04    0.5359210591E-05    0.2495674629E-04   -0.2843807659E-04   -0.2204866408E-04    0.1851898086E-04    0.1841456160E-04   -0.1465205090E-04   -0.3182579747E-04    0.4044653380E-04    0.5856283025E-04
    0.0000000000E+00    0.2990000000E+01   -0.2797785538E-02   -0.5190303378E-02   -0.1072587978E-01    0.9297898554E-02    0.2122724720E-01   -0.3069380869E-01    0.2391048029E-02    0.5821311030E-02   -0.2851529420E-01    0.2148123662E-01    0.2124009862E-01    0.2446606022E-02   -0.8624692251E-03    0.2411646521E-01    0.4766887350E-02   -0.4205658163E-02   -0.2116833203E-02    0.1573425028E-02    0.4446352736E-02   -0.2683319329E-02    0.1429726268E-02    0.1281509427E-02   -0.1643380904E-02   -0.1569811094E-02    0.2409801033E-02    0.2039708896E-03   -0.6258471638E-02   -0.1593736205E-02   -0.6139190739E-03   -0.5440242743E-03    0.5919092620E-03    0.6603597122E-03   -0.9709675298E-03   -0.4381461502E-03    0.9122324427E-03    0.8365791377E-03   -0.3467188252E-02   -0.1603540412E-03    0.9947814418E-04    0.1428334287E-03   -0.8380162756E-04   -0.1638888436E-03    0.1445805020E-03    0.1347344113E-03   -0.7334852328E-04   -0.1875636347E-03    0.4064468990E-03    0.2068272915E-03    0.5302168296E-05   -0.2346807314E-04    0.5563849545E-05    0.2518718128E-04   -0.2855432960E-04   -0.2227102814E-04    0.1860805596E-04    0.1875683569E-04   -0.1517179355E-04   -0.3211467770E-04    0.4071397739E-04    0.5840873132E-04
    0.0000000000E+00    0.2995000000E+01   -0.2888853109E-02   -0.5153963787E-02   -0.1065595411E-01    0.9246210538E-02    0.2088211683E-01   -0.3074782997E-01    0.2411885489E-02    0.5802128678E-02   -0.2836554028E-01    0.2164432969E-01    0.2119677781E-01    0.2332260246E-02   -0.7483586314E-03    0.2403628083E-01    0.4759006838E-02   -0.4260816982E-02   -0.2127935169E-02    0.1604663848E-02    0.4449419970E-02   -0.2735660951E-02    0.1435432592E-02    0.1289508278E-02   -0.1647444633E-02   -0.1573341640E-02    0.2411437677E-02    0.2119876660E-03   -0.6249393018E-02   -0.1567014627E-02   -0.6182626830E-03   -0.5465305582E-03    0.5963081997E-03    0.6624643350E-03   -0.9761668500E-03   -0.4402382692E-03    0.9164054349E-03    0.8370660557E-03   -0.3473745344E-02   -0.1618520050E-03    0.1006833666E-03    0.1438671363E-03   -0.8481075798E-04   -0.1648957455E-03    0.1459632496E-03    0.1357825811E-03   -0.7450186481E-04   -0.1883259676E-03    0.4084675123E-03    0.2077854448E-03    0.5089138517E-05   -0.2379483334E-04    0.5766284109E-05    0.2542119922E-04   -0.2867039261E-04   -0.2249583968E-04    0.1869539168E-04    0.1909888667E-04   -0.1569283861E-04   -0.3241019121E-04    0.4098721510E-04    0.5825990287E-04
    0.0000000000E+00    0.3000000000E+01   -0.2979249179E-02   -0.5116776443E-02   -0.1058726967E-01    0.9194887473E-02    0.2053785531E-01   -0.3079880545E-01    0.2432542544E-02    0.5782769325E-02   -0.2821465068E-01    0.2180603797E-01    0.2115242222E-01    0.2218827063E-02   -0.6349242189E-03    0.2395603159E-01    0.4750845177E-02   -0.4315929396E-02   -0.2138832756E-02    0.1635879931E-02    0.4452355441E-02   -0.2787827872E-02    0.1441134700E-02    0.1297500061E-02   -0.1651478530E-02   -0.1576857331E-02    0.2413052606E-02    0.2199870501E-03   -0.6240146672E-02   -0.1540236337E-02   -0.6226288074E-03   -0.5490431445E-03    0.6007224232E-03    0.6645728742E-03   -0.9813834548E-03   -0.4423375818E-03    0.9205747964E-03    0.8375651982E-03   -0.3480280064E-02   -0.1633958773E-03    0.1018934902E-03    0.1449104114E-03   -0.8582545064E-04   -0.1659082383E-03    0.1473568640E-03    0.1368403252E-03   -0.7565860753E-04   -0.1890949975E-03    0.4104857597E-03    0.2087668682E-03    0.4876311361E-05   -0.2412575145E-04    0.5966309969E-05    0.2565854377E-04   -0.2878601231E-04   -0.2272298926E-04    0.1878083531E-04    0.1944050879E-04   -0.1621466444E-04   -0.3271221866E-04    0.4126569342E-04    0.5811633491E-04
